0 1 0
0.02 0.9998000025 -0.019999
0.04 0.9992000624995 -0.03999100025
0.06 0.9982003024955 -0.05997000165
0.08 0.9968010624395 -0.07992700994978
0.1 0.995002942187504 -0.0998500377485
0.12 0.99280580173951 -0.1197450835461
0.14 0.990211127317767 -0.139592204217803
0.16 0.98722107225958 -0.159369016138965
0.18 0.983834027131395 -0.179097949236544
0.2 0.980050821562373 -0.198772215736511
0.22 0.975880017540333 -0.218328819063508
0.24 0.971316166258087 -0.237812603265058
0.26 0.966358634731527 -0.257226614433068
0.28 0.961018960946338 -0.276511702756932
0.3 0.955295935448083 -0.29567788281954
0.32 0.949184848228623 -0.314748265960009
0.34 0.942691685711358 -0.333699912268929
0.36 0.935830648348583 -0.352481327258322
0.38 0.928589237897062 -0.371140224608788
0.4 0.920965881856868 -0.38968120347628
0.42 0.912991439251624 -0.408013126222088
0.44 0.90464613001855 -0.426196386243602
0.46 0.895927691425925 -0.444236414078838
0.48 0.886862197022398 -0.462069978870669
0.5 0.877442784930136 -0.479715255718659
0.52 0.867660444753953 -0.497193219831197
0.54 0.857538499857232 -0.514456149445294
0.56 0.847078343634529 -0.531502403232397
0.58 0.836266474009219 -0.548358935956215
0.6 0.825126985876031 -0.564983343326644
0.62 0.813663005845213 -0.581371088351039
0.64 0.801859212377828 -0.597548536440143
0.66 0.789744965963932 -0.61347061447226
0.68 0.777317457215354 -0.629142407098342
0.7 0.764562459229467 -0.644585148677471
0.72 0.751520040208144 -0.659744610735064
0.74 0.738172372350802 -0.674645521008832
0.76 0.724514387849948 -0.68929473632327
0.78 0.71058960947835 -0.703640066738363
0.8 0.69636787933684 -0.717718043505154
0.82 0.68186355949512 -0.731513154725972
0.84 0.667100271384077 -0.745000391088405
0.86 0.652052951461418 -0.758206509837544
0.88 0.636758285727152 -0.771096051588035
0.9 0.62120712960502 -0.783678239743002
0.92 0.605394190063333 -0.795958572535798
0.940000000000001 0.589359662112073 -0.80790233471729
0.960000000000001 0.573073051669629 -0.819536020225487
0.980000000000001 0.556564729473364 -0.83083585565143
1 0.539836074721649 -0.841801075479706
1.02 0.522877315856839 -0.852439631583068
1.04 0.505729848025054 -0.862722570821359
1.06 0.488362237007417 -0.872671975111183
1.08 0.470811418196635 -0.882264497258758
1.1 0.45306896962545 -0.891505682397627
1.12 0.435138235930777 -0.900394285705186
1.14 0.417046705500716 -0.908914948400933
1.16 0.398768505362011 -0.917082250268379
1.18 0.380354576603514 -0.924870517467609
1.2 0.361771128602524 -0.932296879859841
1.22 0.343052423086147 -0.939346010602662
1.24 0.324193825985826 -0.946020153930596
1.26 0.30520075457318 -0.952317794520167
1.28 0.286095392148601 -0.958230394590516
1.3 0.266860709012355 -0.96376489244532
1.32 0.247537660109578 -0.968907441978307
1.34 0.2280945048955 -0.973668778130231
1.36 0.208582979290849 -0.978033838489476
1.38 0.188971017667733 -0.982012045705327
1.4 0.169294156840696 -0.985594777241479
1.42 0.149543500834604 -0.988784317592446
1.44 0.129734393792039 -0.99157806808974
1.46 0.109875592112454 -0.993974436785937
1.48 0.0899672157208678 -0.995974116017691
1.5 0.0700311823753589 -0.997573901508422
1.52 0.0500563979846233 -0.998775907846987
1.54 0.0300743392145307 -0.999576840523912
1.56 0.0100658858778212 -0.999979004102919
1.58 -0.00993077359701966 -0.999979994702384
1.6 -0.0299402898043334 -0.999581533571375
1.62 -0.0499199804435656 -0.998782702287163
1.64 -0.0698981012188666 -0.99758418863701
1.66 -0.0898291815947901 -0.995986885869361
1.68 -0.109743615329564 -0.99399021992957
1.7 -0.129594443838063 -0.991597039514061
1.72 -0.14941182624814 -0.98880555166219
1.74 -0.169152093495813 -0.985620214834245
1.76 -0.188841096059645 -0.982038431332026
1.78 -0.208438811299174 -0.97806600508943
1.8 -0.227968378018056 -0.973699656858807
1.82 -0.247391728595501 -0.968946526611069
1.84 -0.266731019303457 -0.963802552373303
1.86 -0.28594852438437 -0.958276397037687
1.88 -0.305066976162612 -0.952362934906261
1.9 -0.324047522700447 -0.946072709988261
1.92 -0.342914383847395 -0.939399246091037
1.94 -0.361627789889413 -0.932355005919744
1.96 -0.380211952556446 -0.924932528806954
1.98 -0.398629231353005 -0.917145239009353
2 -0.416900840076364 -0.908985741665525
2.02 -0.434992687370078 -0.900467739978706
2.04 -0.452922368369501 -0.891584421038024
2.06 -0.470660027631268 -0.882349174838652
2.08 -0.488218933728061 -0.872756423014437
2.1 -0.505574244155013 -0.862818499583342
2.12 -0.522734100435492 -0.852531876230001
2.14 -0.539679542281729 -0.841906910902154
2.16 -0.556412692205602 -0.83094313054803
2.18 -0.572921429470862 -0.819647793010073
2.2 -0.589200881141505 -0.808024701748496
2.22 -0.605246801651931 -0.796076660722671
2.24 -0.621046273983243 -0.783813212389735
2.26 -0.636604026905755 -0.771231098921986
2.28 -0.651897995438067 -0.758347329024306
2.3 -0.666940757844049 -0.745152533483546
2.32 -0.68170676841062 -0.731667695960361
2.34 -0.696208522119873 -0.717882953264767
2.36 -0.710424990972015 -0.703816865767296
2.38 -0.724362261822213 -0.689464661479812
2.4 -0.738006809927013 -0.674839226729643
2.42 -0.751357024084691 -0.659943025608067
2.44 -0.764408190857289 -0.644780927456293
2.46 -0.777149717768199 -0.62936513784076
2.48 -0.789586564959992 -0.613690288503709
2.5 -0.801699178374224 -0.597779734895835
2.52 -0.81349809422525 -0.581621434771003
2.54 -0.824966229100468 -0.565237115508754
2.56 -0.836108023807654 -0.548621859552557
2.58 -0.846913737979682 -0.531789055814733
2.6 -0.857380297928182 -0.514744150149002
2.62 -0.867506671055862 -0.497488722834735
2.64 -0.877280994929156 -0.480042240079102
2.66 -0.886709378232984 -0.462395306894742
2.68 -0.895778374341866 -0.444571319176758
2.7 -0.904492296530169 -0.426563632389304
2.72 -0.912842919856733 -0.408387742338325
2.74 -0.920828178600898 -0.390049017209473
2.76 -0.928447378195352 -0.371548937121092
2.78 -0.935690992443264 -0.352909494701354
2.8 -0.942563943286939 -0.334120248716987
2.82 -0.949057030492291 -0.315204025798606
2.84 -0.955172060680001 -0.296157653192847
2.86 -0.96090493787518 -0.276992403793239
2.88 -0.966252092898762 -0.257720473224912
2.9 -0.971214815442152 -0.238338275957302
2.92 -0.97578636785628 -0.218869666052023
2.94 -0.979969371508373 -0.199306945098142
2.96 -0.983759628712827 -0.179666774119154
2.98 -0.987156114260609 -0.159956045267488
3 -0.990158806478821 -0.140175109909768
3.02 -0.992763566111885 -0.120347900739837
3.04 -0.994972446042163 -0.10046501723492
3.06 -0.996782699858459 -0.0805451704292849
3.08 -0.99819422348849 -0.0605934839567979
3.1 -0.999206850898345 -0.0406118152321882
3.12 -0.999818945367654 -0.0206235612249592
3.14 -1.00003156105787 -0.000619738760522024
3.16 -0.999843876545576 0.019381615824818
3.18 -0.999256258898972 0.039374148790194
3.2 -0.998268766871866 0.059356612192481
3.22 -0.99688205516152 0.0793067118714997
3.24 -0.995096367105969 0.0992310989903463
3.26 -0.99291250029496 0.119114978544724
3.28 -0.990331748736173 0.138947888631796
3.3 -0.98735414464376 0.15873117372307
3.32 -0.983982278238768 0.178444397706582
3.34 -0.980216353548043 0.19808974540354
3.36 -0.976057717691498 0.217658448040505
3.38 -0.971509953694712 0.237132845096008
3.4 -0.966572234624102 0.256518875643547
3.42 -0.961248452498122 0.275799064363376
3.44 -0.955540310112114 0.294968481211448
3.46 -0.949448539964199 0.314024603917521
3.48 -0.942978905862223 0.332948154992938
3.5 -0.936130813566633 0.35174269700533
3.52 -0.928907492153673 0.370398265499113
3.54 -0.921314771801843 0.388899518734975
3.56 -0.913351366523508 0.407250836437652
3.58 -0.905023438906534 0.425436796178497
3.6 -0.896334029553766 0.443451396795114
3.62 -0.887284028103926 0.461292906046103
3.64 -0.877881455238753 0.478944693186568
3.66 -0.8681266346209 0.496407174487695
3.68 -0.858022699719003 0.513674270073209
3.7 -0.847579246436832 0.530729042079372
3.72 -0.836794175198229 0.547576066437643
3.74 -0.825673713385211 0.564204829921743
3.76 -0.814225920577662 0.580603219614687
3.78 -0.802449493436619 0.596773783425327
3.8 -0.790352925816005 0.612704144435941
3.82 -0.777941581544252 0.628387547138651
3.84 -0.765216271342173 0.643823178791596
3.86 -0.752187029270093 0.65899831252838
3.88 -0.738856887309082 0.673909921508613
3.9 -0.725228581447467 0.688554872158555
3.92 -0.711313441466115 0.702920552740723
3.94 -0.69711257383615 0.717006421352883
3.96 -0.682630402723399 0.730807848123348
3.98 -0.667879328492675 0.744312666421154
4 -0.652858945269214 0.757521886394342
4.02 -0.637575102521006 0.770430027539809
4.04 -0.622041070339133 0.783025596555034
4.06 -0.606255331377479 0.795310467543413
4.08 -0.590224885638487 0.807278809008263
4.1 -0.57396369499112 0.818919955643532
4.12 -0.557469513518275 0.830236145488836
4.14 -0.540750211895659 0.841221578242047
4.16 -0.523820282502771 0.851866520471335
4.18 -0.50667712064596 0.862173215576906
4.2 -0.489329183864958 0.872136183063229
4.22 -0.471791340710719 0.881746691679142
4.24 -0.454060997145177 0.891006736865683
4.26 -0.436146906652517 0.899911371895428
4.28 -0.418064154486234 0.908452916163172
4.3 -0.399810544493922 0.916632943364674
4.32 -0.38139482184413 0.924447193762841
4.34 -0.362832110632688 0.93188907045565
4.35999999999999 -0.344121038966021 0.938959615618836
4.37999999999999 -0.325270017928265 0.945655357967909
4.39999999999999 -0.306294000722726 0.951970803394662
4.41999999999999 -0.287192927763359 0.957906410963594
4.43999999999999 -0.267974519681539 0.963459551800931
4.45999999999999 -0.248653304334851 0.968625836563439
4.47999999999999 -0.229231106125656 0.973405150961694
4.49999999999999 -0.209714559151082 0.977795714830314
4.51999999999999 -0.190117455290472 0.981794221165862
4.53999999999999 -0.170444178098974 0.985400064729503
4.55999999999999 -0.150699830993104 0.988612268528435
4.57999999999999 -0.130897093611691 0.991428550202431
4.59999999999999 -0.111043703754827 0.99384798706669
4.61999999999999 -0.0911427350290822 0.995870300202343
4.63999999999999 -0.071205306016309 0.997494125017034
4.65999999999999 -0.0512434357395156 0.998718510516484
4.67999999999999 -0.0312576089595321 0.999543700418439
4.69999999999999 -0.0112575250381323 0.999969042052691
4.71999999999999 0.00874145190081981 0.999994090701298
4.73999999999999 0.0287400457676789 0.999619253333048
4.75999999999999 0.0487292658914231 0.998844460886899
4.77999999999999 0.0686951396298523 0.997670104498199
4.79999999999999 0.0886343419018616 0.996096679564587
4.81999999999999 0.108540599041433 0.994124597326676
4.83999999999998 0.128401940051034 0.991754860838497
4.85999999999998 0.148209785098832 0.988988631465838
4.87999999999998 0.167961254102303 0.985826440618607
4.89999999999998 0.187646940570601 0.982269584448305
4.91999999999998 0.20725205035052 0.978320640874954
4.93999999999998 0.226777440825562 0.973979839112608
4.95999999999998 0.246213976106631 0.969248964598557
4.97999999999998 0.265548753112485 0.964131019639733
4.99999999999998 0.284777569001054 0.958627384962882
5.01999999999998 0.303894783977125 0.952739630009552
5.03999999999998 0.322890212145595 0.946470713420186
5.05999999999998 0.341753009124348 0.939824252137386
5.07999999999998 0.360481865604041 0.932800962114309
5.09999999999998 0.379067994577309 0.925403914334229
5.11999999999998 0.397498840827147 0.91763798852282
5.13999999999998 0.415771684793461 0.909504644010211
5.15999999999998 0.433880167074495 0.901006606682116
5.17999999999998 0.451814586218471 0.89214826310721
5.19999999999998 0.469565396571725 0.882934392140696
5.21999999999998 0.487130794997036 0.873366162145034
5.23999999999998 0.50450262131548 0.86344779803263
5.25999999999998 0.521669557166267 0.853185644508543
5.27999999999998 0.538628385478322 0.842581927689486
5.29999999999997 0.555373524138907 0.831640061477824
5.31999999999997 0.571896812494625 0.820365206836737
5.33999999999997 0.588187770182337 0.808764495672388
5.35999999999997 0.604245672801227 0.796838796301378
5.37999999999997 0.62006311353998 0.784593367759742
5.39999999999997 0.635630762034778 0.772035295184457
5.41999999999997 0.650943362942507 0.759169036113859
5.43999999999997 0.665997279707275 0.745997711510408
5.45999999999997 0.680785623289927 0.732527145718707
5.47999999999997 0.69529871674261 0.718766049575895
5.49999999999997 0.709534650192758 0.704716614527692
5.51999999999997 0.723488041262793 0.690384005526651
5.53999999999997 0.737152272982753 0.675774844123684
5.55999999999997 0.750518731927309 0.660898311180496
5.57999999999997 0.76358666765508 0.645755659261035
5.59999999999997 0.776350109937711 0.630353536156197
5.61999999999997 0.788802198257031 0.614700060445534
5.63999999999997 0.800937395484918 0.59880234871168
5.65999999999997 0.812753548922379 0.582663437952907
5.67999999999997 0.824245289182221 0.566290405025757
5.69999999999997 0.835405972785988 0.549692567948071
5.71999999999997 0.84623206892147 0.532875478564484
5.73999999999997 0.856720720464758 0.51584363825417
5.75999999999997 0.866867182152823 0.498604499365441
5.77999999999996 0.876665347067039 0.481168297987876
5.79999999999996 0.88611293518037 0.463539516695429
5.81999999999996 0.895206900559424 0.445723783072303
5.83999999999996 0.903943141425115 0.427728871150486
5.85999999999996 0.91231630243014 0.409565671750536
5.87999999999996 0.920324839921728 0.391238076806654
5.89999999999996 0.927965888865881 0.372752495251844
5.91999999999996 0.935236006509445 0.354116968870782
5.93999999999996 0.942130727489301 0.335342791360424
5.95999999999996 0.948648913950423 0.316433730766147
5.97999999999996 0.954788134482591 0.297396627965706
5.99999999999996 0.960545617162433 0.278239738556636
6.01999999999996 0.965917867137323 0.258974506677961
6.03999999999996 0.970903965722416 0.239605048453597
6.05999999999996 0.97550207161228 0.220138278339428
6.07999999999996 0.9797100918389 0.200582611916518
6.09999999999996 0.983525534171981 0.180949375790377
6.11999999999996 0.986947634252862 0.16124353534537
6.13999999999996 0.989975213412602 0.141471702930336
6.15999999999996 0.992606862130582 0.121642400519271
6.17999999999996 0.994841075125165 0.101766538197418
6.19999999999996 0.996677294282122 0.0818504871224997
6.21999999999996 0.998114996188999 0.0619001546264686
6.23999999999995 0.999153455665456 0.0419241158645804
6.25999999999995 0.999792083468245 0.0219325205335023
6.27999999999995 1.00003070720135 0.00193378139192112
6.29999999999995 0.999869367774465 -0.0180673386987599
6.31999999999995 0.999308021670312 -0.0380622640824813
6.33999999999995 0.998346855065862 -0.0580420046663514
6.35999999999995 0.996986412974895 -0.0779953727596598
6.37999999999995 0.995227115711959 -0.0979192328501589
6.39999999999995 0.993069595203495 -0.117805060764941
6.41999999999995 0.9905146978377 -0.137644365671788
6.43999999999995 0.987563860097696 -0.157425706211027
6.45999999999995 0.984217932684944 -0.17714474196103
6.47999999999995 0.980478097922244 -0.196794171830072
6.49999999999995 0.976345862039116 -0.216365622679705
6.51999999999995 0.97182327246928 -0.235849160820296
6.53999999999995 0.966912218507346 -0.255237107581763
6.55999999999995 0.961614075134827 -0.274524337190856
6.57999999999995 0.955930994382611 -0.293702643576335
6.59999999999995 0.94986532666611 -0.31276388894171
6.61999999999995 0.943420619863142 -0.33169684062946
6.63999999999995 0.936598170781029 -0.350498372714204
6.65999999999995 0.929400687093042 -0.369160743840962
6.67999999999995 0.921831139860097 -0.387676044729634
6.69999999999995 0.913893310857608 -0.406034914775301
6.71999999999994 0.905590343863545 -0.424230350102351
6.73999999999994 0.896924620124035 -0.442257283779242
6.75999999999994 0.887899709874525 -0.460108080929865
6.77999999999994 0.878519361525571 -0.477775205418217
6.79999999999994 0.868788831698351 -0.495248701917431
6.81999999999994 0.858710461640384 -0.512524753661918
6.83999999999994 0.848288053842311 -0.529596729096843
6.85999999999994 0.837525921897482 -0.546457422200175
6.87999999999994 0.826428867146436 -0.563099231254632
6.89999999999994 0.815002524147058 -0.579513758391985
6.91999999999994 0.803249467755614 -0.595697572865947
6.93999999999994 0.791174548327231 -0.611643840212136
6.95999999999994 0.778782770767798 -0.627345850616307
6.97999999999994 0.766080185600998 -0.642795882070315
6.99999999999994 0.75307188907026 -0.657987881385155
7.01999999999994 0.739761624856548 -0.672917580562963
7.03999999999994 0.726154892607355 -0.687578690265808
7.05999999999994 0.712257331367393 -0.701965058506452
7.07999999999994 0.698076037910184 -0.716069299168554
7.09999999999994 0.683615825280573 -0.72988680100624
7.11999999999994 0.668881408235512 -0.743413086398202
7.13999999999994 0.653878874577472 -0.756642468385356
7.15999999999994 0.638614435644524 -0.769569408415285
7.17999999999993 0.623095993770621 -0.782187183308716
7.19999999999993 0.607328429530229 -0.794491998692337
7.21999999999993 0.591317155783876 -0.806479631676178
7.23999999999993 0.575068783026146 -0.818145048639783
7.25999999999993 0.55859002884206 -0.82948337378763
7.27999999999993 0.541889323798965 -0.840488779501926
7.29999999999993 0.524972050366272 -0.851157871855694
7.31999999999993 0.50784398355369 -0.861487016349369
7.33999999999993 0.490512187258069 -0.871471877101552
7.35999999999993 0.472983815558703 -0.881108283841544
7.37999999999993 0.455267501741137 -0.890391464271466
7.39999999999993 0.437369662741795 -0.89931817247263
7.41999999999993 0.419296035347904 -0.907885586793511
7.43999999999993 0.401054064266545 -0.916090106679022
7.45999999999993 0.382651267133725 -0.923928303343757
7.47999999999993 0.364096087501165 -0.931396553416866
7.49999999999993 0.345396637925932 -0.938491654024994
7.51999999999993 0.326558142329989 -0.945211719959587
7.53999999999993 0.307588350890129 -0.95155391653338
7.55999999999993 0.28849506922831 -0.957515585367861
7.57999999999993 0.269286153805902 -0.963094244932134
7.59999999999993 0.249971990155829 -0.968286868867767
7.61999999999993 0.230556975426387 -0.973092447361134
7.63999999999993 0.2110490050435 -0.97750896096589
7.65999999999992 0.191456094995506 -0.981534543391027
7.67999999999992 0.171786294588451 -0.985167507715088
7.69999999999992 0.152049187495698 -0.988406066596952
7.71999999999992 0.132251779166911 -0.991249171040904
7.73999999999992 0.112400665830736 -0.993695901527143
7.75999999999992 0.0925039947871113 -0.995745198127962
7.77999999999992 0.0725699291603352 -0.997396181224555
7.79999999999992 0.0526066435204156 -0.998648151143431
7.81999999999992 0.0326247804728031 -0.999500433027907
7.83999999999992 0.0126290070281151 -0.999952985625329
7.85999999999992 -0.00737250216462799 -1.00000556417942
7.87999999999992 -0.0273715498653283 -0.999658101559497
7.89999999999992 -0.0473599446065399 -0.998910709590767
7.91999999999992 -0.0673286303231533 -0.997763709705058
7.93999999999992 -0.0872691180028605 -0.996217644947614
7.95999999999992 -0.107175475289348 -0.994273051733732
7.97999999999992 -0.127039550537247 -0.991930673037396
7.99999999999992 -0.14685321480641 -0.989191428271999
8.01999999999992 -0.166608365897893 -0.986056412129308
8.03999999999992 -0.186295639500636 -0.982527097410373
8.05999999999992 -0.205907788455211 -0.97860486905483
8.07999999999992 -0.22543826615503 -0.974291070866985
8.09999999999992 -0.244879084815146 -0.969587418396439
8.11999999999992 -0.264222299743468 -0.964495798137316
8.13999999999992 -0.283460013132607 -0.959018265967741
8.15999999999991 -0.302583052002247 -0.953157422166392
8.17999999999991 -0.32158462590649 -0.946915440739839
8.19999999999991 -0.340458193108637 -0.940294495449978
8.21999999999991 -0.359196043011371 -0.933297244228793
8.23999999999991 -0.377790527510498 -0.925926508322301
8.25999999999991 -0.39623406451657 -0.918185270365503
8.27999999999991 -0.4145181097894 -0.91007710458037
8.29999999999991 -0.432635678364124 -0.901605187193084
8.31999999999991 -0.450580772760881 -0.892772368407482
8.33999999999991 -0.468346068169162 -0.883582205814208
8.35999999999991 -0.485924320498871 -0.87403841067947
8.37999999999991 -0.503308369607278 -0.86414484569049
8.39999999999991 -0.520490703159979 -0.85390577200716
8.41999999999991 -0.537463571024221 -0.84332584463263
8.43999999999991 -0.554222000234694 -0.832408268062878
8.45999999999991 -0.570759154348523 -0.821157444871213
8.47999999999991 -0.587068294519046 -0.80957791980051
8.49999999999991 -0.603142782406897 -0.797674377213792
8.51999999999991 -0.618976083012993 -0.785451638496955
8.53999999999991 -0.634560471690168 -0.772915660067437
8.55999999999991 -0.649891124783676 -0.760070455501767
8.57999999999991 -0.664962223960268 -0.746920886082473
8.59999999999991 -0.679767629407644 -0.733472262398902
8.61999999999991 -0.69430131683945 -0.719730021182655
8.6399999999999 -0.708557379990797 -0.705699722459953
8.6599999999999 -0.72252976490118 -0.691387310073876
8.6799999999999 -0.736212081138866 -0.676799363536025
8.6999999999999 -0.749600308195818 -0.661940300807943
8.7199999999999 -0.762688990462462 -0.646816120473076
8.7399999999999 -0.77547280117702 -0.631432932272178
8.7599999999999 -0.787946544565839 -0.615796954042186
8.7799999999999 -0.800105157904416 -0.59991450862562
8.7999999999999 -0.811943264628828 -0.583792606652559
8.8199999999999 -0.823456021701713 -0.567437923787515
8.8399999999999 -0.834639695105679 -0.550855860438022
8.8599999999999 -0.845489729206917 -0.534053110959044
8.8799999999999 -0.856001710471358 -0.517036461320752
8.8999999999999 -0.866171369156442 -0.49981278584858
8.9199999999999 -0.875994580922933 -0.482389043944748
8.9399999999999 -0.885467047282815 -0.46477284593286
8.9599999999999 -0.89458484467336 -0.44697157730194
8.9799999999999 -0.903345032292995 -0.428991105812172
8.9999999999999 -0.911744039617306 -0.410838688204198
9.0199999999999 -0.919778448664134 -0.392521651883711
9.0399999999999 -0.927444995225058 -0.374047391519117
9.0599999999999 -0.934740570017752 -0.355423365630325
9.0799999999999 -0.941662171441554 -0.336657216275583
9.09999999999989 -0.94820652748615 -0.317757838440428
9.11999999999989 -0.954371765395257 -0.298730930405656
9.13999999999989 -0.960155365801769 -0.279584168071429
9.15999999999989 -0.965554969380736 -0.260325276005456
9.17999999999989 -0.970568377614026 -0.240962023954698
9.19999999999989 -0.975193553477619 -0.221502223356862
9.21999999999989 -0.979428622052706 -0.201953723851384
9.23999999999989 -0.983271669723075 -0.182325340870038
9.25999999999989 -0.986721312368164 -0.162624459128265
9.27999999999989 -0.989776337451058 -0.142858146603292
9.29999999999989 -0.992435487109908 -0.123034373847776
9.31999999999989 -0.99469766828413 -0.103161133894956
9.33999999999989 -0.996561952935917 -0.0832464387487645
9.35999999999989 -0.998027578197628 -0.0632983158819532
9.37999999999989 -0.99909394644556 -0.0433248047457625
9.39999999999989 -0.999760562553509 -0.0233351470781603
9.41999999999989 -1.00002727215154 -0.00333621739670095
9.43999999999989 -0.999893975434982 0.0166643911324874
9.45999999999989 -0.999360703462937 0.0366586177711941
9.47999999999989 -0.998427652764659 0.0566384057008117
9.49999999999989 -0.997095185028657 0.0765957054813141
9.51999999999989 -0.995363826721295 0.0965224784915944
9.53999999999989 -0.993234268635714 0.11641070034982
9.55999999999989 -0.990707469281938 0.136251400892658
9.57999999999988 -0.987784414235685 0.156037324223374
9.59999999999988 -0.984466199815415 0.175761151285531
9.61999999999988 -0.980754141238268 0.19541493674677
9.63999999999988 -0.976649715804427 0.214990765219463
9.65999999999988 -0.972154562072372 0.234480754595865
9.67999999999988 -0.967270478968221 0.253877059355773
9.69999999999988 -0.96199942482984 0.273171873846333
9.71999999999988 -0.956343580711772 0.292357200214029
9.73999999999988 -0.950305475111439 0.311424519394194
9.75999999999988 -0.943887159727228 0.33036757144911
9.77999999999988 -0.937091197196286 0.349178728315221
9.79999999999988 -0.929920304907282 0.367850416938706
9.81999999999988 -0.922377353689208 0.386375122416278
9.83999999999988 -0.914465366438775 0.404745391102647
9.85999999999988 -0.906187516688796 0.422953833679969
9.87999999999988 -0.897547127118028 0.440993128190035
9.89999999999988 -0.888547848317126 0.458855647088779
9.91999999999988 -0.879193490617848 0.476533887735408
9.93999999999988 -0.869487329528256 0.494021762632271
9.95999999999988 -0.85943325097799 0.511312232838528
9.97999999999988 -0.849035282802339 0.528398340838829
9.99999999999988 -0.838297592925055 0.545273213382988


0 3.04159265358979 0
0.02 3.04149293867851 -0.00996089474518163
0.04 3.04119428619576 -0.0198894058511938
0.06 3.04069713794778 -0.0298004783573597
0.08 3.04000176871385 -0.0397163880489914
0.1 3.03910818126897 -0.0496667132534454
0.12 3.03801597702353 -0.0596365201098179
0.14 3.03672515597752 -0.0696258049244511
0.16 3.03523357167083 -0.0797229452100374
0.18 3.03353769682745 -0.0899865217120291
0.2 3.03163850214883 -0.100347665913783
0.22 3.02953598763496 -0.110806359876008
0.24 3.02723015328586 -0.121362585494132
0.26 3.02472099910153 -0.132016324498317
0.28 3.02200852508195 -0.142767558453474
0.3 3.01905203881216 -0.154000817670715
0.32 3.01585790320228 -0.165586200714959
0.34 3.01243884154839 -0.177396797476349
0.36 3.00879554105105 -0.189430031887176
0.38 3.00492859546156 -0.201683626797133
0.4 3.00083852330975 -0.214155549830997
0.42 2.9965257817399 -0.226843971630833
0.44 2.99199077718394 -0.239747233148328
0.46 2.98708430636583 -0.25354196734563
0.48 2.98186338198997 -0.267922022048856
0.5 2.97636967862002 -0.282696371352328
0.52 2.97060561983773 -0.297858026515991
0.54 2.96457336923353 -0.313400666905346
0.56 2.95827486926188 -0.329318544343694
0.58 2.95171187296643 -0.3456064045086
0.6 2.94470713657026 -0.362809944216584
0.62 2.93724251439139 -0.380962795542047
0.64 2.92943846805491 -0.399692198591164
0.66 2.92130195816964 -0.418980035797011
0.68 2.91283890815959 -0.438810869863876
0.7 2.90394206064006 -0.459458957933614
0.72 2.89449096367928 -0.481225099413052
0.74 2.88464241219754 -0.503706272749484
0.76 2.87439575836721 -0.526904738235097
0.78 2.8636900298696 -0.550962466871159
0.8 2.85236259563067 -0.576256409828331
0.82 2.84057721695276 -0.602399822151265
0.84 2.82832833975333 -0.629404636333459
0.86 2.8154424335397 -0.657654786813676
0.88 2.80196970801133 -0.68703311549964
0.9 2.78795891644159 -0.717427986637353
0.92 2.77329121030907 -0.749090418234533
0.940000000000001 2.75794734859744 -0.782055351139182
0.960000000000001 2.74199413559797 -0.816174332103282
0.980000000000001 2.72528016709724 -0.851756027299492
1 2.70785338242057 -0.888692331619584
1.02 2.68970277046398 -0.926996052568387
1.04 2.67071687144759 -0.966882500534443
1.06 2.65097827825482 -1.0081739423213
1.08 2.63033819419621 -1.05115080003213
1.1 2.60885189716705 -1.09568976882194
1.12 2.58643942090817 -1.14192716745118
1.14 2.56309228166119 -1.18986057392521
1.16 2.53876563106698 -1.2395510731578
1.18 2.51342398277692 -1.29104065617111
1.2 2.48703349238702 -1.34436150682573
1.22 2.45955743379035 -1.39954924397452
1.24 2.43094917902052 -1.456648148571
1.26 2.401193877674 -1.5156461913511
1.28 2.37021020041483 -1.57663150483877
1.3 2.33801541646509 -1.63952857688999
1.32 2.30450846158637 -1.70443775676788
1.34 2.26970334286584 -1.77127546317943
1.36 2.23353452339291 -1.84006852640564
1.38 2.19595904162681 -1.91079455574264
1.4 2.15696490800046 -1.98338590998588
1.42 2.1164803812047 -2.05783023551456
1.44 2.07449341358023 -2.13403205919599
1.46 2.03097308195984 -2.211908890688
1.48 1.98585720657475 -2.29137499959871
1.5 1.93914604077526 -2.3722860522002
1.52 1.8908072130767 -2.45450711201397
1.54 1.84079104452731 -2.53785807266686
1.56 1.78910820222509 -2.62215321928392
1.58 1.73572630240194 -2.70717165162566
1.6 1.68063120488315 -2.79263764289515
1.62 1.62382583401927 -2.87832582255746
1.64 1.56529808384576 -2.96385893926064
1.66 1.5050615613689 -3.04895949079141
1.68 1.44311933802136 -3.13325741520901
1.7 1.37950679975775 -3.21628582756648
1.72 1.31470037677238 -3.29719713799269
1.74 1.24783705680461 -3.376498148627
1.76 1.17938351081563 -3.45334502181682
1.78 1.10942348045246 -3.52713896178604
1.8 1.03803996475419 -3.59736275818874
1.82 0.965277034704327 -3.66360585693893
1.84 0.891235211404412 -3.72532492423984
1.86 0.815997705077941 -3.78206256206989
1.88 0.739691348926912 -3.83329841977125
1.9 0.662425155211433 -3.87859823802179
1.92 0.584316476693481 -3.91754804774048
1.94 0.505497213927622 -3.94976135594128
1.96 0.426107014785177 -3.97489501435757
1.98 0.346287977757413 -3.99266195550486
2 0.266188969637925 -4.00283010908577
2.02 0.185966752876122 -4.00521608483104
2.04 0.105764727509896 -3.99972610995309
2.06 0.0257713698542597 -3.98629760898865
2.08 -0.0538692674046654 -3.96496837869011
2.1 -0.133000216269935 -3.93582417116758
2.12 -0.211472125206447 -3.89903012913289
2.14 -0.289129210398239 -3.85479924949416
2.16 -0.365831448192041 -3.80339663542282
2.18 -0.441431931953248 -3.7451498785905
2.2 -0.515797455130391 -3.68043313774686
2.22 -0.58880359364681 -3.60963138496402
2.24 -0.660346825872519 -3.53317570505223
2.26 -0.730291658084931 -3.45152616895742
2.28 -0.798548797382716 -3.36515066470904
2.3 -0.865032830258889 -3.27450903870597
2.32 -0.929656550139436 -3.18007294039231
2.34 -0.992362246481425 -3.08229635813547
2.36 -1.05307800030153 -2.98164203465476
2.38 -1.11175035503563 -2.87854484991177
2.4 -1.16833594940242 -2.77341027817581
2.42 -1.22280126288658 -2.6666296419807
2.44 -1.27511962791136 -2.55855458907
2.46 -1.32525191719341 -2.44954432988432
2.48 -1.37319324470263 -2.33989001357973
2.5 -1.41893375855047 -2.22986610044522
2.52 -1.46246862836707 -2.11971825240296
2.54 -1.50379754258149 -2.00966393290605
2.56 -1.54291868847404 -1.89990184099127
2.58 -1.57985097357534 -1.79057719656856
2.6 -1.61459921979842 -1.68183403007338
2.62 -1.64717652760237 -1.57378425489224
2.64 -1.6775975024806 -1.46651667662084
2.66 -1.70588859996077 -1.36009315180805
2.68 -1.73204875220859 -1.25457610682778
2.7 -1.75610607587069 -1.1499895458636
2.72 -1.77807948371899 -1.04634936440327
2.74 -1.79798802959746 -0.943657504772047
2.76 -1.81585065615419 -0.841903526938187
2.78 -1.83168597065467 -0.741066116291547
2.8 -1.84550877269473 -0.641120684469679
2.82 -1.85734284503597 -0.542016589729988
2.84 -1.86720156712791 -0.443714098642797
2.86 -1.87508496962395 -0.346383340536535
2.88 -1.88104315614584 -0.249523488529846
2.9 -1.88506936155513 -0.153300282702697
2.92 -1.88718292936662 -0.0576469544732188
2.94 -1.88737999353613 0.0374860930745591
2.96 -1.88567793078445 0.132166835226103
2.98 -1.88208566198424 0.22645935145717
3 -1.87660992462492 0.320419238346305
3.02 -1.86925682995066 0.41410229715734
3.04 -1.86003140685755 0.507560455615251
3.06 -1.84893768755581 0.600840806542578
3.08 -1.8359771256935 0.693981069950816
3.1 -1.82115546488187 0.787022666023472
3.12 -1.80447278133275 0.879989023195243
3.14 -1.78593036977405 0.972898126674072
3.16 -1.7655292533314 1.06575817640633
3.18 -1.74327648331074 1.15856748230894
3.2 -1.71916010362229 1.25130993963212
3.22 -1.69318914586684 1.3439586056329
3.24 -1.66536528789526 1.43647268110367
3.26 -1.63569169480253 1.52879611906898
3.28 -1.60417280012512 1.62085705342974
3.3 -1.57081463034112 1.71256690566672
3.32 -1.53562514663138 1.80381956926992
3.34 -1.49861460312896 1.8944906931424
3.36 -1.45979536048291 1.98443309182426
3.38 -1.41918467925918 2.07349177432908
3.4 -1.37680133088329 2.16148108889679
3.42 -1.33266861978569 2.2481994771736
3.44 -1.28681412637395 2.33342606104128
3.46 -1.23927496553849 2.41692363153547
3.48 -1.190078439492 2.49842996596602
3.5 -1.13927171757748 2.57767406109295
3.52 -1.08690449111793 2.65436652254746
3.54 -1.0330301900496 2.72820733912105
3.56 -0.977708841666601 2.79888634956763
3.58 -0.921006413734579 2.86608681398913
3.6 -0.862994739662666 2.929488774492
3.62 -0.80376081193835 2.98875807416455
3.64 -0.743385977751094 3.04358521601021
3.66 -0.681956497064627 3.09366490140294
3.68 -0.619579971218358 3.1386931849938
3.7 -0.556355251567955 3.17839247412839
3.72 -0.492388964042011 3.2125047803747
3.74 -0.42780757763208 3.240793818663
3.76 -0.362711119194154 3.26305044826369
3.78 -0.297237472877116 3.27910085054004
3.8 -0.231502352327102 3.28881145769024
3.82 -0.165639275680459 3.29208105149723
3.84 -0.0997768282559167 3.28885067110682
3.86 -0.0340423450301889 3.27910193645811
3.88 0.0314284530773536 3.26285935398722
3.9 0.0965097667042688 3.24018651397115
3.92 0.161075576689658 3.21118600055424
3.94 0.224996239468594 3.17600343920229
3.96 0.288151779041283 3.13481564465913
3.98 0.350424760348206 3.08782895311258
4 0.411703407426509 3.03528583660754
4.02 0.47187261742714 2.97745706827694
4.04 0.530835781560519 2.91462341823932
4.06 0.58849281919531 2.84708033161041
4.08 0.644754719172876 2.77514299193788
4.1 0.699535962750984 2.69913394348904
4.12 0.75275632471664 2.6193835268955
4.14 0.804347610731701 2.53620819445862
4.16 0.854240821288627 2.44993971125919
4.18 0.902380116057012 2.36088432281478
4.2 0.948712181611272 2.26934942534977
4.22 0.993188004237228 2.17563633276898
4.24 1.03577086234373 2.08000966423056
4.26 1.07642159877284 1.98274742852057
4.28 1.11511085509067 1.88409366253054
4.3 1.15181466683516 1.78427078733189
4.32 1.18650907822054 1.68349806934346
4.34 1.21917949853078 1.58197142909861
4.35999999999999 1.24981317631296 1.47986840442514
4.37999999999999 1.27839836229522 1.3773312730782
4.39999999999999 1.30492773518216 1.2745216105863
4.41999999999999 1.32939804751109 1.17155533769988
4.43999999999999 1.35180730195581 1.06854120809997
4.45999999999999 1.37215550327884 0.965579734430601
4.47999999999999 1.39044470449444 0.862753772586479
4.49999999999999 1.40667814965757 0.760129947370034
4.51999999999999 1.42086092863286 0.6577721808032
4.53999999999999 1.43299871571583 0.555728655933628
4.55999999999999 1.4430980527297 0.454041657076822
4.57999999999999 1.45116723614972 0.352748738119552
4.59999999999999 1.45721341743009 0.251875858884811
4.61999999999999 1.46124639713609 0.151450982006119
4.63999999999999 1.46327434403116 0.0514933783824108
4.65999999999999 1.46330763542109 -0.0479765335461468
4.67999999999999 1.46135707240576 -0.146934876983871
4.69999999999999 1.45743058544707 -0.245372238095497
4.71999999999999 1.4515395290898 -0.343263679034513
4.73999999999999 1.44369612326389 -0.440583780616346
4.75999999999999 1.43391101467516 -0.537307438091302
4.77999999999999 1.42219741976718 -0.633400742588233
4.79999999999999 1.40856745454947 -0.728827797268175
4.81999999999999 1.39303548377678 -0.823542749203629
4.83999999999998 1.37561597770091 -0.91749405490779
4.85999999999998 1.35632451153625 -1.01062169893269
4.87999999999998 1.33517918182785 -1.10285320748161
4.89999999999998 1.3121967815995 -1.19411339622335
4.91999999999998 1.2874005375754 -1.28430378308518
4.93999999999998 1.26080971541127 -1.37333023625911
4.95999999999998 1.23245042977185 -1.46107517810822
4.97999999999998 1.202350204096 -1.54741108090401
4.99999999999998 1.17053554800533 -1.63220823105446
5.01999999999998 1.13704321436298 -1.71530587362281
5.03999999999998 1.10190814535661 -1.79654833455303
5.05999999999998 1.06516393954625 -1.87576826235721
5.07999999999998 1.02685764857272 -1.95277519146622
5.09999999999998 0.987031367658143 -2.02738535834394
5.11999999999998 0.945741668858081 -2.09938359614108
5.13999999999998 0.903035205903056 -2.1685766055986
5.15999999999998 0.858978351274686 -2.23473485680954
5.17999999999998 0.813625659984702 -2.29765484723496
5.19999999999998 0.767053091674716 -2.3571017180945
5.21999999999998 0.719323838388092 -2.41286885816341
5.23999999999998 0.67052036154831 -2.46472947399512
5.25999999999998 0.620719135320535 -2.51247692681636
5.27999999999998 0.570004178325561 -2.55590684314582
5.29999999999997 0.518467959071037 -2.59482129720644
5.31999999999997 0.466199369313576 -2.62904286907056
5.33999999999997 0.413293639091545 -2.65840613296857
5.35999999999997 0.359849626361259 -2.68276301154185
5.37999999999997 0.305971231472123 -2.70198556468149
5.39999999999997 0.251765979826236 -2.71597190712494
5.41999999999997 0.197328160431388 -2.72463498138596
5.43999999999997 0.142771205457926 -2.72792317969799
5.45999999999997 0.0882029408768356 -2.72580599698668
5.47999999999997 0.0337312590188466 -2.71828014687319
5.49999999999997 -0.0205357850808914 -2.70536961503753
5.51999999999997 -0.0744909104532521 -2.68712511010838
5.53999999999997 -0.128028127938794 -2.66362338751952
5.55999999999997 -0.181043244394702 -2.63496618474147
5.57999999999997 -0.233434343880685 -2.60127879654801
5.59999999999997 -0.285102119239772 -2.56270847147809
5.61999999999997 -0.335939162635056 -2.51943265451127
5.63999999999997 -0.385875293818925 -2.47161677491618
5.65999999999997 -0.434811156516685 -2.4194686823323
5.67999999999997 -0.482662239385983 -2.36320038223109
5.69999999999997 -0.529348362515344 -2.30303391555684
5.71999999999997 -0.574793827116734 -2.2391988608353
5.73999999999997 -0.618927226253717 -2.1719305874238
5.75999999999997 -0.661678884103985 -2.10147715906914
5.77999999999996 -0.702994044045413 -2.02805512317503
5.79999999999996 -0.742813070503025 -1.95190871209224
5.81999999999996 -0.781082302856883 -1.87327239387086
5.83999999999996 -0.817754522447512 -1.79237609932806
5.85999999999996 -0.85278840638585 -1.70943261979874
5.87999999999996 -0.886143881664432 -1.62465789787385
5.89999999999996 -0.917785697208407 -1.53825810741487
5.91999999999996 -0.947685242633541 -1.45041816995127
5.93999999999996 -0.97581330031563 -1.36133187302564
5.95999999999996 -1.00214842820227 -1.27116341499595
5.97999999999996 -1.02666991579885 -1.18007845926076
5.99999999999996 -1.04936073445366 -1.08823075635755
6.01999999999996 -1.07020789828805 -0.995754939312044
6.03999999999996 -1.08919908557947 -0.902792274784301
6.05999999999996 -1.10632675783339 -0.809455036496216
6.07999999999996 -1.12158417340406 -0.715860584349991
6.09999999999996 -1.13496730235626 -0.622114562317878
6.11999999999996 -1.14647422120467 -0.528309882380691
6.13999999999996 -1.15610463510548 -0.434540162481383
6.15999999999996 -1.1638611711863 -0.340896638547594
6.17999999999996 -1.16974507384858 -0.24744309818581
6.19999999999996 -1.17376196012213 -0.154262978342863
6.21999999999996 -1.17591827538161 -0.0614309176945289
6.23999999999995 -1.17622074709818 0.0309869467465588
6.25999999999995 -1.17467978920044 0.122918560856041
6.27999999999995 -1.17130490215975 0.21429771618994
6.29999999999995 -1.16610817707693 0.305053977187003
6.31999999999995 -1.15910262351904 0.39511759481597
6.33999999999995 -1.15030323068449 0.484414289761316
6.35999999999995 -1.1397255691392 0.572871122526273
6.37999999999995 -1.12738720584906 0.66040912917941
6.39999999999995 -1.11330733693394 0.746945072730166
6.41999999999995 -1.09750702424379 0.832390358795521
6.43999999999995 -1.08000955931493 0.916649805571766
6.45999999999995 -1.06083872812847 0.999627270493598
6.47999999999995 -1.04002122479478 1.08121736171064
6.49999999999995 -1.01758609560304 1.16130787413418
6.51999999999995 -0.993565668223594 1.23977764468859
6.53999999999995 -0.967991956261971 1.31650668832559
6.55999999999995 -0.940903841754402 1.39136083377199
6.57999999999995 -0.91233619242275 1.46420626619108
6.59999999999995 -0.882332403678368 1.53489961144398
6.61999999999995 -0.850936468546765 1.60329448152779
6.63999999999995 -0.81819615110451 1.66923837127001
6.65999999999995 -0.784163034761339 1.73257402672099
6.67999999999995 -0.748889369356533 1.79314481169201
6.69999999999995 -0.71243419428946 1.85079080259399
6.71999999999994 -0.674855620691738 1.90535403306792
6.73999999999994 -0.636217818653347 1.95667533258486
6.75999999999994 -0.596587005385979 2.00459901622647
6.77999999999994 -0.556032772919108 2.04897341881234
6.79999999999994 -0.514627652134024 2.08965267698624
6.81999999999994 -0.472446993257115 2.12649829745715
6.83999999999994 -0.429568813308814 2.15938073106724
6.85999999999994 -0.386073608951438 2.18818092215016
6.87999999999994 -0.342044135244583 2.21279179937207
6.89999999999994 -0.297565152477346 2.23311967351902
6.91999999999994 -0.252723144426446 2.24908550906664
6.93999999999994 -0.207606012135332 2.26062603931346
6.95999999999994 -0.162302747712715 2.26769469890707
6.97999999999994 -0.116906392708269 2.27026457409149
6.99999999999994 -0.0715004825337719 2.26832031208434
7.01999999999994 -0.0261785129487702 2.26187087897662
7.03999999999994 0.0189696607658276 2.25094155516378
7.05999999999994 0.063854863834486 2.23557568179252
7.07999999999994 0.108388589537856 2.21583450762615
7.09999999999994 0.15248390921064 2.19179625109379
7.11999999999994 0.19605577055346 2.16355525109642
7.13999999999994 0.239021532081325 2.13122041223211
7.15999999999994 0.281273254866554 2.09493851316619
7.17999999999993 0.322788113313163 2.05479980643528
7.19999999999993 0.363463099607136 2.01097189110482
7.21999999999993 0.403225415662552 1.96361197554126
7.23999999999993 0.442006253591766 1.91288380005337
7.25999999999993 0.479739897235865 1.85895799573574
7.27999999999993 0.5163641043738 1.80201003737463
7.29999999999993 0.551820192623844 1.74221871849987
7.31999999999993 0.586053093114462 1.67976469703451
7.33999999999993 0.619011372920408 1.61482913571219
7.35999999999993 0.650647228181938 1.54759245769821
7.37999999999993 0.68091645084395 1.47823323313421
7.39999999999993 0.709778372976207 1.40692720661066
7.41999999999993 0.737194761127863 1.33385247689723
7.43999999999993 0.763134035082199 1.25916454616407
7.45999999999993 0.787564430687713 1.18303256140638
7.47999999999993 0.81045844591124 1.10561486757412
7.49999999999993 0.831791747796773 1.02706410096975
7.51999999999993 0.851543596572028 0.947523586491438
7.53999999999993 0.869695544949171 0.867133267494488
7.55999999999993 0.886231892954824 0.786027198512635
7.57999999999993 0.901139582304253 0.704333620114381
7.59999999999993 0.914408085585183 0.622175134254544
7.61999999999993 0.926029268137645 0.539669399634483
7.63999999999993 0.935997344162026 0.456928907456844
7.65999999999992 0.944308775287454 0.374060209060819
7.67999999999992 0.950962042049362 0.291167210588746
7.69999999999992 0.955957675438171 0.208350268231564
7.71999999999992 0.959298184157916 0.125706723400274
7.73999999999992 0.96098799685681 0.0433315350166814
7.75999999999992 0.961032730408614 -0.0386854817408735
7.77999999999992 0.959441849052659 -0.120245644341886
7.79999999999992 0.956224723126036 -0.201261036142906
7.81999999999992 0.951393161008352 -0.281640508553351
7.83999999999992 0.944960859201246 -0.361292140119532
7.85999999999992 0.936943299101093 -0.440123565046882
7.87999999999992 0.927359289371131 -0.518036720975019
7.89999999999992 0.916225094497376 -0.594945400385218
7.91999999999992 0.903563301220059 -0.670747320914151
7.93999999999992 0.889397041084269 -0.74534250012647
7.95999999999992 0.873774268047474 -0.818527197884174
7.97999999999992 0.856678570895385 -0.890400662003002
7.99999999999992 0.838160121662241 -0.960751448135343
8.01999999999992 0.818250481463047 -1.02946857452864
8.03999999999992 0.796983466163003 -1.09643831238512
8.05999999999992 0.774395190386797 -1.16154439280957
8.07999999999992 0.750524118399272 -1.22466827092607
8.09999999999992 0.725411111241134 -1.28568948240298
8.11999999999992 0.699099449292554 -1.34448612214769
8.13999999999992 0.67163485864883 -1.40093538307851
8.15999999999991 0.643065522048165 -1.45491418911789
8.17999999999991 0.613442070058209 -1.50629991629304
8.19999999999991 0.582817567152135 -1.55497117320084
8.21999999999991 0.551247469011984 -1.60080866082695
8.23999999999991 0.518789720455915 -1.64369588804003
8.25999999999991 0.485505111646535 -1.68351972947686
8.27999999999991 0.451455401476938 -1.7201734794961
8.29999999999991 0.416717474809876 -1.75354435919983
8.31999999999991 0.381332988192093 -1.78356132042178
8.33999999999991 0.345382210933324 -1.81012522841222
8.35999999999991 0.308934842232237 -1.83315803323304
8.37999999999991 0.27206348570996 -1.85259067584413
8.39999999999991 0.234840009511811 -1.86836566969721
8.41999999999991 0.197337651294402 -1.88043629738641
8.43999999999991 0.159630624464918 -1.88876739706132
8.45999999999991 0.121795558425513 -1.89333603038434
8.47999999999991 0.0839079141763473 -1.89413255017035
8.49999999999991 0.0460403324535627 -1.89115848685812
8.51999999999991 0.00827004548382783 -1.88442980782532
8.53999999999991 -0.0293277153132235 -1.87397505951067
8.55999999999991 -0.0666798155350098 -1.85983469797231
8.57999999999991 -0.103713117219862 -1.84206174536524
8.59999999999991 -0.140354008963107 -1.82072250903101
8.61999999999991 -0.176533240639872 -1.79589229310208
8.6399999999999 -0.212182045483404 -1.76765764412891
8.6599999999999 -0.247232564999214 -1.73611599873837
8.6799999999999 -0.281619420154935 -1.70137343464557
8.6999999999999 -0.315280448999151 -1.66354261091773
8.7199999999999 -0.348155166637772 -1.62274399210904
8.7399999999999 -0.380185004411598 -1.57910512518071
8.7599999999999 -0.411314072233437 -1.53275874595066
8.7799999999999 -0.441490165430425 -1.48383977386878
8.7999999999999 -0.47066324021745 -1.43248730492676
8.8199999999999 -0.498786032901588 -1.37884273788445
8.8399999999999 -0.525814092474978 -1.32304893594169
8.8599999999999 -0.551705460472132 -1.26525047021116
8.8799999999999 -0.576421593382781 -1.20559035170986
8.8999999999999 -0.599926848373321 -1.14421051145182
8.9199999999999 -0.622188245734279 -1.0812519406089
8.9399999999999 -0.643175580957146 -1.01685381788184
8.9599999999999 -0.662861425063126 -0.951152943450087
8.9799999999999 -0.681220742648814 -0.88428542380807
8.9999999999999 -0.698232157017944 -0.816378423563588
9.0199999999999 -0.713875828906771 -0.747562109282287
9.0399999999999 -0.728134823139789 -0.677961379631466
9.0599999999999 -0.740994675404746 -0.607697864945768
9.0799999999999 -0.752443325244015 -0.53688995045206
9.09999999999989 -0.762471041621049 -0.465652965096042
9.11999999999989 -0.771070360463442 -0.394099456305899
9.13999999999989 -0.778236063599264 -0.322338855909793
9.15999999999989 -0.783965089411114 -0.25047799596281
9.17999999999989 -0.788256481769204 -0.17862158896409
9.19999999999989 -0.791111361101284 -0.1068723052703
9.21999999999989 -0.792532887370493 -0.0353310919892472
9.23999999999989 -0.792526224055247 0.0359026166187379
9.25999999999989 -0.791098516508109 0.106730480668148
9.27999999999989 -0.788258873631397 0.177054980888346
9.29999999999989 -0.784018332921046 0.246779307837808
9.31999999999989 -0.7783898930118 0.315806718766797
9.33999999999989 -0.771388455355178 0.384040730269746
9.35999999999989 -0.763030871979466 0.451384539914309
9.37999999999989 -0.753335916186009 0.517741061445481
9.39999999999989 -0.74232429100338 0.583012731800201
9.41999999999989 -0.730018641289259 0.647101381980338
9.43999999999989 -0.716443535492784 0.709908271017464
9.45999999999989 -0.701626148600526 0.771331897831292
9.47999999999989 -0.68559475074408 0.831273262254561
9.49999999999989 -0.668380411707258 0.889630614075636
9.51999999999989 -0.650014560452032 0.946305304058476
9.53999999999989 -0.630533237884185 1.00119253123095
9.55999999999989 -0.609972536540348 1.05419243382166
9.57999999999988 -0.588371073534384 1.10520412058796
9.59999999999988 -0.565770063040181 1.15412632071684
9.61999999999988 -0.542212483414694 1.20085958972052
9.63999999999988 -0.51774250221998 1.24530749831226
9.65999999999988 -0.492406748270911 1.2873747445881
9.67999999999988 -0.466254828044316 1.32696731517561
9.69999999999988 -0.439336093853835 1.36399750642857
9.71999999999988 -0.411702535560666 1.3983801304827
9.73999999999988 -0.383409202256011 1.43003315373064
9.75999999999988 -0.354510235127745 1.45888237081932
9.77999999999988 -0.325062576594826 1.48485786219248
9.79999999999988 -0.29512524645325 1.50789568362063
9.81999999999988 -0.264756303085638 1.52794031846619
9.83999999999988 -0.234017235220693 1.54494226293125
9.85999999999988 -0.20296882012379 1.5588608722862
9.87999999999988 -0.171672701482252 1.56966366985004
9.89999999999988 -0.140192569063559 1.57732665904236
9.91999999999988 -0.108589840396337 1.58183520433852
9.93999999999988 -0.0769294897537579 1.58318381363709
9.95999999999988 -0.0452731727365791 1.58137618621256
9.97999999999988 -0.0136846859953417 1.57642570301998
9.99999999999988 0.0177729834064218 1.56835529274653
