\relax 
\@writefile{toc}{\contentsline {section}{\numberline {1}Definition}{1}\protected@file@percent }
\@writefile{toc}{\contentsline {section}{\numberline {2}Numerical implementation}{1}\protected@file@percent }
\@writefile{toc}{\contentsline {subsection}{\numberline {2.1}Test}{1}\protected@file@percent }
\@writefile{lof}{\contentsline {figure}{\numberline {1}{\ignorespaces Numerical implementation and Library implementation of the exponential function.}}{2}\protected@file@percent }
