-5 -5 9.25355727340555E-17
-5 -4.5206299733746 1.46398213155844E-15
-5 -3.76642969425136 7.08391523103139E-14
-5 -2.89410172221907 3.09586847078699E-12
-5 -2.47550918913237 1.44761218182326E-11
-5 1.9353749821267 3.92302925752951E-09
-5 2.23706464982455 2.82684946938879E-09
-5 4.16374977700121 4.07487945227809E-11
-5 4.25049011625372 3.08531726056257E-11
-5 4.42752121894971 1.70838185102759E-11
-5 4.84902687217529 3.68613561822146E-12
-5 5 2.03823162762952E-12
-1.13003427648918 -5 6.28640513853265E-10
-1.13003427648918 -4.5206299733746 9.9455642004817E-09
-1.13003427648918 -3.76642969425136 4.81245858144414E-07
-1.13003427648918 -2.89410172221907 2.10317858180977E-05
-1.13003427648918 -2.47550918913237 9.83435492917965E-05
-1.13003427648918 1.9353749821267 0.0266511035210476
-1.13003427648918 2.23706464982455 0.019204204939971
-1.13003427648918 4.16374977700121 0.000276826979839663
-1.13003427648918 4.25049011625372 0.000209601061599805
-1.13003427648918 4.42752121894971 0.000116058939600892
-1.13003427648918 4.84902687217529 2.50417663251653E-05
-1.13003427648918 5 1.38467287756186E-05
-1.07359658029564 -5 7.07813891352324E-10
-1.07359658029564 -4.5206299733746 1.11981463862198E-08
-1.07359658029564 -3.76642969425136 5.41855792052714E-07
-1.07359658029564 -2.89410172221907 2.36806089234508E-05
-1.07359658029564 -2.47550918913237 0.00011072930996279
-1.07359658029564 1.9353749821267 0.0300076448723276
-1.07359658029564 2.23706464982455 0.0216228555578924
-1.07359658029564 4.16374977700121 0.000311691622658223
-1.07359658029564 4.25049011625372 0.000235999016565396
-1.07359658029564 4.42752121894971 0.000130675843912133
-1.07359658029564 4.84902687217529 2.81956216284974E-05
-1.07359658029564 5 1.5590638466961E-05
-0.469133664727739 -5 2.06504174421224E-09
-0.469133664727739 -4.5206299733746 3.26705084879902E-08
-0.469133664727739 -3.76642969425136 1.58086022837756E-06
-0.469133664727739 -2.89410172221907 6.90879997591761E-05
-0.469133664727739 -2.47550918913237 0.000323051935225666
-0.469133664727739 1.9353749821267 0.0875470799089023
-0.469133664727739 2.23706464982455 0.0630845196762227
-0.469133664727739 4.16374977700121 0.000909357982337329
-0.469133664727739 4.25049011625372 0.0006885253691044
-0.469133664727739 4.42752121894971 0.000381245799122633
-0.469133664727739 4.84902687217529 8.22605156217234E-05
-0.469133664727739 5 4.54855713437389E-05
0.488105506658603 -5 5.32977656792449E-09
0.488105506658603 -4.5206299733746 8.43210608645069E-08
0.488105506658603 -3.76642969425136 4.08012662503566E-06
0.488105506658603 -2.89410172221907 0.000178312909786575
0.488105506658603 -2.47550918913237 0.000833781999523321
0.488105506658603 1.9353749821267 0.225954935969915
0.488105506658603 2.23706464982455 0.162818207288766
0.488105506658603 4.16374977700121 0.00234701060145661
0.488105506658603 4.25049011625372 0.0017770519114005
0.488105506658603 4.42752121894971 0.000983977652015256
0.488105506658603 4.84902687217529 0.000212310559752532
0.488105506658603 5 0.000117396141267351
1.96141378628622 -5 3.82733626673211E-09
1.96141378628622 -4.5206299733746 6.05513289690731E-08
1.96141378628622 -3.76642969425136 2.9299570827862E-06
1.96141378628622 -2.89410172221907 0.000128047293869667
1.96141378628622 -2.47550918913237 0.000598742563530524
1.96141378628622 1.9353749821267 0.162259244841395
1.96141378628622 2.23706464982455 0.116920479066774
1.96141378628622 4.16374977700121 0.00168539875525358
1.96141378628622 4.25049011625372 0.00127610888405728
1.96141378628622 4.42752121894971 0.000706598729837272
1.96141378628622 4.84902687217529 0.000152461157572971
1.96141378628622 5 8.4302691364398E-05
2.41083411712238 -5 2.24588769024674E-09
2.41083411712238 -4.5206299733746 3.5531626928573E-08
2.41083411712238 -3.76642969425136 1.71930399802558E-06
2.41083411712238 -2.89410172221907 7.51383785038663E-05
2.41083411712238 -2.47550918913237 0.000351343195200388
2.41083411712238 1.9353749821267 0.0952140118404518
2.41083411712238 2.23706464982455 0.068609143898931
2.41083411712238 4.16374977700121 0.00098899497033563
2.41083411712238 4.25049011625372 0.000748822950058116
2.41083411712238 4.42752121894971 0.000414633384340826
2.41083411712238 4.84902687217529 8.94644769026957E-05
2.41083411712238 5 4.94689683881974E-05
2.7168203595359 -5 1.391790754101E-09
2.7168203595359 -4.5206299733746 2.20191731100859E-08
2.7168203595359 -3.76642969425136 1.06546352176586E-06
2.7168203595359 -2.89410172221907 4.65637266431312E-05
2.7168203595359 -2.47550918913237 0.000217729592053858
2.7168203595359 1.9353749821267 0.0590047231283615
2.7168203595359 2.23706464982455 0.0425175188144989
2.7168203595359 4.16374977700121 0.000612886415266072
2.7168203595359 4.25049011625372 0.000464050300856772
2.7168203595359 4.42752121894971 0.000256950921087139
2.7168203595359 4.84902687217529 5.54417000967555E-05
2.7168203595359 5 3.0656231438734E-05
3.30320987144169 -5 4.282446852648E-10
3.30320987144169 -4.5206299733746 6.77515196198494E-09
3.30320987144169 -3.76642969425136 3.27835983387079E-07
3.30320987144169 -2.89410172221907 1.43273465514032E-05
3.30320987144169 -2.47550918913237 6.69939359398641E-05
3.30320987144169 1.9353749821267 0.0181553577725579
3.30320987144169 2.23706464982455 0.0130823555260046
3.30320987144169 4.16374977700121 0.000188581041536107
3.30320987144169 4.25049011625372 0.000142785166844859
3.30320987144169 4.42752121894971 7.9062075965966E-05
3.30320987144169 4.84902687217529 1.70590394702087E-05
3.30320987144169 5 9.43271691179289E-06
3.49686149277578 -5 2.69057180969083E-10
3.49686149277578 -4.5206299733746 4.25668630633825E-09
3.49686149277578 -3.76642969425136 2.05972493168976E-07
3.49686149277578 -2.89410172221907 9.00157224719331E-06
3.49686149277578 -2.47550918913237 4.20908890786524E-05
3.49686149277578 1.9353749821267 0.0114066316520637
3.49686149277578 2.23706464982455 0.00821937041923963
3.49686149277578 4.16374977700121 0.000118481525085465
3.49686149277578 4.25049011625372 8.97089346286295E-05
3.49686149277578 4.42752121894971 4.96730491069908E-05
3.49686149277578 4.84902687217529 1.07178377871907E-05
3.49686149277578 5 5.92637879346262E-06
3.92080344527532 -5 8.53308624525283E-11
3.92080344527532 -4.5206299733746 1.34999821376798E-09
3.92080344527532 -3.76642969425136 6.53236996697214E-08
3.92080344527532 -2.89410172221907 2.85482781212226E-06
3.92080344527532 -2.47550918913237 1.33490280896381E-05
3.92080344527532 1.9353749821267 0.00361758683802144
3.92080344527532 2.23706464982455 0.00260675431209216
3.92080344527532 4.16374977700121 3.75761415615045E-05
3.92080344527532 4.25049011625372 2.84509810665045E-05
3.92080344527532 4.42752121894971 1.57536926005085E-05
3.92080344527532 4.84902687217529 3.39913745737331E-06
3.92080344527532 5 1.87953732305197E-06
5 -5 2.03823162762952E-12
5 -4.5206299733746 3.22463523449801E-11
5 -3.76642969425136 1.56033616529623E-09
5 -2.89410172221907 6.81910409770102E-08
5 -2.47550918913237 3.18857802070756E-07
5 1.9353749821267 8.64104697529998E-05
5 2.23706464982455 6.22655031445596E-05
5 4.16374977700121 8.97551928735642E-07
5 4.25049011625372 6.79586351059081E-07
5 4.42752121894971 3.76296144061278E-07
5 4.84902687217529 8.11925401097736E-08
5 5 4.48950392278749E-08


-5 -5 9.25355701606741E-17
-5 -4.8 6.64722578475629E-16
-5 -4.6 1.23690961326036E-15
-5 -4.4 1.25601391199009E-14
-5 -4.2 3.0957154327244E-14
-5 -4 4.9354169534587E-14
-5 -3.8 6.77511847419301E-14
-5 -3.6 6.47978361505847E-13
-5 -3.4 1.34153158146046E-12
-5 -3.2 2.03508478786255E-12
-5 -3 2.72863799426464E-12
-5 -2.8 5.65420713721787E-12
-5 -2.6 1.10915967166045E-11
-5 -2.4 8.1385991695937E-11
-5 -2.2 2.5860910635167E-10
-5 -2 4.3583221927268E-10
-5 -1.8 6.1305533219369E-10
-5 -1.6 7.90278446849424E-10
-5 -1.4 9.67501559770434E-10
-5 -1.2 1.14472467442617E-09
-5 -0.999999999999998 1.32194778821454E-09
-5 -0.799999999999998 1.49917090200291E-09
-5 -0.599999999999998 1.67639401579128E-09
-5 -0.399999999999998 1.85361712957965E-09
-5 -0.199999999999998 2.03084024336803E-09
-5 2.16493489801906E-15 2.2080633571564E-09
-5 0.200000000000002 2.38528647094477E-09
-5 0.400000000000002 2.56250958473314E-09
-5 0.600000000000002 2.73973269852151E-09
-5 0.800000000000002 2.91695581230988E-09
-5 1 3.09417892609826E-09
-5 1.2 3.27140203988663E-09
-5 1.4 3.44862515454236E-09
-5 1.6 3.62584826746337E-09
-5 1.8 3.80307138211911E-09
-5 2 3.68821627405591E-09
-5 2.2 2.96152263823402E-09
-5 2.4 2.59123532006522E-09
-5 2.6 2.30202348155961E-09
-5 2.8 2.01281165346234E-09
-5 3 1.72359981842618E-09
-5 3.2 1.43438799032891E-09
-5 3.4 1.14517615529275E-09
-5 3.6 8.5596432719548E-10
-5 3.8 5.66752485220423E-10
-5 4 2.77540657123154E-10
-5 4.2 3.66132523604845E-11
-5 4.4 1.92243985487617E-11
-5 4.6 1.16015291991289E-11
-5 4.8 5.24446935531997E-12
-4.8 -5 3.24882573531005E-11
-4.8 -4.8 2.3337704998408E-10
-4.8 -4.6 4.34265842615099E-10
-4.8 -4.4 4.40973163216202E-09
-4.8 -4.2 1.08687284079474E-08
-4.8 -4 1.73277251837328E-08
-4.8 -3.8 2.37867219595178E-08
-4.8 -3.6 2.27498336179176E-07
-4.8 -3.4 4.70997505781318E-07
-4.8 -3.2 7.14496675383473E-07
-4.8 -3 9.579958449856E-07
-4.8 -2.8 1.98513208859205E-06
-4.8 -2.6 3.89414184721383E-06
-4.8 -2.4 2.85737571639709E-05
-4.8 -2.2 9.07949112318382E-05
-4.8 -2 0.000153016065299704
-4.8 -1.8 0.000215237219367571
-4.8 -1.6 0.000277458373435438
-4.8 -1.4 0.000339679527503306
-4.8 -1.2 0.000401900681571173
-4.8 -0.999999999999998 0.00046412183563904
-4.8 -0.799999999999998 0.000526342989706908
-4.8 -0.599999999999998 0.000588564143774775
-4.8 -0.399999999999998 0.000650785297842642
-4.8 -0.199999999999998 0.000713006451910508
-4.8 2.16493489801906E-15 0.000775227605978376
-4.8 0.200000000000002 0.000837448760046243
-4.8 0.400000000000002 0.00089966991411411
-4.8 0.600000000000002 0.000961891068181977
-4.8 0.800000000000002 0.00102411222224984
-4.8 1 0.00108633337631771
-4.8 1.2 0.00114855453038558
-4.8 1.4 0.00121077568445345
-4.8 1.6 0.00127299683852131
-4.8 1.8 0.00133521799258918
-4.8 2 0.00129489359926127
-4.8 2.2 0.00103975918184825
-4.8 2.4 0.000909755213631805
-4.8 2.6 0.000808216009365308
-4.8 2.8 0.000706676805098817
-4.8 3 0.00060513760083232
-4.8 3.2 0.00050359839656583
-4.8 3.4 0.000402059192299332
-4.8 3.6 0.000300519988032842
-4.8 3.8 0.000198980783766345
-4.8 4 9.74415794998545E-05
-4.8 4.2 1.285452357409E-05
-4.8 4.4 6.7494825956799E-06
-4.8 4.6 4.07317369148681E-06
-4.8 4.8 1.84127752804182E-06
-4.6 -5 6.49764221705911E-11
-4.6 -4.8 4.66753435245555E-10
-4.6 -4.6 8.68530448320545E-10
-4.6 -4.4 8.81945070418493E-09
-4.6 -4.2 2.17374258587405E-08
-4.6 -4 3.46554010132956E-08
-4.6 -3.8 4.75733761678508E-08
-4.6 -3.6 4.54996024379991E-07
-4.6 -3.4 9.41993670031067E-07
-4.6 -3.2 1.42899131568214E-06
-4.6 -3 1.91598896133321E-06
-4.6 -2.8 3.97025852297706E-06
-4.6 -2.6 7.78827260283093E-06
-4.6 -2.4 5.71474329419466E-05
-4.6 -2.2 0.000181589563854567
-4.6 -2 0.000306031694767187
-4.6 -1.8 0.000430473825679806
-4.6 -1.6 0.000554915956592428
-4.6 -1.4 0.000679358087505048
-4.6 -1.2 0.000803800218417668
-4.6 -0.999999999999998 0.000928242349330289
-4.6 -0.799999999999998 0.00105268448024291
-4.6 -0.599999999999998 0.00117712661115553
-4.6 -0.399999999999998 0.00130156874206815
-4.6 -0.199999999999998 0.00142601087298077
-4.6 2.16493489801906E-15 0.00155045300389339
-4.6 0.200000000000002 0.00167489513480601
-4.6 0.400000000000002 0.00179933726571863
-4.6 0.600000000000002 0.00192377939663125
-4.6 0.800000000000002 0.00204822152754387
-4.6 1 0.00217266365845649
-4.6 1.2 0.00229710578936911
-4.6 1.4 0.00242154792028173
-4.6 1.6 0.00254599005119435
-4.6 1.8 0.00267043218210698
-4.6 2 0.00258978351030627
-4.6 2.2 0.00207951540217385
-4.6 2.4 0.00181950783602829
-4.6 2.6 0.00161642971670713
-4.6 2.8 0.00141335159738598
-4.6 3 0.00121027347806482
-4.6 3.2 0.00100719535874367
-4.6 3.4 0.00080411723942251
-4.6 3.6 0.000601039120101364
-4.6 3.8 0.000397961000780205
-4.6 4 0.000194882881459052
-4.6 4.2 2.5709010534928E-05
-4.6 4.4 1.34989459669608E-05
-4.6 4.6 8.14633578144464E-06
-4.6 4.8 3.6825498116145E-06
-4.4 -5 9.74645869881082E-11
-4.4 -4.8 7.00129820507043E-10
-4.4 -4.6 1.30279505402599E-09
-4.4 -4.4 1.32291697762083E-08
-4.4 -4.2 3.26061233095336E-08
-4.4 -4 5.19830768428593E-08
-4.4 -3.8 7.13600303761842E-08
-4.4 -3.6 6.82493712580778E-07
-4.4 -3.4 1.41298983428079E-06
-4.4 -3.2 2.1434859559808E-06
-4.4 -3 2.8739820776808E-06
-4.4 -2.8 5.95538495736197E-06
-4.4 -2.6 1.1682403358448E-05
-4.4 -2.4 8.57211087199189E-05
-4.4 -2.2 0.000272384216477293
-4.4 -2 0.000459047324234666
-4.4 -1.8 0.00064571043199204
-4.4 -1.6 0.000832373539749414
-4.4 -1.4 0.00101903664750679
-4.4 -1.2 0.00120569975526416
-4.4 -0.999999999999998 0.00139236286302154
-4.4 -0.799999999999998 0.00157902597077891
-4.4 -0.599999999999998 0.00176568907853628
-4.4 -0.399999999999998 0.00195235218629366
-4.4 -0.199999999999998 0.00213901529405103
-4.4 2.16493489801906E-15 0.00232567840180841
-4.4 0.200000000000002 0.00251234150956578
-4.4 0.400000000000002 0.00269900461732315
-4.4 0.600000000000002 0.00288566772508053
-4.4 0.800000000000002 0.0030723308328379
-4.4 1 0.00325899394059528
-4.4 1.2 0.00344565704835265
-4.4 1.4 0.00363232015611002
-4.4 1.6 0.0038189832638674
-4.4 1.8 0.00400564637162477
-4.4 2 0.00388467342135127
-4.4 2.2 0.00311927162249947
-4.4 2.4 0.00272926045842478
-4.4 2.6 0.00242464342404896
-4.4 2.8 0.00212002638967314
-4.4 3 0.00181540935529732
-4.4 3.2 0.00151079232092151
-4.4 3.4 0.00120617528654569
-4.4 3.6 0.000901558252169879
-4.4 3.8 0.000596941217794057
-4.4 4 0.000292324183418249
-4.4 4.2 3.85634974957669E-05
-4.4 4.4 2.02484093382417E-05
-4.4 4.6 1.22194978714025E-05
-4.4 4.8 5.52382209518696E-06
-4.2 -5 1.29952751805625E-10
-4.2 -4.8 9.33506205768531E-10
-4.2 -4.6 1.73705965973146E-09
-4.2 -4.4 1.76388888482312E-08
-4.2 -4.2 4.34748207603267E-08
-4.2 -4 6.93107526724221E-08
-4.2 -3.8 9.51466845845168E-08
-4.2 -3.6 9.09991400781593E-07
-4.2 -3.4 1.88398599853054E-06
-4.2 -3.2 2.85798059627949E-06
-4.2 -3 3.83197519402842E-06
-4.2 -2.8 7.94051139174677E-06
-4.2 -2.6 1.5576534114065E-05
-4.2 -2.4 0.000114294784497895
-4.2 -2.2 0.000363178869100022
-4.2 -2 0.000612062953702149
-4.2 -1.8 0.000860947038304275
-4.2 -1.6 0.0011098311229064
-4.2 -1.4 0.00135871520750853
-4.2 -1.2 0.00160759929211066
-4.2 -0.999999999999998 0.00185648337671278
-4.2 -0.799999999999998 0.00210536746131491
-4.2 -0.599999999999998 0.00235425154591704
-4.2 -0.399999999999998 0.00260313563051917
-4.2 -0.199999999999998 0.00285201971512129
-4.2 2.16493489801906E-15 0.00310090379972342
-4.2 0.200000000000002 0.00334978788432555
-4.2 0.400000000000002 0.00359867196892768
-4.2 0.600000000000002 0.0038475560535298
-4.2 0.800000000000002 0.00409644013813193
-4.2 1 0.00434532422273406
-4.2 1.2 0.00459420830733618
-4.2 1.4 0.00484309239193831
-4.2 1.6 0.00509197647654044
-4.2 1.8 0.00534086056114257
-4.2 2 0.00517956333239628
-4.2 2.2 0.00415902784282508
-4.2 2.4 0.00363901308082126
-4.2 2.6 0.00323285713139078
-4.2 2.8 0.0028267011819603
-4.2 3 0.00242054523252982
-4.2 3.2 0.00201438928309935
-4.2 3.4 0.00160823333366886
-4.2 3.6 0.00120207738423839
-4.2 3.8 0.00079592143480791
-4.2 4 0.000389765485377433
-4.2 4.2 5.14179844566054E-05
-4.2 4.4 2.69978727095227E-05
-4.2 4.6 1.62926599613601E-05
-4.2 4.8 7.36509437875943E-06
-4 -5 1.62440916623142E-10
-4 -4.8 1.16688259103002E-09
-4 -4.6 2.17132426543692E-09
-4 -4.4 2.20486079202549E-08
-4 -4.2 5.43435182111202E-08
-4 -4 8.66384285019858E-08
-4 -3.8 1.18933338792851E-07
-4 -3.6 1.13748908898241E-06
-4 -3.4 2.35498216278029E-06
-4 -3.2 3.57247523657816E-06
-4 -3 4.78996831037603E-06
-4 -2.8 9.92563782613179E-06
-4 -2.6 1.94706648696822E-05
-4 -2.4 0.00014286846027587
-4 -2.2 0.00045397352172275
-4 -2 0.00076507858316963
-4 -1.8 0.00107618364461651
-4 -1.6 0.00138728870606339
-4 -1.4 0.00169839376751027
-4 -1.2 0.00200949882895715
-4 -0.999999999999998 0.00232060389040403
-4 -0.799999999999998 0.00263170895185091
-4 -0.599999999999998 0.0029428140132978
-4 -0.399999999999998 0.00325391907474468
-4 -0.199999999999998 0.00356502413619156
-4 2.16493489801906E-15 0.00387612919763844
-4 0.200000000000002 0.00418723425908532
-4 0.400000000000002 0.0044983393205322
-4 0.600000000000002 0.00480944438197908
-4 0.800000000000002 0.00512054944342596
-4 1 0.00543165450487284
-4 1.2 0.00574275956631972
-4 1.4 0.0060538646277666
-4 1.6 0.00636496968921348
-4 1.8 0.00667607475066037
-4 2 0.00647445324344127
-4 2.2 0.00519878406315069
-4 2.4 0.00454876570321774
-4 2.6 0.0040410708387326
-4 2.8 0.00353337597424747
-4 3 0.00302568110976232
-4 3.2 0.00251798624527719
-4 3.4 0.00201029138079204
-4 3.6 0.00150259651630691
-4 3.8 0.000994901651821763
-4 4 0.00048720678733663
-4 4.2 6.42724714174439E-05
-4 4.4 3.37473360808036E-05
-4 4.6 2.03658220513179E-05
-4 4.8 9.20636666233211E-06
-3.8 -5 1.94929081440646E-10
-3.8 -4.8 1.40025897629149E-09
-3.8 -4.6 2.60558887114237E-09
-3.8 -4.4 2.64583269922774E-08
-3.8 -4.2 6.52122156619132E-08
-3.8 -4 1.03966104331549E-07
-3.8 -3.8 1.42719993001184E-07
-3.8 -3.6 1.36498677718322E-06
-3.8 -3.4 2.82597832703003E-06
-3.8 -3.2 4.28696987687684E-06
-3.8 -3 5.74796142672363E-06
-3.8 -2.8 1.19107642605168E-05
-3.8 -2.6 2.33647956252994E-05
-3.8 -2.4 0.000171442136053844
-3.8 -2.2 0.000544768174345478
-3.8 -2 0.000918094212637112
-3.8 -1.8 0.00129142025092874
-3.8 -1.6 0.00166474628922038
-3.8 -1.4 0.00203807232751201
-3.8 -1.2 0.00241139836580365
-3.8 -0.999999999999998 0.00278472440409528
-3.8 -0.799999999999998 0.00315805044238692
-3.8 -0.599999999999998 0.00353137648067855
-3.8 -0.399999999999998 0.00390470251897018
-3.8 -0.199999999999998 0.00427802855726182
-3.8 2.16493489801906E-15 0.00465135459555345
-3.8 0.200000000000002 0.00502468063384509
-3.8 0.400000000000002 0.00539800667213672
-3.8 0.600000000000002 0.00577133271042836
-3.8 0.800000000000002 0.00614465874871999
-3.8 1 0.00651798478701162
-3.8 1.2 0.00689131082530326
-3.8 1.4 0.00726463686359489
-3.8 1.6 0.00763796290188652
-3.8 1.8 0.00801128894017816
-3.8 2 0.00776934315448628
-3.8 2.2 0.0062385402834763
-3.8 2.4 0.00545851832561423
-3.8 2.6 0.00484928454607443
-3.8 2.8 0.00424005076653463
-3.8 3 0.00363081698699483
-3.8 3.2 0.00302158320745503
-3.8 3.4 0.00241234942791523
-3.8 3.6 0.00180311564837542
-3.8 3.8 0.00119388186883562
-3.8 4 0.000584648089295828
-3.8 4.2 7.71269583782828E-05
-3.8 4.4 4.04967994520841E-05
-3.8 4.6 2.44389841412757E-05
-3.8 4.8 1.10476389459046E-05
-3.6 -5 2.27417246258163E-10
-3.6 -4.8 1.63363536155298E-09
-3.6 -4.6 3.03985347684783E-09
-3.6 -4.4 3.08680460643007E-08
-3.6 -4.2 7.60809131127063E-08
-3.6 -4 1.21293780161112E-07
-3.6 -3.8 1.66506647209517E-07
-3.6 -3.6 1.59248446538402E-06
-3.6 -3.4 3.29697449127977E-06
-3.6 -3.2 5.00146451717551E-06
-3.6 -3 6.70595454307124E-06
-3.6 -2.8 1.38958906949018E-05
-3.6 -2.6 2.72589263809165E-05
-3.6 -2.4 0.000200015811831822
-3.6 -2.2 0.000635562826968208
-3.6 -2 0.0010711098421046
-3.6 -1.8 0.00150665685724098
-3.6 -1.6 0.00194220387237737
-3.6 -1.4 0.00237775088751376
-3.6 -1.2 0.00281329790265015
-3.6 -0.999999999999998 0.00324884491778653
-3.6 -0.799999999999998 0.00368439193292292
-3.6 -0.599999999999998 0.00411993894805931
-3.6 -0.399999999999998 0.00455548596319569
-3.6 -0.199999999999998 0.00499103297833208
-3.6 2.16493489801906E-15 0.00542657999346847
-3.6 0.200000000000002 0.00586212700860486
-3.6 0.400000000000002 0.00629767402374124
-3.6 0.600000000000002 0.00673322103887763
-3.6 0.800000000000002 0.00716876805401402
-3.6 1 0.00760431506915041
-3.6 1.2 0.00803986208428679
-3.6 1.4 0.00847540909942318
-3.6 1.6 0.00891095611455957
-3.6 1.8 0.00934650312969596
-3.6 2 0.00906423306553128
-3.6 2.2 0.00727829650380192
-3.6 2.4 0.00636827094801072
-3.6 2.6 0.00565749825341625
-3.6 2.8 0.00494672555882179
-3.6 3 0.00423595286422733
-3.6 3.2 0.00352518016963287
-3.6 3.4 0.0028144074750384
-3.6 3.6 0.00210363478044395
-3.6 3.8 0.00139286208584948
-3.6 4 0.000682089391255025
-3.6 4.2 8.99814453391209E-05
-3.6 4.4 4.72462628233654E-05
-3.6 4.6 2.85121462312336E-05
-3.6 4.8 1.28889112294771E-05
-3.4 -5 2.59905411075654E-10
-3.4 -4.8 1.86701174681444E-09
-3.4 -4.6 3.47411808255327E-09
-3.4 -4.4 3.52777651363236E-08
-3.4 -4.2 8.6949610563499E-08
-3.4 -4 1.38621455990675E-07
-3.4 -3.8 1.9029330141785E-07
-3.4 -3.6 1.81998215358482E-06
-3.4 -3.4 3.7679706555295E-06
-3.4 -3.2 5.71595915747418E-06
-3.4 -3 7.66394765941884E-06
-3.4 -2.8 1.58810171292866E-05
-3.4 -2.6 3.11530571365335E-05
-3.4 -2.4 0.000228589487609794
-3.4 -2.2 0.000726357479590935
-3.4 -2 0.00122412547157208
-3.4 -1.8 0.00172189346355322
-3.4 -1.6 0.00221966145553436
-3.4 -1.4 0.0027174294475155
-3.4 -1.2 0.00321519743949664
-3.4 -0.999999999999998 0.00371296543147778
-3.4 -0.799999999999998 0.00421073342345892
-3.4 -0.599999999999998 0.00470850141544006
-3.4 -0.399999999999998 0.0052062694074212
-3.4 -0.199999999999998 0.00570403739940234
-3.4 2.16493489801906E-15 0.00620180539138348
-3.4 0.200000000000002 0.00669957338336463
-3.4 0.400000000000002 0.00719734137534577
-3.4 0.600000000000002 0.00769510936732691
-3.4 0.800000000000002 0.00819287735930805
-3.4 1 0.00869064535128919
-3.4 1.2 0.00918841334327033
-3.4 1.4 0.00968618133525147
-3.4 1.6 0.0101839493272326
-3.4 1.8 0.0106817173192138
-3.4 2 0.0103591229765763
-3.4 2.2 0.00831805272412753
-3.4 2.4 0.0072780235704072
-3.4 2.6 0.00646571196075807
-3.4 2.8 0.00565340035110895
-3.4 3 0.00484108874145982
-3.4 3.2 0.00402877713181071
-3.4 3.4 0.00321646552216158
-3.4 3.6 0.00240415391251246
-3.4 3.8 0.00159184230286333
-3.4 4 0.000779530693214209
-3.4 4.2 0.00010283593229996
-3.4 4.4 5.39957261946463E-05
-3.4 4.6 3.25853083211914E-05
-3.4 4.8 1.47301835130497E-05
-3.2 -5 2.92393575893158E-10
-3.2 -4.8 2.10038813207593E-09
-3.2 -4.6 3.90838268825872E-09
-3.2 -4.4 3.9687484208347E-08
-3.2 -4.2 9.78183080142925E-08
-3.2 -4 1.55949131820238E-07
-3.2 -3.8 2.14079955626183E-07
-3.2 -3.6 2.04747984178564E-06
-3.2 -3.4 4.23896681977925E-06
-3.2 -3.2 6.43045379777286E-06
-3.2 -3 8.62194077576645E-06
-3.2 -2.8 1.78661435636716E-05
-3.2 -2.6 3.50471878921506E-05
-3.2 -2.4 0.000257163163387772
-3.2 -2.2 0.000817152132213665
-3.2 -2 0.00137714110103956
-3.2 -1.8 0.00193713006986545
-3.2 -1.6 0.00249711903869135
-3.2 -1.4 0.00305710800751724
-3.2 -1.2 0.00361709697634314
-3.2 -0.999999999999998 0.00417708594516903
-3.2 -0.799999999999998 0.00473707491399492
-3.2 -0.599999999999998 0.00529706388282082
-3.2 -0.399999999999998 0.00585705285164671
-3.2 -0.199999999999998 0.00641704182047261
-3.2 2.16493489801906E-15 0.0069770307892985
-3.2 0.200000000000002 0.00753701975812439
-3.2 0.400000000000002 0.00809700872695029
-3.2 0.600000000000002 0.00865699769577618
-3.2 0.800000000000002 0.00921698666460208
-3.2 1 0.00977697563342797
-3.2 1.2 0.0103369646022539
-3.2 1.4 0.0108969535710798
-3.2 1.6 0.0114569425399057
-3.2 1.8 0.0120169315087315
-3.2 2 0.0116540128876213
-3.2 2.2 0.00935780894445315
-3.2 2.4 0.00818777619280369
-3.2 2.6 0.0072739256680999
-3.2 2.8 0.00636007514339611
-3.2 3 0.00544622461869233
-3.2 3.2 0.00453237409398854
-3.2 3.4 0.00361852356928476
-3.2 3.6 0.00270467304458098
-3.2 3.8 0.00179082251987719
-3.2 4 0.000876971995173406
-3.2 4.2 0.000115690419260798
-3.2 4.4 6.0745189565927E-05
-3.2 4.6 3.66584704111491E-05
-3.2 4.8 1.65714557966223E-05
-3 -5 3.24881740710675E-10
-3 -4.8 2.33376451733742E-09
-3 -4.6 4.34264729396418E-09
-3 -4.4 4.40972032803694E-08
-3 -4.2 1.08687005465085E-07
-3 -4 1.73276807649801E-07
-3 -3.8 2.37866609834516E-07
-3 -3.6 2.27497752998645E-06
-3 -3.4 4.70996298402898E-06
-3 -3.2 7.14494843807153E-06
-3 -3 9.57993389211406E-06
-3 -2.8 1.98512699980566E-05
-3 -2.6 3.89413186477678E-05
-3 -2.4 0.000285736839165746
-3 -2.2 0.000907946784836394
-3 -2 0.00153015673050704
-3 -1.8 0.00215236667617769
-3 -1.6 0.00277457662184834
-3 -1.4 0.00339678656751898
-3 -1.2 0.00401899651318963
-3 -0.999999999999998 0.00464120645886028
-3 -0.799999999999998 0.00526341640453093
-3 -0.599999999999998 0.00588562635020157
-3 -0.399999999999998 0.00650783629587222
-3 -0.199999999999998 0.00713004624154287
-3 2.16493489801906E-15 0.00775225618721352
-3 0.200000000000002 0.00837446613288416
-3 0.400000000000002 0.00899667607855481
-3 0.600000000000002 0.00961888602422546
-3 0.800000000000002 0.0102410959698961
-3 1 0.0108633059155668
-3 1.2 0.0114855158612374
-3 1.4 0.0121077258069081
-3 1.6 0.0127299357525787
-3 1.8 0.0133521456982493
-3 2 0.0129489027986663
-3 2.2 0.0103975651647788
-3 2.4 0.00909752881520018
-3 2.6 0.00808213937544172
-3 2.8 0.00706674993568328
-3 3 0.00605136049592483
-3 3.2 0.00503597105616639
-3 3.4 0.00402058161640794
-3 3.6 0.00300519217664949
-3 3.8 0.00198980273689104
-3 4 0.000974413297132604
-3 4.2 0.000128544906221637
-3 4.4 6.7494652937208E-05
-3 4.6 4.0731632501107E-05
-3 4.8 1.84127280801948E-05
-2.8 -5 3.57369905528205E-10
-2.8 -4.8 2.56714090259891E-09
-2.8 -4.6 4.77691189966965E-09
-2.8 -4.4 4.85069223523928E-08
-2.8 -4.2 1.19555702915878E-07
-2.8 -4 1.90604483479364E-07
-2.8 -3.8 2.61653264042849E-07
-2.8 -3.6 2.50247521818724E-06
-2.8 -3.4 5.18095914827872E-06
-2.8 -3.2 7.8594430783702E-06
-2.8 -3 1.05379270084617E-05
-2.8 -2.8 2.18363964324415E-05
-2.8 -2.6 4.28354494033849E-05
-2.8 -2.4 0.000314310514943721
-2.8 -2.2 0.000998741437459122
-2.8 -2 0.00168317235997452
-2.8 -1.8 0.00236760328248992
-2.8 -1.6 0.00305203420500532
-2.8 -1.4 0.00373646512752073
-2.8 -1.2 0.00442089605003613
-2.8 -0.999999999999998 0.00510532697255153
-2.8 -0.799999999999998 0.00578975789506693
-2.8 -0.599999999999998 0.00647418881758233
-2.8 -0.399999999999998 0.00715861974009773
-2.8 -0.199999999999998 0.00784305066261313
-2.8 2.16493489801906E-15 0.00852748158512853
-2.8 0.200000000000002 0.00921191250764393
-2.8 0.400000000000002 0.00989634343015934
-2.8 0.600000000000002 0.0105807743526747
-2.8 0.800000000000002 0.0112652052751901
-2.8 1 0.0119496361977055
-2.8 1.2 0.0126340671202209
-2.8 1.4 0.0133184980427363
-2.8 1.6 0.0140029289652517
-2.8 1.8 0.0146873598877671
-2.8 2 0.0142437927097113
-2.8 2.2 0.0114373213851044
-2.8 2.4 0.0100072814375967
-2.8 2.6 0.00889035308278355
-2.8 2.8 0.00777342472797044
-2.8 3 0.00665649637315733
-2.8 3.2 0.00553956801834422
-2.8 3.4 0.00442263966353111
-2.8 3.6 0.00330571130871801
-2.8 3.8 0.0021887829539049
-2.8 4 0.00107185459909179
-2.8 4.2 0.000141399393182475
-2.8 4.4 7.42441163084887E-05
-2.8 4.6 4.48047945910648E-05
-2.8 4.8 2.02540003637673E-05
-2.6 -5 3.89858070345709E-10
-2.6 -4.8 2.8005172878604E-09
-2.6 -4.6 5.21117650537511E-09
-2.6 -4.4 5.29166414244159E-08
-2.6 -4.2 1.30424400366672E-07
-2.6 -4 2.07932159308927E-07
-2.6 -3.8 2.85439918251182E-07
-2.6 -3.6 2.72997290638806E-06
-2.6 -3.4 5.65195531252847E-06
-2.6 -3.2 8.57393771866888E-06
-2.6 -3 1.14959201248093E-05
-2.6 -2.8 2.38215228668264E-05
-2.6 -2.6 4.6729580159002E-05
-2.6 -2.4 0.000342884190721695
-2.6 -2.2 0.00108953609008185
-2.6 -2 0.001836187989442
-2.6 -1.8 0.00258283988880216
-2.6 -1.6 0.00332949178816231
-2.6 -1.4 0.00407614368752247
-2.6 -1.2 0.00482279558688262
-2.6 -0.999999999999998 0.00556944748624278
-2.6 -0.799999999999998 0.00631609938560293
-2.6 -0.599999999999998 0.00706275128496309
-2.6 -0.399999999999998 0.00780940318432324
-2.6 -0.199999999999998 0.00855605508368339
-2.6 2.16493489801906E-15 0.00930270698304355
-2.6 0.200000000000002 0.0100493588824037
-2.6 0.400000000000002 0.0107960107817639
-2.6 0.600000000000002 0.011542662681124
-2.6 0.800000000000002 0.0122893145804842
-2.6 1 0.0130359664798443
-2.6 1.2 0.0137826183792045
-2.6 1.4 0.0145292702785646
-2.6 1.6 0.0152759221779248
-2.6 1.8 0.0160225740772849
-2.6 2 0.0155386826207563
-2.6 2.2 0.01247707760543
-2.6 2.4 0.0109170340599931
-2.6 2.6 0.00969856679012537
-2.6 2.8 0.00848009952025761
-2.6 3 0.00726163225038983
-2.6 3.2 0.00604316498052207
-2.6 3.4 0.00482469771065429
-2.6 3.6 0.00360623044078653
-2.6 3.8 0.00238776317091875
-2.6 4 0.00116929590105099
-2.6 4.2 0.000154253880143314
-2.6 4.4 8.09935796797696E-05
-2.6 4.6 4.88779566810225E-05
-2.6 4.8 2.20952726473399E-05
-2.4 -5 4.22346235163213E-10
-2.4 -4.8 3.03389367312188E-09
-2.4 -4.6 5.64544111108056E-09
-2.4 -4.4 5.7326360496439E-08
-2.4 -4.2 1.41293097817465E-07
-2.4 -4 2.2525983513849E-07
-2.4 -3.8 3.09226572459516E-07
-2.4 -3.6 2.95747059458887E-06
-2.4 -3.4 6.1229514767782E-06
-2.4 -3.2 9.28843235896755E-06
-2.4 -3 1.24539132411569E-05
-2.4 -2.8 2.58066493012114E-05
-2.4 -2.6 5.06237109146191E-05
-2.4 -2.4 0.000371457866499671
-2.4 -2.2 0.00118033074270458
-2.4 -2 0.00198920361890949
-2.4 -1.8 0.00279807649511439
-2.4 -1.6 0.0036069493713193
-2.4 -1.4 0.00441582224752421
-2.4 -1.2 0.00522469512372912
-2.4 -0.999999999999998 0.00603356799993403
-2.4 -0.799999999999998 0.00684244087613893
-2.4 -0.599999999999998 0.00765131375234384
-2.4 -0.399999999999998 0.00846018662854875
-2.4 -0.199999999999998 0.00926905950475366
-2.4 2.16493489801906E-15 0.0100779323809586
-2.4 0.200000000000002 0.0108868052571635
-2.4 0.400000000000002 0.0116956781333684
-2.4 0.600000000000002 0.0125045510095733
-2.4 0.800000000000002 0.0133134238857782
-2.4 1 0.0141222967619831
-2.4 1.2 0.014931169638188
-2.4 1.4 0.0157400425143929
-2.4 1.6 0.0165489153905978
-2.4 1.8 0.0173577882668027
-2.4 2 0.0168335725318013
-2.4 2.2 0.0135168338257556
-2.4 2.4 0.0118267866823896
-2.4 2.6 0.0105067804974672
-2.4 2.8 0.00918677431254477
-2.4 3 0.00786676812762233
-2.4 3.2 0.0065467619426999
-2.4 3.4 0.00522675575777747
-2.4 3.6 0.00390674957285504
-2.4 3.8 0.00258674338793261
-2.4 4 0.00126673720301018
-2.4 4.2 0.000167108367104152
-2.4 4.4 8.77430430510505E-05
-2.4 4.6 5.29511187709803E-05
-2.4 4.8 2.39365449309124E-05
-2.2 -5 4.5483439998073E-10
-2.2 -4.8 3.26727005838336E-09
-2.2 -4.6 6.07970571678602E-09
-2.2 -4.4 6.17360795684621E-08
-2.2 -4.2 1.52161795268258E-07
-2.2 -4 2.42587510968054E-07
-2.2 -3.8 3.33013226667849E-07
-2.2 -3.6 3.18496828278968E-06
-2.2 -3.4 6.59394764102795E-06
-2.2 -3.2 1.00029269992662E-05
-2.2 -3 1.34119063575045E-05
-2.2 -2.8 2.77917757355963E-05
-2.2 -2.6 5.45178416702362E-05
-2.2 -2.4 0.000400031542277645
-2.2 -2.2 0.00127112539532731
-2.2 -2 0.00214221924837697
-2.2 -1.8 0.00301331310142663
-2.2 -1.6 0.00388440695447629
-2.2 -1.4 0.00475550080752595
-2.2 -1.2 0.00562659466057561
-2.2 -0.999999999999998 0.00649768851362527
-2.2 -0.799999999999998 0.00736878236667493
-2.2 -0.599999999999998 0.0082398762197246
-2.2 -0.399999999999998 0.00911097007277426
-2.2 -0.199999999999998 0.00998206392582392
-2.2 2.16493489801906E-15 0.0108531577788736
-2.2 0.200000000000002 0.0117242516319232
-2.2 0.400000000000002 0.0125953454849729
-2.2 0.600000000000002 0.0134664393380226
-2.2 0.800000000000002 0.0143375331910722
-2.2 1 0.0152086270441219
-2.2 1.2 0.0160797208971715
-2.2 1.4 0.0169508147502212
-2.2 1.6 0.0178219086032709
-2.2 1.8 0.0186930024563205
-2.2 2 0.0181284624428463
-2.2 2.2 0.0145565900460812
-2.2 2.4 0.0127365393047861
-2.2 2.6 0.011314994204809
-2.2 2.8 0.00989344910483193
-2.2 3 0.00847190400485483
-2.2 3.2 0.00705035890487775
-2.2 3.4 0.00562881380490065
-2.2 3.6 0.00420726870492356
-2.2 3.8 0.00278572360494646
-2.2 4 0.00136417850496938
-2.2 4.2 0.00017996285406499
-2.2 4.4 9.44925064223312E-05
-2.2 4.6 5.70242808609382E-05
-2.2 4.8 2.57778172144849E-05
-2 -5 4.87322564798234E-10
-2 -4.8 3.50064644364484E-09
-2 -4.6 6.51397032249147E-09
-2 -4.4 6.6145798640485E-08
-2 -4.2 1.63030492719051E-07
-2 -4 2.59915186797616E-07
-2 -3.8 3.56799880876182E-07
-2 -3.6 3.41246597099048E-06
-2 -3.4 7.06494380527768E-06
-2 -3.2 1.07174216395649E-05
-2 -3 1.43698994738521E-05
-2 -2.8 2.97769021699812E-05
-2 -2.6 5.84119724258533E-05
-2 -2.4 0.000428605218055621
-2 -2.2 0.00136192004795004
-2 -2 0.00229523487784445
-2 -1.8 0.00322854970773886
-2 -1.6 0.00416186453763328
-2 -1.4 0.00509517936752769
-2 -1.2 0.00602849419742211
-2 -0.999999999999998 0.00696180902731652
-2 -0.799999999999998 0.00789512385721094
-2 -0.599999999999998 0.00882843868710535
-2 -0.399999999999998 0.00976175351699977
-2 -0.199999999999998 0.0106950683468942
-2 2.16493489801906E-15 0.0116283831767886
-2 0.200000000000002 0.012561698006683
-2 0.400000000000002 0.0134950128365774
-2 0.600000000000002 0.0144283276664718
-2 0.800000000000002 0.0153616424963663
-2 1 0.0162949573262607
-2 1.2 0.0172282721561551
-2 1.4 0.0181615869860495
-2 1.6 0.0190949018159439
-2 1.8 0.0200282166458383
-2 2 0.0194233523538913
-2 2.2 0.0155963462664068
-2 2.4 0.0136462919271826
-2 2.6 0.0121232079121508
-2 2.8 0.0106001238971191
-2 3 0.00907703988208734
-2 3.2 0.00755395586705558
-2 3.4 0.00603087185202383
-2 3.6 0.00450778783699208
-2 3.8 0.00298470382196032
-2 4 0.00146161980692857
-2 4.2 0.000192817341025829
-2 4.4 0.000101241969793612
-2 4.6 6.10974429508959E-05
-2 4.8 2.76190894980574E-05
-1.8 -5 5.19810729615744E-10
-1.8 -4.8 3.73402282890632E-09
-1.8 -4.6 6.94823492819692E-09
-1.8 -4.4 7.05555177125081E-08
-1.8 -4.2 1.73899190169844E-07
-1.8 -4 2.7724286262718E-07
-1.8 -3.8 3.80586535084515E-07
-1.8 -3.6 3.63996365919129E-06
-1.8 -3.4 7.53593996952743E-06
-1.8 -3.2 1.14319162798636E-05
-1.8 -3 1.53278925901997E-05
-1.8 -2.8 3.17620286043662E-05
-1.8 -2.6 6.23061031814704E-05
-1.8 -2.4 0.000457178893833596
-1.8 -2.2 0.00145271470057276
-1.8 -2 0.00244825050731193
-1.8 -1.8 0.0034437863140511
-1.8 -1.6 0.00443932212079027
-1.8 -1.4 0.00543485792752943
-1.8 -1.2 0.0064303937342686
-1.8 -0.999999999999998 0.00742592954100777
-1.8 -0.799999999999998 0.00842146534774694
-1.8 -0.599999999999998 0.00941700115448611
-1.8 -0.399999999999998 0.0104125369612253
-1.8 -0.199999999999998 0.0114080727679644
-1.8 2.16493489801906E-15 0.0124036085747036
-1.8 0.200000000000002 0.0133991443814428
-1.8 0.400000000000002 0.0143946801881819
-1.8 0.600000000000002 0.0153902159949211
-1.8 0.800000000000002 0.0163857518016603
-1.8 1 0.0173812876083995
-1.8 1.2 0.0183768234151386
-1.8 1.4 0.0193723592218778
-1.8 1.6 0.020367895028617
-1.8 1.8 0.0213634308353561
-1.8 2 0.0207182422649363
-1.8 2.2 0.0166361024867324
-1.8 2.4 0.0145560445495791
-1.8 2.6 0.0129314216194927
-1.8 2.8 0.0113067986894062
-1.8 3 0.00968217575931983
-1.8 3.2 0.00805755282923342
-1.8 3.4 0.006432929899147
-1.8 3.6 0.00480830696906058
-1.8 3.8 0.00318368403897417
-1.8 4 0.00155906110888776
-1.8 4.2 0.000205671827986668
-1.8 4.4 0.000107991433164893
-1.8 4.6 6.51706050408537E-05
-1.8 4.8 2.946036178163E-05
-1.6 -5 5.52298894433268E-10
-1.6 -4.8 3.96739921416781E-09
-1.6 -4.6 7.38249953390239E-09
-1.6 -4.4 7.49652367845308E-08
-1.6 -4.2 1.84767887620637E-07
-1.6 -4 2.94570538456742E-07
-1.6 -3.8 4.04373189292848E-07
-1.6 -3.6 3.86746134739209E-06
-1.6 -3.4 8.00693613377717E-06
-1.6 -3.2 1.21464109201622E-05
-1.6 -3 1.62858857065473E-05
-1.6 -2.8 3.37471550387511E-05
-1.6 -2.6 6.62002339370875E-05
-1.6 -2.4 0.000485752569611571
-1.6 -2.2 0.00154350935319549
-1.6 -2 0.00260126613677941
-1.6 -1.8 0.00365902292036333
-1.6 -1.6 0.00471677970394726
-1.6 -1.4 0.00577453648753118
-1.6 -1.2 0.0068322932711151
-1.6 -0.999999999999998 0.00789005005469902
-1.6 -0.799999999999998 0.00894780683828294
-1.6 -0.599999999999998 0.0100055636218669
-1.6 -0.399999999999998 0.0110633204054508
-1.6 -0.199999999999998 0.0121210771890347
-1.6 2.16493489801906E-15 0.0131788339726186
-1.6 0.200000000000002 0.0142365907562025
-1.6 0.400000000000002 0.0152943475397865
-1.6 0.600000000000002 0.0163521043233704
-1.6 0.800000000000002 0.0174098611069543
-1.6 1 0.0184676178905382
-1.6 1.2 0.0195253746741222
-1.6 1.4 0.0205831314577061
-1.6 1.6 0.02164088824129
-1.6 1.8 0.0226986450248739
-1.6 2 0.0220131321759813
-1.6 2.2 0.017675858707058
-1.6 2.4 0.0154657971719756
-1.6 2.6 0.0137396353268345
-1.6 2.8 0.0120134734816934
-1.6 3 0.0102873116365523
-1.6 3.2 0.00856114979141126
-1.6 3.4 0.00683498794627018
-1.6 3.6 0.00510882610112911
-1.6 3.8 0.00338266425598803
-1.6 4 0.00165650241084696
-1.6 4.2 0.000218526314947506
-1.6 4.4 0.000114740896536174
-1.6 4.6 6.92437671308114E-05
-1.6 4.8 3.13016340652024E-05
-1.4 -5 5.84787059250772E-10
-1.4 -4.8 4.20077559942929E-09
-1.4 -4.6 7.81676413960784E-09
-1.4 -4.4 7.93749558565539E-08
-1.4 -4.2 1.9563658507143E-07
-1.4 -4 3.11898214286306E-07
-1.4 -3.8 4.28159843501181E-07
-1.4 -3.6 4.09495903559291E-06
-1.4 -3.4 8.47793229802691E-06
-1.4 -3.2 1.28609055604609E-05
-1.4 -3 1.72438788228949E-05
-1.4 -2.8 3.57322814731361E-05
-1.4 -2.6 7.00943646927046E-05
-1.4 -2.4 0.000514326245389546
-1.4 -2.2 0.00163430400581822
-1.4 -2 0.00275428176624689
-1.4 -1.8 0.00387425952667557
-1.4 -1.6 0.00499423728710424
-1.4 -1.4 0.00611421504753292
-1.4 -1.2 0.00723419280796159
-1.4 -0.999999999999998 0.00835417056839027
-1.4 -0.799999999999998 0.00947414832881894
-1.4 -0.599999999999998 0.0105941260892476
-1.4 -0.399999999999998 0.0117141038496763
-1.4 -0.199999999999998 0.012834081610105
-1.4 2.16493489801906E-15 0.0139540593705336
-1.4 0.200000000000002 0.0150740371309623
-1.4 0.400000000000002 0.016194014891391
-1.4 0.600000000000002 0.0173139926518197
-1.4 0.800000000000002 0.0184339704122483
-1.4 1 0.019553948172677
-1.4 1.2 0.0206739259331057
-1.4 1.4 0.0217939036935344
-1.4 1.6 0.022913881453963
-1.4 1.8 0.0240338592143917
-1.4 2 0.0233080220870263
-1.4 2.2 0.0187156149273836
-1.4 2.4 0.0163755497943721
-1.4 2.6 0.0145478490341763
-1.4 2.8 0.0127201482739806
-1.4 3 0.0108924475137848
-1.4 3.2 0.0090647467535891
-1.4 3.4 0.00723704599339335
-1.4 3.6 0.00540934523319762
-1.4 3.8 0.00358164447300188
-1.4 4 0.00175394371280615
-1.4 4.2 0.000231380801908344
-1.4 4.4 0.000121490359907455
-1.4 4.6 7.33169292207692E-05
-1.4 4.8 3.3142906348775E-05
-1.2 -5 6.17275224068289E-10
-1.2 -4.8 4.43415198469078E-09
-1.2 -4.6 8.2510287453133E-09
-1.2 -4.4 8.37846749285772E-08
-1.2 -4.2 2.06505282522223E-07
-1.2 -4 3.29225890115869E-07
-1.2 -3.8 4.51946497709514E-07
-1.2 -3.6 4.32245672379372E-06
-1.2 -3.4 8.94892846227666E-06
-1.2 -3.2 1.35754002007596E-05
-1.2 -3 1.82018719392425E-05
-1.2 -2.8 3.7717407907521E-05
-1.2 -2.6 7.39884954483217E-05
-1.2 -2.4 0.000542899921167522
-1.2 -2.2 0.00172509865844095
-1.2 -2 0.00290729739571438
-1.2 -1.8 0.0040894961329878
-1.2 -1.6 0.00527169487026123
-1.2 -1.4 0.00645389360753466
-1.2 -1.2 0.00763609234480809
-1.2 -0.999999999999998 0.00881829108208152
-1.2 -0.799999999999998 0.0100004898193549
-1.2 -0.599999999999998 0.0111826885566284
-1.2 -0.399999999999998 0.0123648872939018
-1.2 -0.199999999999998 0.0135470860311752
-1.2 2.16493489801906E-15 0.0147292847684487
-1.2 0.200000000000002 0.0159114835057221
-1.2 0.400000000000002 0.0170936822429955
-1.2 0.600000000000002 0.0182758809802689
-1.2 0.800000000000002 0.0194580797175424
-1.2 1 0.0206402784548158
-1.2 1.2 0.0218224771920892
-1.2 1.4 0.0230046759293627
-1.2 1.6 0.0241868746666361
-1.2 1.8 0.0253690734039095
-1.2 2 0.0246029119980713
-1.2 2.2 0.0197553711477093
-1.2 2.4 0.0172853024167685
-1.2 2.6 0.0153560627415181
-1.2 2.8 0.0134268230662677
-1.2 3 0.0114975833910173
-1.2 3.2 0.00956834371576694
-1.2 3.4 0.00763910404051654
-1.2 3.6 0.00570986436526614
-1.2 3.8 0.00378062469001574
-1.2 4 0.00185138501476535
-1.2 4.2 0.000244235288869183
-1.2 4.4 0.000128239823278736
-1.2 4.6 7.73900913107269E-05
-1.2 4.8 3.49841786323475E-05
-0.999999999999998 -5 8.73063613179724E-10
-0.999999999999998 -4.8 6.27158940160755E-09
-0.999999999999998 -4.6 1.16701151900354E-08
-0.999999999999998 -4.4 1.18503623942838E-07
-0.999999999999998 -4.2 2.92077571024582E-07
-0.999999999999998 -4 4.65651518106327E-07
-0.999999999999998 -3.8 6.39225465188071E-07
-0.999999999999998 -3.6 6.1136095179973E-06
-0.999999999999998 -3.4 1.26572127192595E-05
-0.999999999999998 -3.2 1.92008159205217E-05
-0.999999999999998 -3 2.57444191217838E-05
-0.999999999999998 -2.8 5.33468623776564E-05
-0.999999999999998 -2.6 0.000104648073745928
-0.999999999999998 -2.4 0.000767868445529896
-0.999999999999998 -2.2 0.00243995029948437
-0.999999999999998 -2 0.00411203215343885
-0.999999999999998 -1.8 0.00578411400739333
-0.999999999999998 -1.6 0.0074561958613478
-0.999999999999998 -1.4 0.00912827771530228
-0.999999999999998 -1.2 0.0108003595692568
-0.999999999999998 -0.999999999999998 0.0124724414232112
-0.999999999999998 -0.799999999999998 0.0141445232771657
-0.999999999999998 -0.599999999999998 0.0158166051311202
-0.999999999999998 -0.399999999999998 0.0174886869850747
-0.999999999999998 -0.199999999999998 0.0191607688390291
-0.999999999999998 2.16493489801906E-15 0.0208328506929836
-0.999999999999998 0.200000000000002 0.0225049325469381
-0.999999999999998 0.400000000000002 0.0241770144008926
-0.999999999999998 0.600000000000002 0.025849096254847
-0.999999999999998 0.800000000000002 0.0275211781088015
-0.999999999999998 1 0.029193259962756
-0.999999999999998 1.2 0.0308653418167105
-0.999999999999998 1.4 0.032537423670665
-0.999999999999998 1.6 0.0342095055246194
-0.999999999999998 1.8 0.0358815873785739
-0.999999999999998 2 0.0347979416737439
-0.999999999999998 2.2 0.0279416620680935
-0.999999999999998 2.4 0.0244480387264272
-0.999999999999998 2.6 0.0217193548332646
-0.999999999999998 2.8 0.0189906709401019
-0.999999999999998 3 0.0162619870469393
-0.999999999999998 3.2 0.0135333031537766
-0.999999999999998 3.4 0.010804619260614
-0.999999999999998 3.6 0.00807593536745133
-0.999999999999998 3.8 0.00534725147428869
-0.999999999999998 4 0.00261856758112605
-0.999999999999998 4.2 0.000345442252421417
-0.999999999999998 4.4 0.000181380232187733
-0.999999999999998 4.6 0.000109459233271553
-0.999999999999998 4.8 4.94810292231947E-05
-0.799999999999998 -5 1.32213263558114E-09
-0.799999999999998 -4.8 9.49744428659817E-09
-0.799999999999998 -4.6 1.76727559376153E-08
-0.799999999999998 -4.4 1.79457150984505E-07
-0.799999999999998 -4.2 4.42310597925925E-07
-0.799999999999998 -4 7.05164044867346E-07
-0.799999999999998 -3.8 9.68017491808765E-07
-0.799999999999998 -3.6 9.25820586601426E-06
-0.799999999999998 -3.4 1.91675769772136E-05
-0.799999999999998 -3.2 2.90769480884129E-05
-0.799999999999998 -3 3.89863191996123E-05
-0.799999999999998 -2.8 8.07863558744378E-05
-0.799999999999998 -2.6 0.00015847485963399
-0.799999999999998 -2.4 0.00116282927880891
-0.799999999999998 -2.2 0.00369496319792263
-0.799999999999998 -2 0.00622709711703636
-0.799999999999998 -1.8 0.00875923103615007
-0.799999999999998 -1.6 0.0112913649552638
-0.799999999999998 -1.4 0.0138234988743775
-0.799999999999998 -1.2 0.0163556327934912
-0.799999999999998 -0.999999999999998 0.018887766712605
-0.799999999999998 -0.799999999999998 0.0214199006317187
-0.799999999999998 -0.599999999999998 0.0239520345508324
-0.799999999999998 -0.399999999999998 0.0264841684699461
-0.799999999999998 -0.199999999999998 0.0290163023890598
-0.799999999999998 2.16493489801906E-15 0.0315484363081735
-0.799999999999998 0.200000000000002 0.0340805702272873
-0.799999999999998 0.400000000000002 0.036612704146401
-0.799999999999998 0.600000000000002 0.0391448380655147
-0.799999999999998 0.800000000000002 0.0416769719846284
-0.799999999999998 1 0.0442091059037421
-0.799999999999998 1.2 0.0467412398228559
-0.799999999999998 1.4 0.0492733737419696
-0.799999999999998 1.6 0.0518055076610833
-0.799999999999998 1.8 0.054337641580197
-0.799999999999998 2 0.0526966118429189
-0.799999999999998 2.2 0.0423137360839744
-0.799999999999998 2.4 0.0370231325509484
-0.799999999999998 2.6 0.0328909227407195
-0.799999999999998 2.8 0.0287587129304906
-0.799999999999998 3 0.0246265031202617
-0.799999999999998 3.2 0.0204942933100328
-0.799999999999998 3.4 0.0163620834998039
-0.799999999999998 3.6 0.012229873689575
-0.799999999999998 3.8 0.00809766387934611
-0.799999999999998 4 0.00396545406911723
-0.799999999999998 4.2 0.0005231239382107
-0.799999999999998 4.4 0.000274674973054151
-0.799999999999998 4.6 0.000165760687296249
-0.799999999999998 4.8 7.49320926797881E-05
-0.599999999999998 -5 1.77120165798256E-09
-0.599999999999998 -4.8 1.27232991715889E-08
-0.599999999999998 -4.6 2.36753966851952E-08
-0.599999999999998 -4.4 2.40410678026172E-07
-0.599999999999998 -4.2 5.92543624827267E-07
-0.599999999999998 -4 9.44676571628364E-07
-0.599999999999998 -3.8 1.29680951842946E-06
-0.599999999999998 -3.6 1.24028022140312E-05
-0.599999999999998 -3.4 2.56779412351677E-05
-0.599999999999998 -3.2 3.89530802563041E-05
-0.599999999999998 -3 5.22282192774406E-05
-0.599999999999998 -2.8 0.000108225849371219
-0.599999999999998 -2.6 0.000212301645522053
-0.599999999999998 -2.4 0.00155779011208792
-0.599999999999998 -2.2 0.00494997609636089
-0.599999999999998 -2 0.00834216208063386
-0.599999999999998 -1.8 0.0117343480649068
-0.599999999999998 -1.6 0.0151265340491798
-0.599999999999998 -1.4 0.0185187200334527
-0.599999999999998 -1.2 0.0219109060177257
-0.599999999999998 -0.999999999999998 0.0253030920019987
-0.599999999999998 -0.799999999999998 0.0286952779862716
-0.599999999999998 -0.599999999999998 0.0320874639705446
-0.599999999999998 -0.399999999999998 0.0354796499548176
-0.599999999999998 -0.199999999999998 0.0388718359390905
-0.599999999999998 2.16493489801906E-15 0.0422640219233635
-0.599999999999998 0.200000000000002 0.0456562079076364
-0.599999999999998 0.400000000000002 0.0490483938919094
-0.599999999999998 0.600000000000002 0.0524405798761824
-0.599999999999998 0.800000000000002 0.0558327658604553
-0.599999999999998 1 0.0592249518447283
-0.599999999999998 1.2 0.0626171378290013
-0.599999999999998 1.4 0.0660093238132742
-0.599999999999998 1.6 0.0694015097975472
-0.599999999999998 1.8 0.0727936957818202
-0.599999999999998 2 0.070595282012094
-0.599999999999998 2.2 0.0566858100998554
-0.599999999999998 2.4 0.0495982263754696
-0.599999999999998 2.6 0.0440624906481744
-0.599999999999998 2.8 0.0385267549208793
-0.599999999999998 3 0.0329910191935842
-0.599999999999998 3.2 0.027455283466289
-0.599999999999998 3.4 0.0219195477389938
-0.599999999999998 3.6 0.0163838120116987
-0.599999999999998 3.8 0.0108480762844035
-0.599999999999998 4 0.00531234055710841
-0.599999999999998 4.2 0.000700805623999987
-0.599999999999998 4.4 0.000367969713920571
-0.599999999999998 4.6 0.000222062141320944
-0.599999999999998 4.8 0.000100383156136381
-0.399999999999998 -5 2.30082720877975E-09
-0.399999999999998 -4.8 1.65278260595027E-08
-0.399999999999998 -4.6 3.07548249102256E-08
-0.399999999999998 -4.4 3.12298391767475E-07
-0.399999999999998 -4.2 7.69726297537758E-07
-0.399999999999998 -4 1.22715420330804E-06
-0.399999999999998 -3.8 1.68458210907832E-06
-0.399999999999998 -3.6 1.61114939513225E-05
-0.399999999999998 -3.4 3.33561712711015E-05
-0.399999999999998 -3.2 5.06008485908805E-05
-0.399999999999998 -3 6.78455259106595E-05
-0.399999999999998 -2.8 0.000140587593628523
-0.399999999999998 -2.6 0.000275784183175542
-0.399999999999998 -2.4 0.00202360124230157
-0.399999999999998 -2.2 0.00643012027116643
-0.399999999999998 -2 0.0108366393000313
-0.399999999999998 -1.8 0.0152431583288961
-0.399999999999998 -1.6 0.019649677357761
-0.399999999999998 -1.4 0.0240561963866258
-0.399999999999998 -1.2 0.0284627154154907
-0.399999999999998 -0.999999999999998 0.0328692344443555
-0.399999999999998 -0.799999999999998 0.0372757534732204
-0.399999999999998 -0.599999999999998 0.0416822725020852
-0.399999999999998 -0.399999999999998 0.0460887915309501
-0.399999999999998 -0.199999999999998 0.0504953105598149
-0.399999999999998 2.16493489801906E-15 0.0549018295886798
-0.399999999999998 0.200000000000002 0.0593083486175446
-0.399999999999998 0.400000000000002 0.0637148676464094
-0.399999999999998 0.600000000000002 0.0681213866752743
-0.399999999999998 0.800000000000002 0.0725279057041392
-0.399999999999998 1 0.076934424733004
-0.399999999999998 1.2 0.0813409437618688
-0.399999999999998 1.4 0.0857474627907337
-0.399999999999998 1.6 0.0901539818195985
-0.399999999999998 1.8 0.0945605008484634
-0.399999999999998 2 0.0917047163618431
-0.399999999999998 2.2 0.0736360276322429
-0.399999999999998 2.4 0.064429111297179
-0.399999999999998 2.6 0.0572380772754046
-0.399999999999998 2.8 0.0500470432536302
-0.399999999999998 3 0.0428560092318559
-0.399999999999998 3.2 0.0356649752100815
-0.399999999999998 3.4 0.0284739411883071
-0.399999999999998 3.6 0.0212829071665328
-0.399999999999998 3.8 0.0140918731447584
-0.399999999999998 4 0.00690083912298403
-0.399999999999998 4.2 0.000910360850498396
-0.399999999999998 4.4 0.000478000190424258
-0.399999999999998 4.6 0.00028846326700773
-0.399999999999998 4.8 0.000130399774582901
-0.199999999999998 -5 2.98294196573938E-09
-0.199999999999998 -4.8 2.14277481451896E-08
-0.199999999999998 -4.6 3.98725543246396E-08
-0.199999999999998 -4.4 4.04883936995072E-07
-0.199999999999998 -4.2 9.97923210529274E-07
-0.199999999999998 -4 1.59096248406347E-06
-0.199999999999998 -3.8 2.18400175759767E-06
-0.199999999999998 -3.6 2.08879881352086E-05
-0.199999999999998 -3.4 4.32451088553189E-05
-0.199999999999998 -3.2 6.56022295754293E-05
-0.199999999999998 -3 8.79593502955396E-05
-0.199999999999998 -2.8 0.000182266895704545
-0.199999999999998 -2.6 0.000357544543259198
-0.199999999999998 -2.4 0.00262352820087917
-0.199999999999998 -2.2 0.00833642592908424
-0.199999999999998 -2 0.0140493236572893
-0.199999999999998 -1.8 0.0197622213854944
-0.199999999999998 -1.6 0.0254751191136994
-0.199999999999998 -1.4 0.0311880168419045
-0.199999999999998 -1.2 0.0369009145701095
-0.199999999999998 -0.999999999999998 0.0426138122983146
-0.199999999999998 -0.799999999999998 0.0483267100265197
-0.199999999999998 -0.599999999999998 0.0540396077547247
-0.199999999999998 -0.399999999999998 0.0597525054829298
-0.199999999999998 -0.199999999999998 0.0654654032111348
-0.199999999999998 2.16493489801906E-15 0.0711783009393399
-0.199999999999998 0.200000000000002 0.076891198667545
-0.199999999999998 0.400000000000002 0.08260409639575
-0.199999999999998 0.600000000000002 0.0883169941239551
-0.199999999999998 0.800000000000002 0.0940298918521601
-0.199999999999998 1 0.0997427895803652
-0.199999999999998 1.2 0.10545568730857
-0.199999999999998 1.4 0.111168585036775
-0.199999999999998 1.6 0.11688148276498
-0.199999999999998 1.8 0.122594380493185
-0.199999999999998 2 0.118891955835766
-0.199999999999998 2.2 0.0954665331565933
-0.199999999999998 2.4 0.0835300882961905
-0.199999999999998 2.6 0.0742071643153033
-0.199999999999998 2.8 0.064884240334416
-0.199999999999998 3 0.0555613163535288
-0.199999999999998 3.2 0.0462383923726415
-0.199999999999998 3.4 0.0369154683917543
-0.199999999999998 3.6 0.027592544410867
-0.199999999999998 3.8 0.0182696204299798
-0.199999999999998 4 0.00894669644909255
-0.199999999999998 4.2 0.00118025098736471
-0.199999999999998 4.4 0.000619710520723608
-0.199999999999998 4.6 0.00037398253178169
-0.199999999999998 4.8 0.000169058744803609
2.16493489801906E-15 -5 3.66505672269906E-09
2.16493489801906E-15 -4.8 2.63276702308764E-08
2.16493489801906E-15 -4.6 4.89902837390537E-08
2.16493489801906E-15 -4.4 4.9746948222267E-07
2.16493489801906E-15 -4.2 1.22612012352079E-06
2.16493489801906E-15 -4 1.95477076481891E-06
2.16493489801906E-15 -3.8 2.68342140611703E-06
2.16493489801906E-15 -3.6 2.56644823190948E-05
2.16493489801906E-15 -3.4 5.31340464395364E-05
2.16493489801906E-15 -3.2 8.06036105599781E-05
2.16493489801906E-15 -3 0.00010807317468042
2.16493489801906E-15 -2.8 0.000223946197780568
2.16493489801906E-15 -2.6 0.000439304903342853
2.16493489801906E-15 -2.4 0.00322345515945678
2.16493489801906E-15 -2.2 0.0102427315870021
2.16493489801906E-15 -2 0.0172620080145473
2.16493489801906E-15 -1.8 0.0242812844420926
2.16493489801906E-15 -1.6 0.0313005608696379
2.16493489801906E-15 -1.4 0.0383198372971831
2.16493489801906E-15 -1.2 0.0453391137247284
2.16493489801906E-15 -0.999999999999998 0.0523583901522737
2.16493489801906E-15 -0.799999999999998 0.059377666579819
2.16493489801906E-15 -0.599999999999998 0.0663969430073642
2.16493489801906E-15 -0.399999999999998 0.0734162194349095
2.16493489801906E-15 -0.199999999999998 0.0804354958624548
2.16493489801906E-15 2.16493489801906E-15 0.08745477229
2.16493489801906E-15 0.200000000000002 0.0944740487175453
2.16493489801906E-15 0.400000000000002 0.101493325145091
2.16493489801906E-15 0.600000000000002 0.108512601572636
2.16493489801906E-15 0.800000000000002 0.115531878000181
2.16493489801906E-15 1 0.122551154427726
2.16493489801906E-15 1.2 0.129570430855272
2.16493489801906E-15 1.4 0.136589707282817
2.16493489801906E-15 1.6 0.143608983710362
2.16493489801906E-15 1.8 0.150628260137907
2.16493489801906E-15 2 0.146079195309689
2.16493489801906E-15 2.2 0.117297038680944
2.16493489801906E-15 2.4 0.102631065295202
2.16493489801906E-15 2.6 0.091176251355202
2.16493489801906E-15 2.8 0.0797214374152019
2.16493489801906E-15 3 0.0682666234752017
2.16493489801906E-15 3.2 0.0568118095352016
2.16493489801906E-15 3.4 0.0453569955952015
2.16493489801906E-15 3.6 0.0339021816552013
2.16493489801906E-15 3.8 0.0224473677152012
2.16493489801906E-15 4 0.0109925537752011
2.16493489801906E-15 4.2 0.00145014112423102
2.16493489801906E-15 4.4 0.000761420851022958
2.16493489801906E-15 4.6 0.000459501796555651
2.16493489801906E-15 4.8 0.000207717715024317
0.200000000000002 -5 4.34717147965873E-09
0.200000000000002 -4.8 3.12275923165633E-08
0.200000000000002 -4.6 5.81080131534678E-08
0.200000000000002 -4.4 5.90055027450268E-07
0.200000000000002 -4.2 1.45431703651231E-06
0.200000000000002 -4 2.31857904557434E-06
0.200000000000002 -3.8 3.18284105463638E-06
0.200000000000002 -3.6 3.04409765029809E-05
0.200000000000002 -3.4 6.30229840237538E-05
0.200000000000002 -3.2 9.56049915445269E-05
0.200000000000002 -3 0.0001281869990653
0.200000000000002 -2.8 0.00026562549985659
0.200000000000002 -2.6 0.000521065263426507
0.200000000000002 -2.4 0.00382338211803437
0.200000000000002 -2.2 0.0121490372449199
0.200000000000002 -2 0.0204746923718053
0.200000000000002 -1.8 0.0288003474986908
0.200000000000002 -1.6 0.0371260026255763
0.200000000000002 -1.4 0.0454516577524618
0.200000000000002 -1.2 0.0537773128793473
0.200000000000002 -0.999999999999998 0.0621029680062327
0.200000000000002 -0.799999999999998 0.0704286231331182
0.200000000000002 -0.599999999999998 0.0787542782600037
0.200000000000002 -0.399999999999998 0.0870799333868892
0.200000000000002 -0.199999999999998 0.0954055885137747
0.200000000000002 2.16493489801906E-15 0.10373124364066
0.200000000000002 0.200000000000002 0.112056898767546
0.200000000000002 0.400000000000002 0.120382553894431
0.200000000000002 0.600000000000002 0.128708209021317
0.200000000000002 0.800000000000002 0.137033864148202
0.200000000000002 1 0.145359519275088
0.200000000000002 1.2 0.153685174401973
0.200000000000002 1.4 0.162010829528859
0.200000000000002 1.6 0.170336484655744
0.200000000000002 1.8 0.178662139782629
0.200000000000002 2 0.173266434783612
0.200000000000002 2.2 0.139127544205294
0.200000000000002 2.4 0.121732042294214
0.200000000000002 2.6 0.108145338395101
0.200000000000002 2.8 0.0945586344959877
0.200000000000002 3 0.0809719305968747
0.200000000000002 3.2 0.0673852266977616
0.200000000000002 3.4 0.0537985227986487
0.200000000000002 3.6 0.0402118188995356
0.200000000000002 3.8 0.0266251150004226
0.200000000000002 4 0.0130384111013096
0.200000000000002 4.2 0.00172003126109733
0.200000000000002 4.4 0.000903131181322308
0.200000000000002 4.6 0.00054502106132961
0.200000000000002 4.8 0.000246376685245024
0.400000000000002 -5 5.02928623661833E-09
0.400000000000002 -4.8 3.61275144022501E-08
0.400000000000002 -4.6 6.72257425678818E-08
0.400000000000002 -4.4 6.82640572677863E-07
0.400000000000002 -4.2 1.68251394950382E-06
0.400000000000002 -4 2.68238732632978E-06
0.400000000000002 -3.8 3.68226070315573E-06
0.400000000000002 -3.6 3.5217470686867E-05
0.400000000000002 -3.4 7.29119216079713E-05
0.400000000000002 -3.2 0.000110606372529076
0.400000000000002 -3 0.00014830082345018
0.400000000000002 -2.8 0.000307304801932613
0.400000000000002 -2.6 0.000602825623510163
0.400000000000002 -2.4 0.00442330907661197
0.400000000000002 -2.2 0.0140553429028377
0.400000000000002 -2 0.0236873767290634
0.400000000000002 -1.8 0.0333194105552891
0.400000000000002 -1.6 0.0429514443815148
0.400000000000002 -1.4 0.0525834782077404
0.400000000000002 -1.2 0.0622155120339661
0.400000000000002 -0.999999999999998 0.0718475458601918
0.400000000000002 -0.799999999999998 0.0814795796864175
0.400000000000002 -0.599999999999998 0.0911116135126432
0.400000000000002 -0.399999999999998 0.100743647338869
0.400000000000002 -0.199999999999998 0.110375681165095
0.400000000000002 2.16493489801906E-15 0.12000771499132
0.400000000000002 0.200000000000002 0.129639748817546
0.400000000000002 0.400000000000002 0.139271782643772
0.400000000000002 0.600000000000002 0.148903816469997
0.400000000000002 0.800000000000002 0.158535850296223
0.400000000000002 1 0.168167884122449
0.400000000000002 1.2 0.177799917948674
0.400000000000002 1.4 0.1874319517749
0.400000000000002 1.6 0.197063985601126
0.400000000000002 1.8 0.206696019427352
0.400000000000002 2 0.200453674257535
0.400000000000002 2.2 0.160958049729645
0.400000000000002 2.4 0.140833019293225
0.400000000000002 2.6 0.125114425434999
0.400000000000002 2.8 0.109395831576774
0.400000000000002 3 0.0936772377185476
0.400000000000002 3.2 0.0779586438603217
0.400000000000002 3.4 0.0622400500020959
0.400000000000002 3.6 0.04652145614387
0.400000000000002 3.8 0.0308028622856441
0.400000000000002 4 0.0150842684274182
0.400000000000002 4.2 0.00198992139796364
0.400000000000002 4.4 0.00104484151162166
0.400000000000002 4.6 0.000630540326103571
0.400000000000002 4.8 0.000285035655465731
0.600000000000002 -5 5.21566956221379E-09
0.600000000000002 -4.8 3.7466385558708E-08
0.600000000000002 -4.6 6.97171015552021E-08
0.600000000000002 -4.4 7.07938957803673E-07
0.600000000000002 -4.2 1.74486723991419E-06
0.600000000000002 -4 2.78179552202472E-06
0.600000000000002 -3.8 3.81872380413523E-06
0.600000000000002 -3.6 3.65226159891709E-05
0.600000000000002 -3.4 7.56140081040383E-05
0.600000000000002 -3.2 0.000114705400218906
0.600000000000002 -3 0.000153796792333773
0.600000000000002 -2.8 0.000318693394321433
0.600000000000002 -2.6 0.00062516609871432
0.600000000000002 -2.4 0.00458723513232767
0.600000000000002 -2.2 0.0145762282590015
0.600000000000002 -2 0.0245652213856754
0.600000000000002 -1.8 0.0345542145123492
0.600000000000002 -1.6 0.044543207639023
0.600000000000002 -1.4 0.0545322007656968
0.600000000000002 -1.2 0.0645211938923707
0.600000000000002 -0.999999999999998 0.0745101870190445
0.600000000000002 -0.799999999999998 0.0844991801457184
0.600000000000002 -0.599999999999998 0.0944881732723922
0.600000000000002 -0.399999999999998 0.104477166399066
0.600000000000002 -0.199999999999998 0.11446615952574
0.600000000000002 2.16493489801906E-15 0.124455152652414
0.600000000000002 0.200000000000002 0.134444145779088
0.600000000000002 0.400000000000002 0.144433138905761
0.600000000000002 0.600000000000002 0.154422132032435
0.600000000000002 0.800000000000002 0.164411125159109
0.600000000000002 1 0.174400118285783
0.600000000000002 1.2 0.184389111412457
0.600000000000002 1.4 0.194378104539131
0.600000000000002 1.6 0.204367097665804
0.600000000000002 1.8 0.214356090792478
0.600000000000002 2 0.207882406820788
0.600000000000002 2.2 0.166923090329539
0.600000000000002 2.4 0.146052234357652
0.600000000000002 2.6 0.129751115731668
0.600000000000002 2.8 0.113449997105684
0.600000000000002 3 0.0971488784797003
0.600000000000002 3.2 0.0808477598537162
0.600000000000002 3.4 0.0645466412277322
0.600000000000002 3.6 0.0482455226017481
0.600000000000002 3.8 0.0319444039757641
0.600000000000002 4 0.0156432853497801
0.600000000000002 4.2 0.00206366708480187
0.600000000000002 4.4 0.00108356291789954
0.600000000000002 4.6 0.000653907897041437
0.600000000000002 4.8 0.00029559896224117
0.800000000000002 -5 5.01171492190292E-09
0.800000000000002 -4.8 3.60012921322119E-08
0.800000000000002 -4.6 6.69908693425208E-08
0.800000000000002 -4.4 6.80255563796706E-07
0.800000000000002 -4.2 1.67663558411967E-06
0.800000000000002 -4 2.67301560444264E-06
0.800000000000002 -3.8 3.6693956247656E-06
0.800000000000002 -3.6 3.50944279265586E-05
0.800000000000002 -3.4 7.26571820165402E-05
0.800000000000002 -3.2 0.000110219936106522
0.800000000000002 -3 0.000147782690196503
0.800000000000002 -2.8 0.000306231140753994
0.800000000000002 -2.6 0.000600719472010516
0.800000000000002 -2.4 0.00440785492423061
0.800000000000002 -2.2 0.0140062363612801
0.800000000000002 -2 0.0236046177983296
0.800000000000002 -1.8 0.0332029992353791
0.800000000000002 -1.6 0.0428013806724286
0.800000000000002 -1.4 0.052399762109478
0.800000000000002 -1.2 0.0619981435465275
0.800000000000002 -0.999999999999998 0.071596524983577
0.800000000000002 -0.799999999999998 0.0811949064206265
0.800000000000002 -0.599999999999998 0.090793287857676
0.800000000000002 -0.399999999999998 0.100391669294725
0.800000000000002 -0.199999999999998 0.109990050731775
0.800000000000002 2.16493489801906E-15 0.119588432168824
0.800000000000002 0.200000000000002 0.129186813605874
0.800000000000002 0.400000000000002 0.138785195042923
0.800000000000002 0.600000000000002 0.148383576479973
0.800000000000002 0.800000000000002 0.157981957917022
0.800000000000002 1 0.167580339354072
0.800000000000002 1.2 0.177178720791121
0.800000000000002 1.4 0.186777102228171
0.800000000000002 1.6 0.19637548366522
0.800000000000002 1.8 0.20597386510227
0.800000000000002 2 0.199753329431135
0.800000000000002 2.2 0.160395694672731
0.800000000000002 2.4 0.14034097704549
0.800000000000002 2.6 0.124677300793178
0.800000000000002 2.8 0.109013624540867
0.800000000000002 3 0.0933499482885548
0.800000000000002 3.2 0.0776862720362429
0.800000000000002 3.4 0.0620225957839312
0.800000000000002 3.6 0.0463589195316193
0.800000000000002 3.8 0.0306952432793075
0.800000000000002 4 0.0150315670269958
0.800000000000002 4.2 0.00198296901277456
0.800000000000002 4.4 0.00104119104549883
0.800000000000002 4.6 0.000628337345006517
0.800000000000002 4.8 0.000284039798206518
1 -5 4.80776028159211E-09
1 -4.8 3.45361987057159E-08
1 -4.6 6.42646371298396E-08
1 -4.4 6.52572169789741E-07
1 -4.2 1.60840392832515E-06
1 -4 2.56423568686056E-06
1 -3.8 3.52006744539596E-06
1 -3.6 3.36662398639464E-05
1 -3.4 6.97003559290422E-05
1 -3.2 0.000105734471994138
1 -3 0.000141768588059234
1 -2.8 0.000293768887186555
1 -2.6 0.000576272845306711
1 -2.4 0.00422847471613356
1 -2.2 0.0134362444635587
1 -2 0.0226440142109838
1 -1.8 0.0318517839584089
1 -1.6 0.0410595537058341
1 -1.4 0.0502673234532592
1 -1.2 0.0594750932006843
1 -0.999999999999998 0.0686828629481095
1 -0.799999999999998 0.0778906326955346
1 -0.599999999999998 0.0870984024429597
1 -0.399999999999998 0.0963061721903848
1 -0.199999999999998 0.10551394193781
1 2.16493489801906E-15 0.114721711685235
1 0.200000000000002 0.12392948143266
1 0.400000000000002 0.133137251180085
1 0.600000000000002 0.142345020927511
1 0.800000000000002 0.151552790674936
1 1 0.160760560422361
1 1.2 0.169968330169786
1 1.4 0.179176099917211
1 1.6 0.188383869664636
1 1.8 0.197591639412061
1 2 0.191624252041482
1 2.2 0.153868299015922
1 2.4 0.134629719733328
1 2.6 0.119603485854688
1 2.8 0.104577251976049
1 3 0.0895510180974091
1 3.2 0.0745247842187695
1 3.4 0.05949855034013
1 3.6 0.0444723164614904
1 3.8 0.0294460825828508
1 4 0.0144198487042113
1 4.2 0.00190227094074725
1 4.4 0.000998819173098111
1 4.6 0.000602766792971599
1 4.8 0.000272480634171867
1.2 -5 4.6038056412813E-09
1.2 -4.8 3.30711052792199E-08
1.2 -4.6 6.15384049171584E-08
1.2 -4.4 6.24888775782776E-07
1.2 -4.2 1.54017227253063E-06
1.2 -4 2.45545576927848E-06
1.2 -3.8 3.37073926602633E-06
1.2 -3.6 3.22380518013341E-05
1.2 -3.4 6.67435298415441E-05
1.2 -3.2 0.000101249007881754
1.2 -3 0.000135754485921964
1.2 -2.8 0.000281306633619115
1.2 -2.6 0.000551826218602906
1.2 -2.4 0.00404909450803652
1.2 -2.2 0.0128662525658373
1.2 -2 0.0216834106236381
1.2 -1.8 0.0305005686814388
1.2 -1.6 0.0393177267392396
1.2 -1.4 0.0481348847970404
1.2 -1.2 0.0569520428548412
1.2 -0.999999999999998 0.0657692009126419
1.2 -0.799999999999998 0.0745863589704427
1.2 -0.599999999999998 0.0834035170282435
1.2 -0.399999999999998 0.0922206750860443
1.2 -0.199999999999998 0.101037833143845
1.2 2.16493489801906E-15 0.109854991201646
1.2 0.200000000000002 0.118672149259447
1.2 0.400000000000002 0.127489307317247
1.2 0.600000000000002 0.136306465375048
1.2 0.800000000000002 0.145123623432849
1.2 1 0.15394078149065
1.2 1.2 0.16275793954845
1.2 1.4 0.171575097606251
1.2 1.6 0.180392255664052
1.2 1.8 0.189209413721853
1.2 2 0.183495174651828
1.2 2.2 0.147340903359114
1.2 2.4 0.128918462421166
1.2 2.6 0.114529670916198
1.2 2.8 0.100140879411231
1.2 3 0.0857520879062636
1.2 3.2 0.0713632964012962
1.2 3.4 0.056974504896329
1.2 3.6 0.0425857133913616
1.2 3.8 0.0281969218863943
1.2 4 0.013808130381427
1.2 4.2 0.00182157286871994
1.2 4.4 0.000956447300697398
1.2 4.6 0.000577196240936678
1.2 4.8 0.000260921470137215
1.4 -5 4.39985100097038E-09
1.4 -4.8 3.16060118527238E-08
1.4 -4.6 5.88121727044771E-08
1.4 -4.4 5.97205381775808E-07
1.4 -4.2 1.4719406167361E-06
1.4 -4 2.3466758516964E-06
1.4 -3.8 3.2214110866567E-06
1.4 -3.6 3.08098637387218E-05
1.4 -3.4 6.3786703754046E-05
1.4 -3.2 9.67635437693702E-05
1.4 -3 0.000129740383784694
1.4 -2.8 0.000268844380051676
1.4 -2.6 0.000527379591899101
1.4 -2.4 0.00386971429993947
1.4 -2.2 0.0122962606681159
1.4 -2 0.0207228070362923
1.4 -1.8 0.0291493534044687
1.4 -1.6 0.0375758997726452
1.4 -1.4 0.0460024461408216
1.4 -1.2 0.054428992508998
1.4 -0.999999999999998 0.0628555388771744
1.4 -0.799999999999998 0.0712820852453508
1.4 -0.599999999999998 0.0797086316135272
1.4 -0.399999999999998 0.0881351779817037
1.4 -0.199999999999998 0.0965617243498801
1.4 2.16493489801906E-15 0.104988270718057
1.4 0.200000000000002 0.113414817086233
1.4 0.400000000000002 0.121841363454409
1.4 0.600000000000002 0.130267909822586
1.4 0.800000000000002 0.138694456190762
1.4 1 0.147121002558939
1.4 1.2 0.155547548927115
1.4 1.4 0.163974095295291
1.4 1.6 0.172400641663468
1.4 1.8 0.180827188031644
1.4 2 0.175366097262175
1.4 2.2 0.140813507702305
1.4 2.4 0.123207205109003
1.4 2.6 0.109455855977708
1.4 2.8 0.0957045068464131
1.4 3 0.081953157715118
1.4 3.2 0.0682018085838229
1.4 3.4 0.0544504594525279
1.4 3.6 0.0406991103212328
1.4 3.8 0.0269477611899377
1.4 4 0.0131964120586426
1.4 4.2 0.00174087479669263
1.4 4.4 0.000914075428296682
1.4 4.6 0.000551625688901758
1.4 4.8 0.000249362306102562
1.6 -5 4.19589636065957E-09
1.6 -4.8 3.01409184262278E-08
1.6 -4.6 5.60859404917959E-08
1.6 -4.4 5.6952198776884E-07
1.6 -4.2 1.40370896094158E-06
1.6 -4 2.23789593411432E-06
1.6 -3.8 3.07208290728706E-06
1.6 -3.6 2.93816756761096E-05
1.6 -3.4 6.08298776665479E-05
1.6 -3.2 9.22780796569864E-05
1.6 -3 0.000123726281647425
1.6 -2.8 0.000256382126484237
1.6 -2.6 0.000502932965195296
1.6 -2.4 0.00369033409184242
1.6 -2.2 0.0117262687703945
1.6 -2 0.0197622034489466
1.6 -1.8 0.0277981381274986
1.6 -1.6 0.0358340728060507
1.6 -1.4 0.0438700074846027
1.6 -1.2 0.0519059421631548
1.6 -0.999999999999998 0.0599418768417069
1.6 -0.799999999999998 0.0679778115202589
1.6 -0.599999999999998 0.076013746198811
1.6 -0.399999999999998 0.0840496808773631
1.6 -0.199999999999998 0.0920856155559151
1.6 2.16493489801906E-15 0.100121550234467
1.6 0.200000000000002 0.108157484913019
1.6 0.400000000000002 0.116193419591571
1.6 0.600000000000002 0.124229354270123
1.6 0.800000000000002 0.132265288948675
1.6 1 0.140301223627228
1.6 1.2 0.14833715830578
1.6 1.4 0.156373092984332
1.6 1.6 0.164409027662884
1.6 1.8 0.172444962341436
1.6 2 0.167237019872522
1.6 2.2 0.134286112045497
1.6 2.4 0.117495947796841
1.6 2.6 0.104382041039218
1.6 2.8 0.0912681342815953
1.6 3 0.0781542275239724
1.6 3.2 0.0650403207663496
1.6 3.4 0.0519264140087268
1.6 3.6 0.0388125072511039
1.6 3.8 0.025698600493481
1.6 4 0.0125846937358582
1.6 4.2 0.00166017672466533
1.6 4.4 0.00087170355589597
1.6 4.6 0.00052605513686684
1.6 4.8 0.000237803142067912
1.8 -5 3.99194172034866E-09
1.8 -4.8 2.86758249997317E-08
1.8 -4.6 5.33597082791146E-08
1.8 -4.4 5.41838593761876E-07
1.8 -4.2 1.33547730514706E-06
1.8 -4 2.12911601653225E-06
1.8 -3.8 2.92275472791743E-06
1.8 -3.6 2.79534876134972E-05
1.8 -3.4 5.78730515790498E-05
1.8 -3.2 8.77926155446025E-05
1.8 -3 0.000117712179510155
1.8 -2.8 0.000243919872916798
1.8 -2.6 0.000478486338491492
1.8 -2.4 0.00351095388374537
1.8 -2.2 0.0111562768726731
1.8 -2 0.0188015998616008
1.8 -1.8 0.0264469228505285
1.8 -1.6 0.0340922458394562
1.8 -1.4 0.0417375688283839
1.8 -1.2 0.0493828918173116
1.8 -0.999999999999998 0.0570282148062393
1.8 -0.799999999999998 0.0646735377951671
1.8 -0.599999999999998 0.0723188607840948
1.8 -0.399999999999998 0.0799641837730225
1.8 -0.199999999999998 0.0876095067619502
1.8 2.16493489801906E-15 0.0952548297508779
1.8 0.200000000000002 0.102900152739806
1.8 0.400000000000002 0.110545475728733
1.8 0.600000000000002 0.118190798717661
1.8 0.800000000000002 0.125836121706589
1.8 1 0.133481444695516
1.8 1.2 0.141126767684444
1.8 1.4 0.148772090673372
1.8 1.6 0.1564174136623
1.8 1.8 0.164062736651227
1.8 2 0.159107942482869
1.8 2.2 0.127758716388689
1.8 2.4 0.111784690484679
1.8 2.6 0.0993082261007281
1.8 2.8 0.0868317617167775
1.8 3 0.0743552973328269
1.8 3.2 0.0618788329488762
1.8 3.4 0.0494023685649257
1.8 3.6 0.036925904180975
1.8 3.8 0.0244494397970244
1.8 4 0.0119729754130738
1.8 4.2 0.00157947865263802
1.8 4.4 0.000829331683495253
1.8 4.6 0.00050048458483192
1.8 4.8 0.000226243978033259
2 -5 3.69155666673937E-09
2 -4.8 2.65180306647289E-08
2 -4.6 4.93445046627181E-08
2 -4.4 5.01066401571559E-07
2 -4.2 1.2349855019087E-06
2 -4 1.96890460224583E-06
2 -3.8 2.70282370258298E-06
2 -3.6 2.58500476177339E-05
2 -3.4 5.35182285583439E-05
2 -3.2 8.1186409498954E-05
2 -3 0.000108854590439564
2 -2.8 0.000225565425573808
2 -2.6 0.000442481267649319
2 -2.4 0.00324676213334693
2 -2.2 0.0103167909629984
2 -2 0.0173868197926499
2 -1.8 0.0244568486223014
2 -1.6 0.0315268774519528
2 -1.4 0.0385969062816043
2 -1.2 0.0456669351112558
2 -0.999999999999998 0.0527369639409072
2 -0.799999999999998 0.0598069927705587
2 -0.599999999999998 0.0668770216002102
2 -0.399999999999998 0.0739470504298616
2 -0.199999999999998 0.0810170792595131
2 2.16493489801906E-15 0.0880871080891646
2 0.200000000000002 0.0951571369188161
2 0.400000000000002 0.102227165748468
2 0.600000000000002 0.109297194578119
2 0.800000000000002 0.11636722340777
2 1 0.123437252237422
2 1.2 0.130507281067073
2 1.4 0.137577309896725
2 1.6 0.144647338726376
2 1.8 0.151717367556028
2 2 0.147135411023125
2 2.2 0.11814514696311
2 2.4 0.103373132251564
2 2.6 0.0918354950563274
2 2.8 0.0802978578610907
2 3 0.068760220665854
2 3.2 0.0572225834706174
2 3.4 0.0456849462753807
2 3.6 0.0341473090801439
2 3.8 0.0226096718849073
2 4 0.0110720346896706
2 4.2 0.0014606262712696
2 4.4 0.00076692625284068
2 4.6 0.000462824193128568
2 4.8 0.000209219603873722
2.2 -5 2.98778406546756E-09
2.2 -4.8 2.14625310188275E-08
2.2 -4.6 3.99372779721872E-08
2.2 -4.4 4.05541170164101E-07
2.2 -4.2 9.99543102488839E-07
2.2 -4 1.59354503481358E-06
2.2 -3.8 2.18754696713832E-06
2.2 -3.6 2.09218948363204E-05
2.2 -3.4 4.3315307046308E-05
2.2 -3.2 6.57087192562957E-05
2.2 -3 8.81021314662837E-05
2.2 -2.8 0.000182562762837138
2.2 -2.6 0.000358124932135515
2.2 -2.4 0.00262778687749229
2.2 -2.2 0.00834995814197556
2.2 -2 0.0140721294064588
2.2 -1.8 0.0197943006709421
2.2 -1.6 0.0255164719354253
2.2 -1.4 0.0312386431999086
2.2 -1.2 0.0369608144643918
2.2 -0.999999999999998 0.0426829857288751
2.2 -0.799999999999998 0.0484051569933583
2.2 -0.599999999999998 0.0541273282578416
2.2 -0.399999999999998 0.0598494995223249
2.2 -0.199999999999998 0.0655716707868081
2.2 2.16493489801906E-15 0.0712938420512914
2.2 0.200000000000002 0.0770160133157746
2.2 0.400000000000002 0.0827381845802579
2.2 0.600000000000002 0.0884603558447411
2.2 0.800000000000002 0.0941825271092244
2.2 1 0.0999046983737076
2.2 1.2 0.105626869638191
2.2 1.4 0.111349040902674
2.2 1.6 0.117071212167157
2.2 1.8 0.122793383431641
2.2 2 0.119084948764765
2.2 2.2 0.0956215004605274
2.2 2.4 0.0836656796092143
2.2 2.6 0.0743276220695152
2.2 2.8 0.0649895645298161
2.2 3 0.0556515069901171
2.2 3.2 0.046313449450418
2.2 3.4 0.036975391910719
2.2 3.6 0.0276373343710199
2.2 3.8 0.0182992768313209
2.2 4 0.00896121929162186
2.2 4.2 0.00118216684528288
2.2 4.4 0.000620716473966505
2.2 4.6 0.000374589603838786
2.2 4.8 0.000169333171631748
2.4 -5 2.28401146419553E-09
2.4 -4.8 1.64070313729257E-08
2.4 -4.6 3.05300512816558E-08
2.4 -4.4 3.10015938756657E-07
2.4 -4.2 7.64100703068993E-07
2.4 -4 1.21818546738133E-06
2.4 -3.8 1.67227023169367E-06
2.4 -3.6 1.59937420549068E-05
2.4 -3.4 3.31123855342721E-05
2.4 -3.2 5.02310290136374E-05
2.4 -3 6.7349672493003E-05
2.4 -2.8 0.000139560100100466
2.4 -2.6 0.000273768596621708
2.4 -2.4 0.00200881162163763
2.4 -2.2 0.0063831253209527
2.4 -2 0.0107574390202677
2.4 -1.8 0.0151317527195828
2.4 -1.6 0.0195060664188978
2.4 -1.4 0.0238803801182129
2.4 -1.2 0.0282546938175279
2.4 -0.999999999999998 0.0326290075168429
2.4 -0.799999999999998 0.037003321216158
2.4 -0.599999999999998 0.041377634915473
2.4 -0.399999999999998 0.0457519486147881
2.4 -0.199999999999998 0.0501262623141031
2.4 2.16493489801906E-15 0.0545005760134181
2.4 0.200000000000002 0.0588748897127332
2.4 0.400000000000002 0.0632492034120482
2.4 0.600000000000002 0.0676235171113633
2.4 0.800000000000002 0.0719978308106783
2.4 1 0.0763721445099934
2.4 1.2 0.0807464582093084
2.4 1.4 0.0851207719086234
2.4 1.6 0.0894950856079385
2.4 1.8 0.0938693993072535
2.4 2 0.0910344865064061
2.4 2.2 0.0730978539579452
2.4 2.4 0.0639582269668645
2.4 2.6 0.056819749082703
2.4 2.8 0.0496812711985417
2.4 3 0.0425427933143802
2.4 3.2 0.0354043154302189
2.4 3.4 0.0282658375460574
2.4 3.6 0.0211273596618959
2.4 3.8 0.0139888817777346
2.4 4 0.00685040389357316
2.4 4.2 0.000903707419296171
2.4 4.4 0.000474506695092327
2.4 4.6 0.000286355014549001
2.4 4.8 0.000129446739389772
2.6 -5 1.71787048360769E-09
2.6 -4.8 1.234019853272E-08
2.6 -4.6 2.29625265818323E-08
2.6 -4.4 2.33171872815292E-07
2.6 -4.2 5.74702038445655E-07
2.6 -4 9.16232204076015E-07
2.6 -3.8 1.25776236970637E-06
2.6 -3.6 1.20293517914738E-05
2.6 -3.4 2.49047741847546E-05
2.6 -3.2 3.77801965780354E-05
2.6 -3 5.06556189713163E-05
2.6 -2.8 0.000104967151176902
2.6 -2.6 0.000205909207921122
2.6 -2.4 0.00151088479459777
2.6 -2.2 0.0048009314987823
2.6 -2 0.00809097820296686
2.6 -1.8 0.0113810249071514
2.6 -1.6 0.0146710716113359
2.6 -1.4 0.0179611183155205
2.6 -1.2 0.021251165019705
2.6 -0.999999999999998 0.0245412117238896
2.6 -0.799999999999998 0.0278312584280741
2.6 -0.599999999999998 0.0311213051322586
2.6 -0.399999999999998 0.0344113518364432
2.6 -0.199999999999998 0.0377013985406277
2.6 2.16493489801906E-15 0.0409914452448122
2.6 0.200000000000002 0.0442814919489968
2.6 0.400000000000002 0.0475715386531813
2.6 0.600000000000002 0.0508615853573659
2.6 0.800000000000002 0.0541516320615504
2.6 1 0.057441678765735
2.6 1.2 0.0607317254699195
2.6 1.4 0.064021772174104
2.6 1.6 0.0673118188782886
2.6 1.8 0.0706018655824731
2.6 2 0.0684696464143443
2.6 2.2 0.0549789909980504
2.6 2.4 0.0481048155898757
2.6 2.6 0.0427357617793643
2.6 2.8 0.0373667079688529
2.6 3 0.0319976541583415
2.6 3.2 0.0266286003478302
2.6 3.4 0.0212595465373189
2.6 3.6 0.0158904927268075
2.6 3.8 0.0105214389162961
2.6 4 0.00515238510578481
2.6 4.2 0.000679704250947585
2.6 4.4 0.000356890085076975
2.6 4.6 0.000215375813579895
2.6 4.8 9.73606027303061E-05
2.8 -5 1.25511127067022E-09
2.8 -4.8 9.01600115289131E-09
2.8 -4.6 1.67768910351123E-08
2.8 -4.4 1.70360133878746E-07
2.8 -4.2 4.19889050200952E-07
2.8 -4 6.69417966523161E-07
2.8 -3.8 9.18946882845366E-07
2.8 -3.6 8.78889017327301E-06
2.8 -3.4 1.81959368130806E-05
2.8 -3.2 2.76029834528882E-05
2.8 -3 3.70100300926959E-05
2.8 -2.8 7.66911450830673E-05
2.8 -2.6 0.000150441473942687
2.8 -2.4 0.00110388329765203
2.8 -2.2 0.00350765863395175
2.8 -2 0.00591143397025144
2.8 -1.8 0.00831520930655115
2.8 -1.6 0.0107189846428508
2.8 -1.4 0.0131227599791505
2.8 -1.2 0.0155265353154502
2.8 -0.999999999999998 0.0179303106517499
2.8 -0.799999999999998 0.0203340859880496
2.8 -0.599999999999998 0.0227378613243493
2.8 -0.399999999999998 0.025141636660649
2.8 -0.199999999999998 0.0275454119969487
2.8 2.16493489801906E-15 0.0299491873332484
2.8 0.200000000000002 0.0323529626695481
2.8 0.400000000000002 0.0347567380058478
2.8 0.600000000000002 0.0371605133421475
2.8 0.800000000000002 0.0395642886784472
2.8 1 0.0419680640147469
2.8 1.2 0.0443718393510466
2.8 1.4 0.0467756146873463
2.8 1.6 0.049179390023646
2.8 1.8 0.0515831653599457
2.8 2 0.0500253224754016
2.8 2.2 0.0401687740200377
2.8 2.4 0.0351463610304125
2.8 2.6 0.0312236206290199
2.8 2.8 0.0273008802276273
2.8 3 0.0233781398262348
2.8 3.2 0.0194553994248422
2.8 3.4 0.0155326590234497
2.8 3.6 0.0116099186220571
2.8 3.8 0.00768717822066456
2.8 4 0.00376443781927199
2.8 4.2 0.000496605811804381
2.8 4.4 0.000260751187266355
2.8 4.6 0.000157357969435629
2.8 4.8 7.1133645389518E-05
3 -5 9.26474400714946E-10
3 -4.8 6.65526193586912E-09
3 -4.6 1.23840494710231E-08
3 -4.4 1.2575323529425E-07
3 -4.2 3.09945791454838E-07
3 -4 4.9413834761543E-07
3 -3.8 6.78330903776018E-07
3 -3.6 6.4876174300356E-06
3 -3.4 1.34315339590148E-05
3 -3.2 2.0375450487994E-05
3 -3 2.73193670169733E-05
3 -2.8 5.66104251801137E-05
3 -2.6 0.000111050054023757
3 -2.4 0.000814843783615654
3 -2.2 0.00258921739191166
3 -2 0.00436359100020765
3 -1.8 0.00613796460850363
3 -1.6 0.00791233821679962
3 -1.4 0.00968671182509562
3 -1.2 0.0114610854333916
3 -0.999999999999998 0.0132354590416876
3 -0.799999999999998 0.0150098326499836
3 -0.599999999999998 0.0167842062582796
3 -0.399999999999998 0.0185585798665756
3 -0.199999999999998 0.0203329534748716
3 2.16493489801906E-15 0.0221073270831675
3 0.200000000000002 0.0238817006914635
3 0.400000000000002 0.0256560742997595
3 0.600000000000002 0.0274304479080555
3 0.800000000000002 0.0292048215163515
3 1 0.0309791951246475
3 1.2 0.0327535687329435
3 1.4 0.0345279423412395
3 1.6 0.0363023159495355
3 1.8 0.0380766895578314
3 2 0.0369267504356247
3 2.2 0.0296510291217474
3 2.4 0.0259436788863996
3 2.6 0.023048064252487
3 2.8 0.0201524496185745
3 3 0.017256834984662
3 3.2 0.0143612203507495
3 3.4 0.011465605716837
3 3.6 0.0085699910829245
3 3.8 0.00567437644901198
3 4 0.00277876181509945
3 4.2 0.000366575125755532
3 4.4 0.000192476400781058
3 4.6 0.000116155542410815
3 4.8 5.25080947187621E-05
3.2 -5 5.97837530759878E-10
3.2 -4.8 4.29452271884694E-09
3.2 -4.6 7.99120790693389E-09
3.2 -4.4 8.11463367097529E-08
3.2 -4.2 2.00002532708724E-07
3.2 -4 3.18858728707699E-07
3.2 -3.8 4.37714924706667E-07
3.2 -3.6 4.18634468679819E-06
3.2 -3.4 8.66713110494902E-06
3.2 -3.2 1.31479175230998E-05
3.2 -3 1.76287039412508E-05
3.2 -2.8 3.65297052771583E-05
3.2 -2.6 7.16586341048247E-05
3.2 -2.4 0.000525804269579294
3.2 -2.2 0.00167077614987159
3.2 -2 0.00281574803016386
3.2 -1.8 0.00396071991045614
3.2 -1.6 0.00510569179074842
3.2 -1.4 0.00625066367104071
3.2 -1.2 0.00739563555133299
3.2 -0.999999999999998 0.00854060743162527
3.2 -0.799999999999998 0.00968557931191755
3.2 -0.599999999999998 0.0108305511922098
3.2 -0.399999999999998 0.0119755230725021
3.2 -0.199999999999998 0.0131204949527944
3.2 2.16493489801906E-15 0.0142654668330867
3.2 0.200000000000002 0.015410438713379
3.2 0.400000000000002 0.0165554105936712
3.2 0.600000000000002 0.0177003824739635
3.2 0.800000000000002 0.0188453543542558
3.2 1 0.0199903262345481
3.2 1.2 0.0211352981148404
3.2 1.4 0.0222802699951326
3.2 1.6 0.0234252418754249
3.2 1.8 0.0245702137557172
3.2 2 0.0238281783958477
3.2 2.2 0.019133284223457
3.2 2.4 0.0167409967423866
3.2 2.6 0.0148725078759541
3.2 2.8 0.0130040190095216
3.2 3 0.0111355301430892
3.2 3.2 0.00926704127665673
3.2 3.4 0.0073985524102243
3.2 3.6 0.00553006354379182
3.2 3.8 0.00366157467735934
3.2 4 0.00179308581092685
3.2 4.2 0.000236544439706686
3.2 4.4 0.000124201614295768
3.2 4.6 7.49531153860002E-05
3.2 4.8 3.38825440480053E-05
3.4 -5 3.48680264892457E-10
3.4 -4.8 2.50471949676597E-09
3.4 -4.6 4.66075872863954E-09
3.4 -4.4 4.73274505583842E-08
3.4 -4.2 1.16648641973563E-07
3.4 -4 1.85969833388744E-07
3.4 -3.8 2.55291024803923E-07
3.4 -3.6 2.44162619310095E-06
3.4 -3.4 5.05498135201798E-06
3.4 -3.2 7.66833651093512E-06
3.4 -3 1.02816916698521E-05
3.4 -2.8 2.13054327590926E-05
3.4 -2.6 4.179388251138E-05
3.4 -2.4 0.000306667886449549
3.4 -2.2 0.000974456504549234
3.4 -2 0.00164224512264892
3.4 -1.8 0.00231003374074859
3.4 -1.6 0.00297782235884827
3.4 -1.4 0.00364561097694795
3.4 -1.2 0.00431339959504763
3.4 -0.999999999999998 0.00498118821314731
3.4 -0.799999999999998 0.00564897683124699
3.4 -0.599999999999998 0.00631676544934667
3.4 -0.399999999999998 0.00698455406744635
3.4 -0.199999999999998 0.00765234268554603
3.4 2.16493489801906E-15 0.00832013130364571
3.4 0.200000000000002 0.00898791992174539
3.4 0.400000000000002 0.00965570853984507
3.4 0.600000000000002 0.0103234971579447
3.4 0.800000000000002 0.0109912857760444
3.4 1 0.0116590743941441
3.4 1.2 0.0123268630122438
3.4 1.4 0.0129946516303435
3.4 1.6 0.0136624402484431
3.4 1.8 0.0143302288665428
3.4 2 0.013897447261967
3.4 2.2 0.0111592167905735
3.4 2.4 0.00976394903022075
3.4 2.6 0.00867417938650594
3.4 2.8 0.00758440974279118
3.4 3 0.00649464009907635
3.4 3.2 0.00540487045536156
3.4 3.4 0.00431510081164677
3.4 3.6 0.00322533116793194
3.4 3.8 0.00213556152421718
3.4 4 0.00104579188050238
3.4 4.2 0.000137961191213322
3.4 4.4 7.24388308603555E-05
3.4 4.6 4.37153420161764E-05
3.4 4.8 1.97615134982544E-05
3.6 -5 2.243594148766E-10
3.6 -4.8 1.61166965069904E-09
3.6 -4.6 2.99897988652143E-09
3.6 -4.4 3.04529971553226E-08
3.6 -4.2 7.50579361508492E-08
3.6 -4 1.19662875146375E-07
3.6 -3.8 1.64267814141902E-07
3.6 -3.6 1.57107206569601E-06
3.6 -3.4 3.25264367543633E-06
3.6 -3.2 4.93421528517665E-06
3.6 -3 6.61578689491697E-06
3.6 -2.8 1.3709047826385E-05
3.6 -2.6 2.68924053633353E-05
3.6 -2.4 0.000197326417617959
3.6 -2.2 0.000627017107638628
3.6 -2 0.0010567077976593
3.6 -1.8 0.00148639848767997
3.6 -1.6 0.00191608917770063
3.6 -1.4 0.00234577986772131
3.6 -1.2 0.00277547055774197
3.6 -0.999999999999998 0.00320516124776264
3.6 -0.799999999999998 0.00363485193778331
3.6 -0.599999999999998 0.00406454262780398
3.6 -0.399999999999998 0.00449423331782465
3.6 -0.199999999999998 0.00492392400784532
3.6 2.16493489801906E-15 0.00535361469786599
3.6 0.200000000000002 0.00578330538788665
3.6 0.400000000000002 0.00621299607790732
3.6 0.600000000000002 0.00664268676792799
3.6 0.800000000000002 0.00707237745794866
3.6 1 0.00750206814796933
3.6 1.2 0.00793175883799
3.6 1.4 0.00836144952801066
3.6 1.6 0.00879114021803133
3.6 1.8 0.00922083090805201
3.6 2 0.00894235622121461
3.6 2.2 0.00718043319827227
3.6 2.4 0.00628264376242467
3.6 2.6 0.00558142805212411
3.6 2.8 0.00488021234182358
3.6 3 0.00417899663152303
3.6 3.2 0.00347778092122249
3.6 3.4 0.00277656521092194
3.6 3.6 0.0020753495006214
3.6 3.8 0.00137413379032085
3.6 4 0.000672918080020304
3.6 4.2 8.87715630991607E-05
3.6 4.4 4.66109939178715E-05
3.6 4.6 2.81287745347828E-05
3.6 4.8 1.27156081142586E-05
3.8 -5 1.37684190859144E-10
3.8 -4.8 9.89044439747515E-10
3.8 -4.6 1.84040468863581E-09
3.8 -4.4 1.8688300978461E-08
3.8 -4.2 4.60613217955165E-08
3.8 -4 7.34343426125711E-08
3.8 -3.8 1.00807363429627E-07
3.8 -3.6 9.64130639517378E-07
3.8 -3.4 1.99607229699631E-06
3.8 -3.2 3.02801395447524E-06
3.8 -3 4.05995561195417E-06
3.8 -2.8 8.41292601187673E-06
3.8 -2.6 1.65032480350458E-05
3.8 -2.4 0.00012109466482519
3.8 -2.2 0.000384785916684324
3.8 -2 0.000648477168543451
3.8 -1.8 0.000912168420402586
3.8 -1.6 0.00117585967226172
3.8 -1.4 0.00143955092412085
3.8 -1.2 0.00170324217597998
3.8 -0.999999999999998 0.00196693342783911
3.8 -0.799999999999998 0.00223062467969824
3.8 -0.599999999999998 0.00249431593155737
3.8 -0.399999999999998 0.0027580071834165
3.8 -0.199999999999998 0.00302169843527563
3.8 2.16493489801906E-15 0.00328538968713476
3.8 0.200000000000002 0.00354908093899389
3.8 0.400000000000002 0.00381277219085302
3.8 0.600000000000002 0.00407646344271215
3.8 0.800000000000002 0.00434015469457128
3.8 1 0.00460384594643042
3.8 1.2 0.00486753719828955
3.8 1.4 0.00513122845014868
3.8 1.6 0.0053949197020078
3.8 1.8 0.00565861095386693
3.8 2 0.00548771747051108
3.8 2.2 0.00440646600663427
3.8 2.4 0.00385551336618216
3.8 2.6 0.00342519348081637
3.8 2.8 0.00299487359545057
3.8 3 0.00256455371008479
3.8 3.2 0.002134233824719
3.8 3.4 0.00170391393935321
3.8 3.6 0.00127359405398743
3.8 3.8 0.000843274168621636
3.8 4 0.000412954283255856
3.8 4.2 5.44770579087618E-05
3.8 4.4 2.86040903888568E-05
3.8 4.6 1.72619792390273E-05
3.8 4.8 7.80327500611621E-06
4 -5 7.92184546928781E-11
4 -4.8 5.69060047130127E-10
4 -4.6 1.05890163956739E-09
4 -4.4 1.07525658182791E-08
4 -4.2 2.65020022341239E-08
4 -4 4.22514386499684E-08
4 -3.8 5.80008750658128E-08
4 -3.6 5.54725556420332E-07
4 -3.4 1.14846709587072E-06
4 -3.2 1.74220863532111E-06
4 -3 2.33595017477151E-06
4 -2.8 4.84049035657429E-06
4 -2.6 9.49536616071716E-06
4 -2.4 6.96734473227744E-05
4 -2.2 0.000221391762678831
4 -2 0.000373110078034887
4 -1.8 0.000524828393390943
4 -1.6 0.000676546708747
4 -1.4 0.000828265024103055
4 -1.2 0.000979983339459112
4 -0.999999999999998 0.00113170165481517
4 -0.799999999999998 0.00128341997017122
4 -0.599999999999998 0.00143513828552728
4 -0.399999999999998 0.00158685660088334
4 -0.199999999999998 0.00173857491623939
4 2.16493489801906E-15 0.00189029323159545
4 0.200000000000002 0.0020420115469515
4 0.400000000000002 0.00219372986230756
4 0.600000000000002 0.00234544817766362
4 0.800000000000002 0.00249716649301967
4 1 0.00264888480837573
4 1.2 0.00280060312373179
4 1.4 0.00295232143908784
4 1.6 0.0031040397544439
4 1.8 0.00325575806979995
4 2 0.00315743220112862
4 2.2 0.00253531960005037
4 2.4 0.00221832157352875
4 2.6 0.00197073122833677
4 2.8 0.00172314088314479
4 3 0.0014755505379528
4 3.2 0.00122796019276082
4 3.4 0.000980369847568836
4 3.6 0.000732779502376851
4 3.8 0.00048518915718487
4 4 0.000237598811992885
4 4.2 3.13441094203786E-05
4 4.4 1.64577488843218E-05
4 4.6 9.93191238386456E-06
4 4.8 4.48971943453158E-06
4.2 -5 6.3782410079821E-11
4.2 -4.8 4.58176335638155E-10
4.2 -4.6 8.52570261196489E-10
4.2 -4.4 8.65738375092913E-09
4.2 -4.2 2.13379771290261E-08
4.2 -4 3.40185705071231E-08
4.2 -3.8 4.66991638852197E-08
4.2 -3.6 4.46634979923983E-07
4.2 -3.4 9.24683516688202E-07
4.2 -3.2 1.40273205345243E-06
4.2 -3 1.88078059021665E-06
4.2 -2.8 3.89730072503211E-06
4.2 -2.6 7.64515466337968E-06
4.2 -2.4 5.60972870026965E-05
4.2 -2.2 0.000178252659058076
4.2 -2 0.000300408031113454
4.2 -1.8 0.000422563403168833
4.2 -1.6 0.000544718775224213
4.2 -1.4 0.000666874147279591
4.2 -1.2 0.00078902951933497
4.2 -0.999999999999998 0.000911184891390348
4.2 -0.799999999999998 0.00103334026344573
4.2 -0.599999999999998 0.00115549563550111
4.2 -0.399999999999998 0.00127765100755648
4.2 -0.199999999999998 0.00139980637961186
4.2 2.16493489801906E-15 0.00152196175166724
4.2 0.200000000000002 0.00164411712372262
4.2 0.400000000000002 0.001766272495778
4.2 0.600000000000002 0.00188842786783338
4.2 0.800000000000002 0.00201058323988876
4.2 1 0.00213273861194414
4.2 1.2 0.00225489398399952
4.2 1.4 0.00237704935605489
4.2 1.6 0.00249920472811027
4.2 1.8 0.00262136010016565
4.2 2 0.00254219343500708
4.2 2.2 0.00204130205569861
4.2 2.4 0.0017860724100247
4.2 2.6 0.0015867260709669
4.2 2.8 0.0013873797319091
4.2 3 0.0011880333928513
4.2 3.2 0.000988687053793503
4.2 3.4 0.000789340714735704
4.2 3.6 0.000589994375677905
4.2 3.8 0.000390648036620107
4.2 4 0.000191301697562308
4.2 4.2 2.5236579637766E-05
4.2 4.4 1.32508882229564E-05
4.2 4.6 7.99663804350282E-06
4.2 4.8 3.61487897266959E-06
4.4 -5 4.83463654667706E-11
4.4 -4.8 3.47292624146177E-10
4.4 -4.6 6.46238882825589E-10
4.4 -4.4 6.56220168357895E-09
4.4 -4.2 1.61739520239282E-08
4.4 -4 2.57857023642776E-08
4.4 -3.8 3.53974527046266E-08
4.4 -3.6 3.38544403427621E-07
4.4 -3.4 7.00899937505677E-07
4.4 -3.2 1.06325547158374E-06
4.4 -3 1.4256110056618E-06
4.4 -2.8 2.95411109348988E-06
4.4 -2.6 5.79494316604217E-06
4.4 -2.4 4.25211266826195E-05
4.4 -2.2 0.000135113555437321
4.4 -2 0.000227705984192022
4.4 -1.8 0.000320298412946724
4.4 -1.6 0.000412890841701426
4.4 -1.4 0.000505483270456126
4.4 -1.2 0.000598075699210828
4.4 -0.999999999999998 0.000690668127965529
4.4 -0.799999999999998 0.00078326055672023
4.4 -0.599999999999998 0.000875852985474932
4.4 -0.399999999999998 0.000968445414229633
4.4 -0.199999999999998 0.00106103784298433
4.4 2.16493489801906E-15 0.00115363027173904
4.4 0.200000000000002 0.00124622270049374
4.4 0.400000000000002 0.00133881512924844
4.4 0.600000000000002 0.00143140755800314
4.4 0.800000000000002 0.00152399998675784
4.4 1 0.00161659241551254
4.4 1.2 0.00170918484426724
4.4 1.4 0.00180177727302195
4.4 1.6 0.00189436970177665
4.4 1.8 0.00198696213053135
4.4 2 0.00192695466888555
4.4 2.2 0.00154728451134686
4.4 2.4 0.00135382324652064
4.4 2.6 0.00120272091359703
4.4 2.8 0.00105161858067341
4.4 3 0.000900516247749797
4.4 3.2 0.000749413914826184
4.4 3.4 0.000598311581902572
4.4 3.6 0.000447209248978956
4.4 3.8 0.000296106916055344
4.4 4 0.000145004583131728
4.4 4.2 1.91290498551538E-05
4.4 4.4 1.00440275615909E-05
4.4 4.6 6.06136370314109E-06
4.4 4.8 2.74003851080771E-06
4.6 -5 3.29103208537267E-11
4.6 -4.8 2.36408912654218E-10
4.6 -4.6 4.3990750445471E-10
4.6 -4.4 4.46701961622899E-09
4.6 -4.2 1.10099269188306E-08
4.6 -4 1.75528342214323E-08
4.6 -3.8 2.40957415240335E-08
4.6 -3.6 2.30453826931272E-07
4.6 -3.4 4.77116358323159E-07
4.6 -3.2 7.23778889715061E-07
4.6 -3 9.70441421106948E-07
4.6 -2.8 2.0109214619477E-06
4.6 -2.6 3.94473166870466E-06
4.6 -2.4 2.89449663625433E-05
4.6 -2.2 9.19744518165667E-05
4.6 -2 0.00015500393727059
4.6 -1.8 0.000218033422724614
4.6 -1.6 0.000281062908178639
4.6 -1.4 0.000344092393632662
4.6 -1.2 0.000407121879086686
4.6 -0.999999999999998 0.00047015136454071
4.6 -0.799999999999998 0.000533180849994734
4.6 -0.599999999999998 0.000596210335448758
4.6 -0.399999999999998 0.000659239820902782
4.6 -0.199999999999998 0.000722269306356806
4.6 2.16493489801906E-15 0.00078529879181083
4.6 0.200000000000002 0.000848328277264853
4.6 0.400000000000002 0.000911357762718877
4.6 0.600000000000002 0.000974387248172902
4.6 0.800000000000002 0.00103741673362693
4.6 1 0.00110044621908095
4.6 1.2 0.00116347570453497
4.6 1.4 0.001226505189989
4.6 1.6 0.00128953467544302
4.6 1.8 0.00135256416089704
4.6 2 0.00131171590276402
4.6 2.2 0.0010532669669951
4.6 2.4 0.000921574083016583
4.6 2.6 0.000818715756227155
4.6 2.8 0.000715857429437724
4.6 3 0.000612999102648292
4.6 3.2 0.000510140775858866
4.6 3.4 0.000407282449069436
4.6 3.6 0.000304424122280007
4.6 3.8 0.00020156579549058
4.6 4 9.87074687011508E-05
4.6 4.2 1.30215200725415E-05
4.6 4.4 6.83716690022497E-06
4.6 4.6 4.12608936277946E-06
4.6 4.8 1.86519804894582E-06
4.8 -5 1.74742762406763E-11
4.8 -4.8 1.2552520116224E-10
4.8 -4.6 2.3357612608381E-10
4.8 -4.4 2.37183754887881E-09
4.8 -4.2 5.84590181373288E-09
4.8 -4 9.31996607858673E-09
4.8 -3.8 1.27940303434406E-08
4.8 -3.6 1.22363250434923E-07
4.8 -3.4 2.53332779140642E-07
4.8 -3.2 3.84302307846374E-07
4.8 -3 5.15271836552099E-07
4.8 -2.8 1.06773183040546E-06
4.8 -2.6 2.09452017136715E-06
4.8 -2.4 1.53688060424637E-05
4.8 -2.2 4.88353481958104E-05
4.8 -2 8.23018903491563E-05
4.8 -1.8 0.000115768432502503
4.8 -1.6 0.00014923497465585
4.8 -1.4 0.000182701516809196
4.8 -1.2 0.000216168058962542
4.8 -0.999999999999998 0.000249634601115889
4.8 -0.799999999999998 0.000283101143269235
4.8 -0.599999999999998 0.000316567685422582
4.8 -0.399999999999998 0.000350034227575929
4.8 -0.199999999999998 0.000383500769729275
4.8 2.16493489801906E-15 0.000416967311882621
4.8 0.200000000000002 0.000450433854035968
4.8 0.400000000000002 0.000483900396189314
4.8 0.600000000000002 0.000517366938342661
4.8 0.800000000000002 0.000550833480496008
4.8 1 0.000584300022649354
4.8 1.2 0.0006177665648027
4.8 1.4 0.000651233106956048
4.8 1.6 0.000684699649109393
4.8 1.8 0.00071816619126274
4.8 2 0.000696477136642483
4.8 2.2 0.000559249422643342
4.8 2.4 0.000489324919512528
4.8 2.6 0.000434710598857285
4.8 2.8 0.000380096278202038
4.8 3 0.000325481957546794
4.8 3.2 0.000270867636891551
4.8 3.4 0.000216253316236304
4.8 3.6 0.000161638995581061
4.8 3.8 0.000107024674925817
4.8 4 5.24103542705739E-05
4.8 4.2 6.91399028992872E-06
4.8 4.4 3.63030623885948E-06
4.8 4.6 2.19081502241772E-06
4.8 4.8 9.90357587083942E-07
