-5 -5 9.25355727340555E-17
-5 -4.09090909090909 1.43128849318651E-14
-5 -3.18181818181818 9.68778702691537E-13
-5 -2.27272727272727 2.8694649645862E-11
-5 -1.36363636363636 3.71925718533202E-10
-5 -0.454545454545454 2.1095529733534E-09
-5 0.454545454545454 5.23604777932314E-09
-5 1.36363636363636 5.68716340656447E-09
-5 2.27272727272727 2.70312888501981E-09
-5 3.18181818181818 5.62233527794032E-10
-5 4.09090909090909 5.11735644101279E-11
-5 5 2.03823162762952E-12
-4.09090909090909 -5 1.43128849318651E-14
-4.09090909090909 -4.09090909090909 2.21383700365229E-12
-4.09090909090909 -3.18181818181818 1.49845272324796E-10
-4.09090909090909 -2.27272727272727 4.43832794682921E-09
-4.09090909090909 -1.36363636363636 5.75273903352395E-08
-4.09090909090909 -0.454545454545454 3.26293857304554E-07
-4.09090909090909 0.454545454545454 8.09882590542595E-07
-4.09090909090909 1.36363636363636 8.79658633127084E-07
-4.09090909090909 2.27272727272727 4.18104860046439E-07
-4.09090909090909 3.18181818181818 8.69631380710197E-08
-4.09090909090909 4.09090909090909 7.91524078054351E-09
-4.09090909090909 5 3.15262270376731E-10
-3.18181818181818 -5 9.68778702691537E-13
-3.18181818181818 -4.09090909090909 1.49845272324796E-10
-3.18181818181818 -3.18181818181818 1.01423933203073E-08
-3.18181818181818 -2.27272727272727 3.00411664798349E-07
-3.18181818181818 -1.36363636363636 3.89378597281441E-06
-3.18181818181818 -0.454545454545454 2.20854524633233E-05
-3.18181818181818 0.454545454545454 5.48175304373161E-05
-3.18181818181818 1.36363636363636 5.9540375924843E-05
-3.18181818181818 2.27272727272727 2.82997512963331E-05
-3.18181818181818 3.18181818181818 5.88616735783744E-06
-3.18181818181818 4.09090909090909 5.35749202999209E-07
-3.18181818181818 5 2.13387709575724E-08
-2.27272727272727 -5 2.8694649645862E-11
-2.27272727272727 -4.09090909090909 4.43832794682921E-09
-2.27272727272727 -3.18181818181818 3.00411664798349E-07
-2.27272727272727 -2.27272727272727 8.8980150440647E-06
-2.27272727272727 -1.36363636363636 0.000115331627311235
-2.27272727272727 -0.454545454545454 0.000654157981533567
-2.27272727272727 0.454545454545454 0.00162366268579193
-2.27272727272727 1.36363636363636 0.00176355056340486
-2.27272727272727 2.27272727272727 0.000838221821203546
-2.27272727272727 3.18181818181818 0.000174344780310301
-2.27272727272727 4.09090909090909 1.58685731172674E-05
-2.27272727272727 5 6.32041718918542E-07
-1.36363636363636 -5 3.71925718533202E-10
-1.36363636363636 -4.09090909090909 5.75273903352395E-08
-1.36363636363636 -3.18181818181818 3.89378597281441E-06
-1.36363636363636 -2.27272727272727 0.000115331627311235
-1.36363636363636 -1.36363636363636 0.00149487095631851
-1.36363636363636 -0.454545454545454 0.00847886906858215
-1.36363636363636 0.454545454545454 0.0210451048722178
-1.36363636363636 1.36363636363636 0.0228582616814969
-1.36363636363636 2.27272727272727 0.0108646126364639
-1.36363636363636 3.18181818181818 0.00225976997418307
-1.36363636363636 4.09090909090909 0.000205680519942763
-1.36363636363636 5 8.19220911748048E-06
-0.454545454545454 -5 2.1095529733534E-09
-0.454545454545454 -4.09090909090909 3.26293857304554E-07
-0.454545454545454 -3.18181818181818 2.20854524633233E-05
-0.454545454545454 -2.27272727272727 0.000654157981533567
-0.454545454545454 -1.36363636363636 0.00847886906858215
-0.454545454545454 -0.454545454545454 0.0480919241746518
-0.454545454545454 0.454545454545454 0.119367285846241
-0.454545454545454 1.36363636363636 0.129651463969914
-0.454545454545454 2.27272727272727 0.0616237994564482
-0.454545454545454 3.18181818181818 0.0128173563445225
-0.454545454545454 4.09090909090909 0.00116661454367102
-0.454545454545454 5 4.64659964099015E-05
0.454545454545454 -5 5.23604777932314E-09
0.454545454545454 -4.09090909090909 8.09882590542595E-07
0.454545454545454 -3.18181818181818 5.48175304373161E-05
0.454545454545454 -2.27272727272727 0.00162366268579193
0.454545454545454 -1.36363636363636 0.0210451048722178
0.454545454545454 -0.454545454545454 0.119367285846241
0.454545454545454 0.454545454545454 0.296277372445168
0.454545454545454 1.36363636363636 0.321803371889982
0.454545454545454 2.27272727272727 0.152954281012661
0.454545454545454 3.18181818181818 0.0318135126599106
0.454545454545454 4.09090909090909 0.00289561322605925
0.454545454545454 5 0.000115331627311235
1.36363636363636 -5 5.68716340656447E-09
1.36363636363636 -4.09090909090909 8.79658633127084E-07
1.36363636363636 -3.18181818181818 5.9540375924843E-05
1.36363636363636 -2.27272727272727 0.00176355056340486
1.36363636363636 -1.36363636363636 0.0228582616814969
1.36363636363636 -0.454545454545454 0.129651463969914
1.36363636363636 0.454545454545454 0.321803371889982
1.36363636363636 1.36363636363636 0.34952858297988
1.36363636363636 2.27272727272727 0.166132171919377
1.36363636363636 3.18181818181818 0.0345544297262139
1.36363636363636 4.09090909090909 0.00314508695734956
1.36363636363636 5 0.000125268110244169
2.27272727272727 -5 2.70312888501981E-09
2.27272727272727 -4.09090909090909 4.18104860046439E-07
2.27272727272727 -3.18181818181818 2.82997512963331E-05
2.27272727272727 -2.27272727272727 0.000838221821203546
2.27272727272727 -1.36363636363636 0.0108646126364639
2.27272727272727 -0.454545454545454 0.0616237994564482
2.27272727272727 0.454545454545454 0.152954281012661
2.27272727272727 1.36363636363636 0.166132171919377
2.27272727272727 2.27272727272727 0.0789632089923763
2.27272727272727 3.18181818181818 0.0164238426823646
2.27272727272727 4.09090909090909 0.00149487095631851
2.27272727272727 5 5.95403759248429E-05
3.18181818181818 -5 5.62233527794032E-10
3.18181818181818 -4.09090909090909 8.69631380710197E-08
3.18181818181818 -3.18181818181818 5.88616735783744E-06
3.18181818181818 -2.27272727272727 0.000174344780310301
3.18181818181818 -1.36363636363636 0.00225976997418307
3.18181818181818 -0.454545454545454 0.0128173563445225
3.18181818181818 0.454545454545454 0.0318135126599106
3.18181818181818 1.36363636363636 0.0345544297262139
3.18181818181818 2.27272727272727 0.0164238426823646
3.18181818181818 3.18181818181818 0.00341605428524448
3.18181818181818 4.09090909090909 0.000310923602653757
3.18181818181818 5 1.23840175686488E-05
4.09090909090909 -5 5.11735644101279E-11
4.09090909090909 -4.09090909090909 7.91524078054351E-09
4.09090909090909 -3.18181818181818 5.35749202999209E-07
4.09090909090909 -2.27272727272727 1.58685731172674E-05
4.09090909090909 -1.36363636363636 0.000205680519942763
4.09090909090909 -0.454545454545454 0.00116661454367102
4.09090909090909 0.454545454545454 0.00289561322605925
4.09090909090909 1.36363636363636 0.00314508695734956
4.09090909090909 2.27272727272727 0.00149487095631851
4.09090909090909 3.18181818181818 0.000310923602653757
4.09090909090909 4.09090909090909 2.8299751296333E-05
4.09090909090909 5 1.12717276607802E-06
5 -5 2.03823162762952E-12
5 -4.09090909090909 3.15262270376731E-10
5 -3.18181818181818 2.13387709575724E-08
5 -2.27272727272727 6.32041718918542E-07
5 -1.36363636363636 8.19220911748048E-06
5 -0.454545454545454 4.64659964099015E-05
5 0.454545454545454 0.000115331627311235
5 1.36363636363636 0.000125268110244169
5 2.27272727272727 5.95403759248429E-05
5 3.18181818181818 1.23840175686488E-05
5 4.09090909090909 1.12717276607802E-06
5 5 4.48950392278749E-08


-5 -5 9.25355727197642E-17
-5 -4.8 3.22101243172795E-15
-5 -4.6 6.34948929074907E-15
-5 -4.4 9.47796614975725E-15
-5 -4.2 1.2606443008759E-14
-5 -4 1.09759466707228E-13
-5 -3.8 3.19741946614408E-13
-5 -3.6 5.29724426521174E-13
-5 -3.4 7.39706906428768E-13
-5 -3.2 9.49689386335948E-13
-5 -3 6.51395289134141E-12
-5 -2.8 1.26136444988336E-11
-5 -2.6 1.87133361063258E-11
-5 -2.4 2.48130277138313E-11
-5 -2.2 5.61531351569013E-11
-5 -2 1.3166397031212E-10
-5 -1.8 2.07174805467339E-10
-5 -1.6 2.82685640622664E-10
-5 -1.4 3.58196475777776E-10
-5 -1.2 6.8469862440095E-10
-5 -0.999999999999998 1.06697662046131E-09
-5 -0.799999999999998 1.44925461652166E-09
-5 -0.599999999999998 1.83153261258223E-09
-5 -0.399999999999998 2.29714266171143E-09
-5 -0.199999999999998 2.98497151902476E-09
-5 2.16493489801906E-15 3.67280037633809E-09
-5 0.200000000000002 4.36062923365142E-09
-5 0.400000000000002 5.04845809096475E-09
-5 0.600000000000002 5.30822627968245E-09
-5 0.800000000000002 5.40747171767575E-09
-5 1 5.50671715566909E-09
-5 1.2 5.60596259366234E-09
-5 1.4 5.56780202570182E-09
-5 1.6 4.9113144309618E-09
-5 1.8 4.25482683622177E-09
-5 2 3.59833924148175E-09
-5 2.2 2.94185164674173E-09
-5 2.4 2.40340353500711E-09
-5 2.6 1.93240655641759E-09
-5 2.8 1.46140957782808E-09
-5 3 9.90412599237717E-10
-5 3.2 5.52012328525998E-10
-5 3.4 4.39579136581446E-10
-5 3.6 3.27145944636895E-10
-5 3.8 2.14712752692555E-10
-5 4 1.02279560748003E-10
-5 4.2 4.52773244762698E-11
-5 4.4 3.44675512641419E-11
-5 4.6 2.36577780519875E-11
-5 4.8 1.28480048398331E-11
-4.8 -5 3.22101243174088E-15
-4.8 -4.8 1.12118191727833E-13
-4.8 -4.6 2.21015371023939E-13
-4.8 -4.4 3.29912550320032E-13
-4.8 -4.2 4.38809729616124E-13
-4.8 -4 3.82054810190035E-12
-4.8 -3.8 1.11296959057716E-11
-4.8 -3.6 1.8438843709642E-11
-4.8 -3.4 2.57479915135132E-11
-4.8 -3.2 3.30571393173841E-11
-4.8 -3 2.2674008084489E-10
-4.8 -2.8 4.39060401744763E-10
-4.8 -2.6 6.5138072264461E-10
-4.8 -2.4 8.63701043544476E-10
-4.8 -2.2 1.95459909176087E-09
-4.8 -2 4.583008162781E-09
-4.8 -1.8 7.21141723380113E-09
-4.8 -1.6 9.83982630482137E-09
-4.8 -1.4 1.24682353758414E-08
-4.8 -1.2 2.38332428927704E-08
-4.8 -0.999999999999998 3.71397167310124E-08
-4.8 -0.799999999999998 5.04461905692542E-08
-4.8 -0.599999999999998 6.37526644074962E-08
-4.8 -0.399999999999998 7.9959791161879E-08
-4.8 -0.199999999999998 1.03901992359305E-07
-4.8 2.16493489801906E-15 1.2784419355673E-07
-4.8 0.200000000000002 1.51786394754156E-07
-4.8 0.400000000000002 1.75728595951582E-07
-4.8 0.600000000000002 1.84770703116498E-07
-4.8 0.800000000000002 1.88225275019222E-07
-4.8 1 1.91679846921946E-07
-4.8 1.2 1.9513441882467E-07
-4.8 1.4 1.93806111664896E-07
-4.8 1.6 1.70954848723896E-07
-4.8 1.8 1.48103585782895E-07
-4.8 2 1.25252322841895E-07
-4.8 2.2 1.02401059900895E-07
-4.8 2.4 8.36585589306795E-08
-4.8 2.6 6.72639219437693E-08
-4.8 2.8 5.0869284956859E-08
-4.8 3 3.44746479699487E-08
-4.8 3.2 1.92146492437969E-08
-4.8 3.4 1.5301033125221E-08
-4.8 3.6 1.13874170066452E-08
-4.8 3.8 7.47380088806954E-09
-4.8 4 3.5601847694939E-09
-4.8 4.2 1.57602985214263E-09
-4.8 4.4 1.1997592691451E-09
-4.8 4.6 8.23488686147539E-10
-4.8 4.8 4.47218103150005E-10
-4.6 -5 6.34948929074907E-15
-4.6 -4.8 2.21015371023926E-13
-4.6 -4.6 4.35681252757116E-13
-4.6 -4.4 6.503471344903E-13
-4.6 -4.2 8.65013016223477E-13
-4.6 -4 7.53133673709348E-12
-4.6 -3.8 2.19396498649284E-11
-4.6 -3.6 3.63479629927628E-11
-4.6 -3.4 5.07562761205977E-11
-4.6 -3.2 6.51645892484326E-11
-4.6 -3 4.46966208798452E-10
-4.6 -2.8 8.65507158990679E-10
-4.6 -2.6 1.28404810918289E-09
-4.6 -2.4 1.70258905937513E-09
-4.6 -2.2 3.85304504836485E-09
-4.6 -2 9.03435235524989E-09
-4.6 -1.8 1.42156596621349E-08
-4.6 -1.6 1.93969669690201E-08
-4.6 -1.4 2.45782742759051E-08
-4.6 -1.2 4.698178716114E-08
-4.6 -0.999999999999998 7.32124568415635E-08
-4.6 -0.799999999999998 9.9443126521987E-08
-4.6 -0.599999999999998 1.2567379620241E-07
-4.6 -0.399999999999998 1.57622439662047E-07
-4.6 -0.199999999999998 2.04819013199585E-07
-4.6 2.16493489801906E-15 2.52015586737123E-07
-4.6 0.200000000000002 2.99212160274661E-07
-4.6 0.400000000000002 3.46408733812199E-07
-4.6 0.600000000000002 3.64233179953313E-07
-4.6 0.800000000000002 3.71043078320768E-07
-4.6 1 3.77852976688223E-07
-4.6 1.2 3.84662875055678E-07
-4.6 1.4 3.82044421304091E-07
-4.6 1.6 3.36998383016829E-07
-4.6 1.8 2.91952344729569E-07
-4.6 2 2.46906306442308E-07
-4.6 2.2 2.01860268155047E-07
-4.6 2.4 1.64913714326351E-07
-4.6 2.6 1.3259543733112E-07
-4.6 2.8 1.00277160335889E-07
-4.6 3 6.79588833406581E-08
-4.6 3.2 3.78772861590671E-08
-4.6 3.4 3.016248711386E-08
-4.6 3.6 2.2447688068653E-08
-4.6 3.8 1.47328890234461E-08
-4.6 4 7.01808997823896E-09
-4.6 4.2 3.10678237980905E-09
-4.6 4.4 2.36505098702611E-09
-4.6 4.6 1.62331959424317E-09
-4.6 4.8 8.81588201460204E-10
-4.4 -5 9.47796614975725E-15
-4.4 -4.8 3.29912550320025E-13
-4.4 -4.6 6.503471344903E-13
-4.4 -4.4 9.70781718660568E-13
-4.4 -4.2 1.29121630283084E-12
-4.4 -4 1.12421253722862E-11
-4.4 -3.8 3.27496038240851E-11
-4.4 -3.6 5.42570822758832E-11
-4.4 -3.4 7.57645607276817E-11
-4.4 -3.2 9.72720391794803E-11
-4.4 -3 6.67192336752014E-10
-4.4 -2.8 1.29195391623661E-09
-4.4 -2.6 1.9167154957212E-09
-4.4 -2.4 2.54147707520579E-09
-4.4 -2.2 5.75149100496892E-09
-4.4 -2 1.34856965477189E-08
-4.4 -1.8 2.12199020904687E-08
-4.4 -1.6 2.89541076332188E-08
-4.4 -1.4 3.66883131759687E-08
-4.4 -1.2 7.01303314295094E-08
-4.4 -0.999999999999998 1.09285196952114E-07
-4.4 -0.799999999999998 1.48440062474719E-07
-4.4 -0.599999999999998 1.87594927997324E-07
-4.4 -0.399999999999998 2.35285088162214E-07
-4.4 -0.199999999999998 3.05736034039865E-07
-4.4 2.16493489801906E-15 3.76186979917515E-07
-4.4 0.200000000000002 4.46637925795165E-07
-4.4 0.400000000000002 5.17088871672816E-07
-4.4 0.600000000000002 5.43695656790128E-07
-4.4 0.800000000000002 5.53860881622314E-07
-4.4 1 5.64026106454499E-07
-4.4 1.2 5.74191331286685E-07
-4.4 1.4 5.70282730943285E-07
-4.4 1.6 5.03041917309763E-07
-4.4 1.8 4.35801103676242E-07
-4.4 2 3.6856029004272E-07
-4.4 2.2 3.01319476409199E-07
-4.4 2.4 2.46168869722023E-07
-4.4 2.6 1.97926952718471E-07
-4.4 2.8 1.4968503571492E-07
-4.4 3 1.01443118711368E-07
-4.4 3.2 5.65399230743374E-08
-4.4 3.4 4.50239411024992E-08
-4.4 3.6 3.35079591306607E-08
-4.4 3.8 2.19919771588225E-08
-4.4 4 1.04759951869842E-08
-4.4 4.2 4.63753490747544E-09
-4.4 4.4 3.53034270490709E-09
-4.4 4.6 2.42315050233875E-09
-4.4 4.8 1.3159582997704E-09
-4.2 -5 1.2606443008759E-14
-4.2 -4.8 4.38809729616118E-13
-4.2 -4.6 8.65013016223477E-13
-4.2 -4.4 1.29121630283084E-12
-4.2 -4.2 1.71741958943819E-12
-4.2 -4 1.49529140074793E-11
-4.2 -3.8 4.35595577832419E-11
-4.2 -3.6 7.2166201559004E-11
-4.2 -3.4 1.00772845334766E-10
-4.2 -3.2 1.29379489110529E-10
-4.2 -3 8.87418464705576E-10
-4.2 -2.8 1.71840067348252E-09
-4.2 -2.6 2.54938288225947E-09
-4.2 -2.4 3.38036509103644E-09
-4.2 -2.2 7.64993696157279E-09
-4.2 -2 1.79370407401877E-08
-4.2 -1.8 2.82241445188025E-08
-4.2 -1.6 3.85112482974175E-08
-4.2 -1.4 4.87983520760323E-08
-4.2 -1.2 9.32788756978791E-08
-4.2 -0.999999999999998 1.45357937062666E-07
-4.2 -0.799999999999998 1.97436998427452E-07
-4.2 -0.599999999999998 2.49516059792239E-07
-4.2 -0.399999999999998 3.12947736662382E-07
-4.2 -0.199999999999998 4.06653054880145E-07
-4.2 2.16493489801906E-15 5.00358373097907E-07
-4.2 0.200000000000002 5.9406369131567E-07
-4.2 0.400000000000002 6.87769009533433E-07
-4.2 0.600000000000002 7.23158133626943E-07
-4.2 0.800000000000002 7.3667868492386E-07
-4.2 1 7.50199236220776E-07
-4.2 1.2 7.63719787517692E-07
-4.2 1.4 7.58521040582479E-07
-4.2 1.6 6.69085451602697E-07
-4.2 1.8 5.79649862622915E-07
-4.2 2 4.90214273643133E-07
-4.2 2.2 4.00778684663351E-07
-4.2 2.4 3.27424025117694E-07
-4.2 2.6 2.63258468105823E-07
-4.2 2.8 1.9909291109395E-07
-4.2 3 1.34927354082078E-07
-4.2 3.2 7.52025599896077E-08
-4.2 3.4 5.98853950911381E-08
-4.2 3.6 4.45682301926684E-08
-4.2 3.8 2.9251065294199E-08
-4.2 4 1.39339003957295E-08
-4.2 4.2 6.16828743514183E-09
-4.2 4.4 4.69563442278808E-09
-4.2 4.6 3.22298141043433E-09
-4.2 4.8 1.7503283980806E-09
-4 -5 1.09759466706814E-13
-4 -4.8 3.82054810189994E-12
-4 -4.6 7.53133673709306E-12
-4 -4.4 1.12421253722858E-11
-4 -4.2 1.49529140074789E-11
-4 -4 1.3018929019448E-10
-4 -3.8 3.79256371443702E-10
-4 -3.6 6.28323452692899E-10
-4 -3.4 8.77390533942095E-10
-4 -3.2 1.12645761519129E-09
-4 -3 7.72641238809486E-09
-4 -2.8 1.49614559301636E-08
-4 -2.6 2.21964994722332E-08
-4 -2.4 2.94315430143016E-08
-4 -2.2 6.66050685880836E-08
-4 -2 1.5617093771734E-07
-4 -1.8 2.45736806846603E-07
-4 -1.6 3.35302675975859E-07
-4 -1.4 4.24868545105122E-07
-4 -1.2 8.12143413061379E-07
-4 -0.999999999999998 1.26557583631251E-06
-4 -0.799999999999998 1.71900825956362E-06
-4 -0.599999999999998 2.17244068281474E-06
-4 -0.399999999999998 2.72471597734527E-06
-4 -0.199999999999998 3.54057226195424E-06
-4 2.16493489801906E-15 4.35642854656322E-06
-4 0.200000000000002 5.17228483117219E-06
-4 0.400000000000002 5.98814111578117E-06
-4 0.600000000000002 6.29626065315262E-06
-4 0.800000000000002 6.41397891030995E-06
-4 1 6.53169716746728E-06
-4 1.2 6.64941542462462E-06
-4 1.4 6.60415192795357E-06
-4 1.6 5.82547053905636E-06
-4 1.8 5.04678915015915E-06
-4 2 4.26810776126197E-06
-4 2.2 3.48942637236474E-06
-4 2.4 2.85075547156724E-06
-4 2.6 2.29209056396918E-06
-4 2.8 1.73342565637112E-06
-4 3 1.17476074877311E-06
-4 3.2 6.54759861586763E-07
-4 3.4 5.2139917851681E-07
-4 3.6 3.88038495446845E-07
-4 3.8 2.54677812376892E-07
-4 4 1.2131712930694E-07
-4 4.2 5.37049141388107E-08
-4 4.4 4.0883088888881E-08
-4 4.6 2.80612636389512E-08
-4 4.8 1.52394383890232E-08
-3.8 -5 3.19741946613994E-13
-3.8 -4.8 1.11296959057712E-11
-3.8 -4.6 2.19396498649279E-11
-3.8 -4.4 3.27496038240847E-11
-3.8 -4.2 4.35595577832415E-11
-3.8 -4 3.79256371443676E-10
-3.8 -3.8 1.1048174167457E-09
-3.8 -3.6 1.83037846204772E-09
-3.8 -3.4 2.55593950734974E-09
-3.8 -3.2 3.28150055265173E-09
-3.8 -3 2.25079276660066E-08
-3.8 -2.8 4.35844413861666E-08
-3.8 -2.6 6.46609551063271E-08
-3.8 -2.4 8.57374688264872E-08
-3.8 -2.2 1.94028223018464E-07
-3.8 -2 4.549438980361E-07
-3.8 -1.8 7.15859573053743E-07
-3.8 -1.6 9.76775248071378E-07
-3.8 -1.4 1.23769092308902E-06
-3.8 -1.2 2.36586714213897E-06
-3.8 -0.999999999999998 3.68676792652942E-06
-3.8 -0.799999999999998 5.00766871091986E-06
-3.8 -0.599999999999998 6.3285694953103E-06
-3.8 -0.399999999999998 7.9374109286474E-06
-3.8 -0.199999999999998 1.03140940925089E-05
-3.8 2.16493489801906E-15 1.26907772563704E-05
-3.8 0.200000000000002 1.50674604202319E-05
-3.8 0.400000000000002 1.74441435840934E-05
-3.8 0.600000000000002 1.83417312239048E-05
-3.8 0.800000000000002 1.86846580421973E-05
-3.8 1 1.90275848604899E-05
-3.8 1.2 1.93705116787824E-05
-3.8 1.4 1.92386539086033E-05
-3.8 1.6 1.69702654903033E-05
-3.8 1.8 1.47018770720033E-05
-3.8 2 1.24334886537034E-05
-3.8 2.2 1.01651002354034E-05
-3.8 2.4 8.3045784672815E-06
-3.8 2.6 6.67712335640389E-06
-3.8 2.8 5.04966824552627E-06
-3.8 3 3.42221313464865E-06
-3.8 3.2 1.90739076080215E-06
-3.8 3.4 1.5188957572669E-06
-3.8 3.6 1.13040075373163E-06
-3.8 3.8 7.4190575019636E-07
-3.8 4 3.53410746661091E-07
-3.8 4.2 1.56448589853684E-07
-3.8 4.4 1.19097138652831E-07
-3.8 4.6 8.17456874519783E-08
-3.8 4.8 4.43942362511273E-08
-3.6 -5 5.29724426521174E-13
-3.6 -4.8 1.8438843709642E-11
-3.6 -4.6 3.63479629927624E-11
-3.6 -4.4 5.42570822758828E-11
-3.6 -4.2 7.21662015590036E-11
-3.6 -4 6.28323452692925E-10
-3.6 -3.8 1.83037846204774E-09
-3.6 -3.6 3.03243347140256E-09
-3.6 -3.4 4.23448848075738E-09
-3.6 -3.2 5.43654349011222E-09
-3.6 -3 3.72894429439188E-08
-3.6 -2.8 7.22074268421701E-08
-3.6 -2.6 1.07125410740422E-07
-3.6 -2.4 1.42043394638673E-07
-3.6 -2.2 3.21451377448852E-07
-3.6 -2 7.5371685835486E-07
-3.6 -1.8 1.18598233926088E-06
-3.6 -1.6 1.6182478201669E-06
-3.6 -1.4 2.05051330107292E-06
-3.6 -1.2 3.91959087121657E-06
-3.6 -0.999999999999998 6.10796001674633E-06
-3.6 -0.799999999999998 8.29632916227608E-06
-3.6 -0.599999999999998 1.04846983078058E-05
-3.6 -0.399999999999998 1.31501058799495E-05
-3.6 -0.199999999999998 1.70876159230635E-05
-3.6 2.16493489801906E-15 2.10251259661776E-05
-3.6 0.200000000000002 2.49626360092916E-05
-3.6 0.400000000000002 2.89001460524057E-05
-3.6 0.600000000000002 3.03872017946569E-05
-3.6 0.800000000000002 3.09553371740847E-05
-3.6 1 3.15234725535125E-05
-3.6 1.2 3.20916079329402E-05
-3.6 1.4 3.1873155889253E-05
-3.6 1.6 2.81150604415503E-05
-3.6 1.8 2.43569649938475E-05
-3.6 2 2.05988695461448E-05
-3.6 2.2 1.6840774098442E-05
-3.6 2.4 1.37584014629957E-05
-3.6 2.6 1.10621561488385E-05
-3.6 2.8 8.36591083468131E-06
-3.6 3 5.66966552052414E-06
-3.6 3.2 3.16002166001755E-06
-3.6 3.4 2.51639233601697E-06
-3.6 3.6 1.8727630120164E-06
-3.6 3.8 1.22913368801583E-06
-3.6 4 5.85504364015242E-07
-3.6 4.2 2.5919226556856E-07
-3.6 4.4 1.97311188416784E-07
-3.6 4.6 1.35430111265009E-07
-3.6 4.8 7.35490341132331E-08
-3.4 -5 7.39706906428354E-13
-3.4 -4.8 2.57479915135128E-11
-3.4 -4.6 5.07562761205973E-11
-3.4 -4.4 7.57645607276813E-11
-3.4 -4.2 1.00772845334766E-10
-3.4 -4 8.77390533942121E-10
-3.4 -3.8 2.55593950734974E-09
-3.4 -3.6 4.23448848075738E-09
-3.4 -3.4 5.91303745416502E-09
-3.4 -3.2 7.59158642757266E-09
-3.4 -3 5.20709582218309E-08
-3.4 -2.8 1.00830412298173E-07
-3.4 -2.6 1.49589866374516E-07
-3.4 -2.4 1.98349320450859E-07
-3.4 -2.2 4.48874531879232E-07
-3.4 -2 1.05248981867362E-06
-3.4 -1.8 1.65610510546802E-06
-3.4 -1.6 2.25972039226241E-06
-3.4 -1.4 2.86333567905681E-06
-3.4 -1.2 5.47331460029417E-06
-3.4 -0.999999999999998 8.52915210696325E-06
-3.4 -0.799999999999998 1.15849896136323E-05
-3.4 -0.599999999999998 1.46408271203014E-05
-3.4 -0.399999999999998 1.83628008312516E-05
-3.4 -0.199999999999998 2.38611377536182E-05
-3.4 2.16493489801906E-15 2.93594746759848E-05
-3.4 0.200000000000002 3.48578115983513E-05
-3.4 0.400000000000002 4.03561485207179E-05
-3.4 0.600000000000002 4.24326723654091E-05
-3.4 0.800000000000002 4.32260163059721E-05
-3.4 1 4.4019360246535E-05
-3.4 1.2 4.4812704187098E-05
-3.4 1.4 4.45076578699027E-05
-3.4 1.6 3.92598553927972E-05
-3.4 1.8 3.40120529156916E-05
-3.4 2 2.87642504385861E-05
-3.4 2.2 2.35164479614806E-05
-3.4 2.4 1.921222445871E-05
-3.4 2.6 1.54471889412732E-05
-3.4 2.8 1.16821534238364E-05
-3.4 3 7.91711790639962E-06
-3.4 3.2 4.41265255923294E-06
-3.4 3.4 3.51388891476706E-06
-3.4 3.6 2.61512527030116E-06
-3.4 3.8 1.71636162583528E-06
-3.4 4 8.17597981369393E-07
-3.4 4.2 3.61935941283433E-07
-3.4 4.4 2.75525238180734E-07
-3.4 4.6 1.89114535078036E-07
-3.4 4.8 1.02703831975337E-07
-3.2 -5 9.49689386335534E-13
-3.2 -4.8 3.30571393173841E-11
-3.2 -4.6 6.51645892484322E-11
-3.2 -4.4 9.72720391794803E-11
-3.2 -4.2 1.29379489110528E-10
-3.2 -4 1.12645761519132E-09
-3.2 -3.8 3.28150055265176E-09
-3.2 -3.6 5.43654349011222E-09
-3.2 -3.4 7.59158642757266E-09
-3.2 -3.2 9.7466293650331E-09
-3.2 -3 6.68524734997423E-08
-3.2 -2.8 1.29453397754176E-07
-3.2 -2.6 1.9205432200861E-07
-3.2 -2.4 2.54655246263044E-07
-3.2 -2.2 5.7629768630962E-07
-3.2 -2 1.35126277899239E-06
-3.2 -1.8 2.12622787167516E-06
-3.2 -1.6 2.90119296435794E-06
-3.2 -1.4 3.67615805704071E-06
-3.2 -1.2 7.02703832937177E-06
-3.2 -0.999999999999998 1.09503441971802E-05
-3.2 -0.799999999999998 1.48736500649885E-05
-3.2 -0.599999999999998 1.87969559327969E-05
-3.2 -0.399999999999998 2.35754957825537E-05
-3.2 -0.199999999999998 3.06346595841728E-05
-3.2 2.16493489801906E-15 3.76938233857919E-05
-3.2 0.200000000000002 4.4752987187411E-05
-3.2 0.400000000000002 5.18121509890301E-05
-3.2 0.600000000000002 5.44781429361613E-05
-3.2 0.800000000000002 5.54966954378594E-05
-3.2 1 5.65152479395576E-05
-3.2 1.2 5.75338004412558E-05
-3.2 1.4 5.71421598505525E-05
-3.2 1.6 5.04046503440442E-05
-3.2 1.8 4.36671408375359E-05
-3.2 2 3.69296313310276E-05
-3.2 2.2 3.01921218245192E-05
-3.2 2.4 2.46660474544242E-05
-3.2 2.6 1.98322217337078E-05
-3.2 2.8 1.49983960129915E-05
-3.2 3 1.01645702922751E-05
-3.2 3.2 5.66528345844834E-06
-3.2 3.4 4.51138549351715E-06
-3.2 3.6 3.35748752858594E-06
-3.2 3.8 2.20358956365475E-06
-3.2 4 1.04969159872354E-06
-3.2 4.2 4.64679616998309E-07
-3.2 4.4 3.53739287944688E-07
-3.2 4.6 2.42798958891066E-07
-3.2 4.8 1.31858629837443E-07
-3 -5 6.51395289132818E-12
-3 -4.8 2.2674008084489E-10
-3 -4.6 4.46966208798439E-10
-3 -4.4 6.67192336752014E-10
-3 -4.2 8.87418464705562E-10
-3 -4 7.72641238809486E-09
-3 -3.8 2.25079276660066E-08
-3 -3.6 3.72894429439188E-08
-3 -3.4 5.20709582218309E-08
-3 -3.2 6.68524734997423E-08
-3 -3 4.58543466223129E-07
-3 -2.8 8.87925406690981E-07
-3 -2.6 1.31730734715885E-06
-3 -2.4 1.7466892876267E-06
-3 -2.2 3.95284609263909E-06
-3 -2 9.26835891060555E-06
-3 -1.8 1.45838717285719E-05
-3 -1.6 1.98993845465381E-05
-3 -1.4 2.52148973645046E-05
-3 -1.2 4.81987029671361E-05
-3 -0.999999999999998 7.51087958552486E-05
-3 -0.799999999999998 0.000102018888743361
-3 -0.599999999999998 0.000128928981631474
-3 -0.399999999999998 0.000161705154471225
-3 -0.199999999999998 0.000210124207182017
-3 2.16493489801906E-15 0.000258543259892808
-3 0.200000000000002 0.000306962312603599
-3 0.400000000000002 0.00035538136531439
-3 0.600000000000002 0.000373667497814259
-3 0.800000000000002 0.000380653785235032
-3 1 0.000387640072655806
-3 1.2 0.00039462636007658
-3 1.4 0.000391940083495128
-3 1.6 0.000345727268903652
-3 1.8 0.000299514454312175
-3 2 0.000253301639720699
-3 2.2 0.000207088825129224
-3 2.4 0.000169185286731655
-3 2.6 0.000136029906159177
-3 2.8 0.000102874525586698
-3 3 6.97191450142196E-05
-3 3.2 3.88583784290803E-05
-3 3.4 3.09437517173354E-05
-3 3.6 2.30291250055904E-05
-3 3.8 1.51144982938451E-05
-3 4 7.19987158210016E-06
-3 4.2 3.18725383081654E-06
-3 4.4 2.42631021324984E-06
-3 4.6 1.6653665956832E-06
-3 4.8 9.04422978116484E-07
-2.8 -5 1.26136444988336E-11
-2.8 -4.8 4.39060401744763E-10
-2.8 -4.6 8.65507158990679E-10
-2.8 -4.4 1.29195391623661E-09
-2.8 -4.2 1.71840067348254E-09
-2.8 -4 1.49614559301636E-08
-2.8 -3.8 4.35844413861671E-08
-2.8 -3.6 7.22074268421701E-08
-2.8 -3.4 1.00830412298174E-07
-2.8 -3.2 1.29453397754176E-07
-2.8 -3 8.87925406690981E-07
-2.8 -2.8 1.7193823179758E-06
-2.8 -2.6 2.55083922926061E-06
-2.8 -2.4 3.38229614054542E-06
-2.8 -2.2 7.65430702415898E-06
-2.8 -2 1.79472873593484E-05
-2.8 -1.8 2.82402676945379E-05
-2.8 -1.6 3.85332480297272E-05
-2.8 -1.4 4.88262283649166E-05
-2.8 -1.2 9.3332161695769E-05
-2.8 -0.999999999999998 0.000145440973470102
-2.8 -0.799999999999998 0.000197549785244435
-2.8 -0.599999999999998 0.000249658597018767
-2.8 -0.399999999999998 0.000313126509533634
-2.8 -0.199999999999998 0.000406885357356588
-2.8 2.16493489801906E-15 0.000500644205179543
-2.8 0.200000000000002 0.000594403053002498
-2.8 0.400000000000002 0.000688161900825453
-2.8 0.600000000000002 0.000723571241123089
-2.8 0.800000000000002 0.000737099516098732
-2.8 1 0.000750627791074375
-2.8 1.2 0.000764156066050018
-2.8 1.4 0.000758954349306089
-2.8 1.6 0.00066946766982409
-2.8 1.8 0.000579980990342089
-2.8 2 0.00049049431086009
-2.8 2.2 0.000401007631378091
-2.8 2.4 0.000327611067637034
-2.8 2.6 0.000263408855747946
-2.8 2.8 0.000199206643858857
-2.8 3 0.000135004431969769
-2.8 3.2 7.52455198068541E-05
-2.8 3.4 5.99196049056606E-05
-2.8 3.6 4.45936900044671E-05
-2.8 3.8 2.92677751032732E-05
-2.8 4 1.39418602020792E-05
-2.8 4.2 6.17181109844502E-06
-2.8 4.4 4.69831682610905E-06
-2.8 4.6 3.22482255377314E-06
-2.8 4.8 1.75132828143714E-06
-2.6 -5 1.87133361063258E-11
-2.6 -4.8 6.5138072264461E-10
-2.6 -4.6 1.28404810918289E-09
-2.6 -4.4 1.9167154957212E-09
-2.6 -4.2 2.54938288225948E-09
-2.6 -4 2.21964994722328E-08
-2.6 -3.8 6.46609551063275E-08
-2.6 -3.6 1.07125410740422E-07
-2.6 -3.4 1.49589866374517E-07
-2.6 -3.2 1.9205432200861E-07
-2.6 -3 1.31730734715885E-06
-2.6 -2.8 2.55083922926061E-06
-2.6 -2.6 3.78437111136239E-06
-2.6 -2.4 5.01790299346415E-06
-2.6 -2.2 1.13557679556787E-05
-2.6 -2 2.66262158080912E-05
-2.6 -1.8 4.18966636605036E-05
-2.6 -1.6 5.71671115129161E-05
-2.6 -1.4 7.24375593653286E-05
-2.6 -1.2 0.000138465620424402
-2.6 -0.999999999999998 0.000215773151084955
-2.6 -0.799999999999998 0.000293080681745508
-2.6 -0.599999999999998 0.000370388212406061
-2.6 -0.399999999999998 0.000464547864596042
-2.6 -0.199999999999998 0.00060364650753116
-2.6 2.16493489801906E-15 0.000742745150466279
-2.6 0.200000000000002 0.000881843793401397
-2.6 0.400000000000002 0.00102094243633652
-2.6 0.600000000000002 0.00107347498443192
-2.6 0.800000000000002 0.00109354524696243
-2.6 1 0.00111361550949294
-2.6 1.2 0.00113368577202346
-2.6 1.4 0.00112596861511705
-2.6 1.6 0.000993208070744529
-2.6 1.8 0.000860447526372005
-2.6 2 0.000727686981999482
-2.6 2.2 0.000594926437626959
-2.6 2.4 0.000486036848542414
-2.6 2.6 0.000390787805336717
-2.6 2.8 0.000295538762131018
-2.6 3 0.00020028971892532
-2.6 3.2 0.000111632661184628
-2.6 3.4 8.8895458093986E-05
-2.6 3.6 6.61582550033437E-05
-2.6 3.8 4.34210519127012E-05
-2.6 4 2.06838488220587E-05
-2.6 4.2 9.15636836607348E-06
-2.6 4.4 6.97032343896823E-06
-2.6 4.6 4.78427851186304E-06
-2.6 4.8 2.59823358475777E-06
-2.4 -5 2.48130277138313E-11
-2.4 -4.8 8.63701043544476E-10
-2.4 -4.6 1.70258905937513E-09
-2.4 -4.4 2.54147707520579E-09
-2.4 -4.2 3.38036509103644E-09
-2.4 -4 2.94315430143016E-08
-2.4 -3.8 8.57374688264876E-08
-2.4 -3.6 1.42043394638673E-07
-2.4 -3.4 1.98349320450859E-07
-2.4 -3.2 2.54655246263044E-07
-2.4 -3 1.7466892876267E-06
-2.4 -2.8 3.38229614054541E-06
-2.4 -2.6 5.01790299346415E-06
-2.4 -2.4 6.65350984638287E-06
-2.4 -2.2 1.50572288871985E-05
-2.4 -2 3.5305144256834E-05
-2.4 -1.8 5.55530596264696E-05
-2.4 -1.6 7.58009749961051E-05
-2.4 -1.4 9.60488903657406E-05
-2.4 -1.2 0.000183599079153035
-2.4 -0.999999999999998 0.000286105328699808
-2.4 -0.799999999999998 0.000388611578246582
-2.4 -0.599999999999998 0.000491117827793355
-2.4 -0.399999999999998 0.000615969219658449
-2.4 -0.199999999999998 0.000800407657705732
-2.4 2.16493489801906E-15 0.000984846095753014
-2.4 0.200000000000002 0.0011692845338003
-2.4 0.400000000000002 0.00135372297184758
-2.4 0.600000000000002 0.00142337872774075
-2.4 0.800000000000002 0.00144999097782613
-2.4 1 0.00147660322791151
-2.4 1.2 0.00150321547799689
-2.4 1.4 0.00149298288092801
-2.4 1.6 0.00131694847166497
-2.4 1.8 0.00114091406240192
-2.4 2 0.000964879653138874
-2.4 2.2 0.000788845243875826
-2.4 2.4 0.000644462629447795
-2.4 2.6 0.000518166754925487
-2.4 2.8 0.000391870880403178
-2.4 3 0.00026557500588087
-2.4 3.2 0.000148019802562402
-2.4 3.4 0.000117871311282311
-2.4 3.6 8.77228200022201E-05
-2.4 3.8 5.75743287221291E-05
-2.4 4 2.74258374420378E-05
-2.4 4.2 1.21409256337019E-05
-2.4 4.4 9.24233005182744E-06
-2.4 4.6 6.34373446995297E-06
-2.4 4.8 3.44513888807845E-06
-2.2 -5 5.61531351569013E-11
-2.2 -4.8 1.95459909176087E-09
-2.2 -4.6 3.85304504836485E-09
-2.2 -4.4 5.75149100496882E-09
-2.2 -4.2 7.64993696157279E-09
-2.2 -4 6.66050685880836E-08
-2.2 -3.8 1.94028223018471E-07
-2.2 -3.6 3.21451377448852E-07
-2.2 -3.4 4.48874531879232E-07
-2.2 -3.2 5.7629768630962E-07
-2.2 -3 3.95284609263909E-06
-2.2 -2.8 7.65430702415887E-06
-2.2 -2.6 1.13557679556787E-05
-2.2 -2.4 1.50572288871984E-05
-2.2 -2.2 3.40752695939502E-05
-2.2 -2 7.98973249073543E-05
-2.2 -1.8 0.000125719380220759
-2.2 -1.6 0.000171541435534162
-2.2 -1.4 0.000217363490847567
-2.2 -1.2 0.000415493990707644
-2.2 -0.999999999999998 0.00064747081157809
-2.2 -0.799999999999998 0.000879447632448533
-2.2 -0.599999999999998 0.00111142445331898
-2.2 -0.399999999999998 0.00139396946002999
-2.2 -0.199999999999998 0.00181136296231588
-2.2 2.16493489801906E-15 0.00222875646460177
-2.2 0.200000000000002 0.00264614996688766
-2.2 0.400000000000002 0.00306354346917354
-2.2 0.600000000000002 0.00322117796344944
-2.2 0.800000000000002 0.00328140282972161
-2.2 1 0.00334162769599378
-2.2 1.2 0.00340185256226595
-2.2 1.4 0.0033786956781952
-2.2 1.6 0.00298032091758106
-2.2 1.8 0.00258194615696693
-2.2 2 0.00218357139635279
-2.2 2.2 0.00178519663573866
-2.2 2.4 0.0014584514857398
-2.2 2.6 0.00117263754180685
-2.2 2.8 0.000886823597873919
-2.2 3 0.00060100965394097
-2.2 3.2 0.000334976290480991
-2.2 3.4 0.000266748731750487
-2.2 3.6 0.000198521173019987
-2.2 3.8 0.000130293614289487
-2.2 4 6.2066055558984E-05
-2.2 4.2 2.74755280130065E-05
-2.2 4.4 2.09158597874559E-05
-2.2 4.6 1.43561915619045E-05
-2.2 4.8 7.79652333635344E-06
-2 -5 1.3166397031212E-10
-2 -4.8 4.583008162781E-09
-2 -4.6 9.03435235524989E-09
-2 -4.4 1.34856965477188E-08
-2 -4.2 1.79370407401877E-08
-2 -4 1.5617093771734E-07
-2 -3.8 4.54943898036107E-07
-2 -3.6 7.53716858354867E-07
-2 -3.4 1.05248981867362E-06
-2 -3.2 1.35126277899239E-06
-2 -3 9.26835891060544E-06
-2 -2.8 1.79472873593484E-05
-2 -2.6 2.66262158080912E-05
-2 -2.4 3.5305144256834E-05
-2 -2.2 7.98973249073543E-05
-2 -2 0.00018733769691098
-2 -1.8 0.000294778068914606
-2 -1.6 0.00040221844091823
-2 -1.4 0.000509658812921855
-2 -1.2 0.000974221444707681
-2 -0.999999999999998 0.00151814457866733
-2 -0.799999999999998 0.00206206771262697
-2 -0.599999999999998 0.00260599084658661
-2 -0.399999999999998 0.00326848274969247
-2 -0.199999999999998 0.00424715803718822
-2 2.16493489801906E-15 0.00522583332468396
-2 0.200000000000002 0.00620450861217971
-2 0.400000000000002 0.00718318389967546
-2 0.600000000000002 0.00755279431085777
-2 0.800000000000002 0.00769400539342258
-2 1 0.00783521647598739
-2 1.2 0.00797642755855221
-2 1.4 0.00792213090551051
-2 1.6 0.00698804944223932
-2 1.8 0.00605396797896814
-2 2 0.00511988651569696
-2 2.2 0.00418580505242577
-2 2.4 0.00341967572395834
-2 2.6 0.00274951904395024
-2 2.8 0.00207936236394213
-2 3 0.00140920568393403
-2 3.2 0.000785429134845991
-2 3.4 0.000625453894958401
-2 3.6 0.000465478655070812
-2 3.8 0.000305503415183223
-2 4 0.000145528175295635
-2 4.2 6.44227093377443E-05
-2 4.4 4.904205498793E-05
-2 4.6 3.36614006381151E-05
-2 4.8 1.82807462883005E-05
-1.8 -5 2.07174805467339E-10
-1.8 -4.8 7.21141723380113E-09
-1.8 -4.6 1.42156596621349E-08
-1.8 -4.4 2.12199020904687E-08
-1.8 -4.2 2.82241445188025E-08
-1.8 -4 2.45736806846603E-07
-1.8 -3.8 7.15859573053746E-07
-1.8 -3.6 1.18598233926089E-06
-1.8 -3.4 1.65610510546802E-06
-1.8 -3.2 2.12622787167517E-06
-1.8 -3 1.4583871728572E-05
-1.8 -2.8 2.82402676945379E-05
-1.8 -2.6 4.18966636605038E-05
-1.8 -2.4 5.55530596264696E-05
-1.8 -2.2 0.000125719380220759
-1.8 -2 0.000294778068914606
-1.8 -1.8 0.000463836757608453
-1.8 -1.6 0.000632895446302299
-1.8 -1.4 0.000801954134996144
-1.8 -1.2 0.00153294889870772
-1.8 -0.999999999999998 0.00238881834575656
-1.8 -0.799999999999998 0.00324468779280541
-1.8 -0.599999999999998 0.00410055723985425
-1.8 -0.399999999999998 0.00514299603935494
-1.8 -0.199999999999998 0.00668295311206055
-1.8 2.16493489801906E-15 0.00822291018476615
-1.8 0.200000000000002 0.00976286725747176
-1.8 0.400000000000002 0.0113028243301774
-1.8 0.600000000000002 0.0118844106582661
-1.8 0.800000000000002 0.0121066079571236
-1.8 1 0.012328805255981
-1.8 1.2 0.0125510025548385
-1.8 1.4 0.0124655661328258
-1.8 1.6 0.0109957779668976
-1.8 1.8 0.00952598980096936
-1.8 2 0.00805620163504113
-1.8 2.2 0.00658641346911289
-1.8 2.4 0.00538089996217688
-1.8 2.6 0.00432640054609362
-1.8 2.8 0.00327190113001036
-1.8 3 0.00221740171392709
-1.8 3.2 0.00123588197921099
-1.8 3.4 0.00098415905816631
-1.8 3.6 0.000732436137121633
-1.8 3.8 0.000480713216076956
-1.8 4 0.000228990295032278
-1.8 4.2 0.000101369890662483
-1.8 4.4 7.71682501884046E-05
-1.8 4.6 5.29666097143261E-05
-1.8 4.8 2.87649692402479E-05
-1.6 -5 2.82685640622664E-10
-1.6 -4.8 9.83982630482137E-09
-1.6 -4.6 1.93969669690201E-08
-1.6 -4.4 2.89541076332188E-08
-1.6 -4.2 3.85112482974175E-08
-1.6 -4 3.35302675975855E-07
-1.6 -3.8 9.76775248071378E-07
-1.6 -3.6 1.61824782016689E-06
-1.6 -3.4 2.25972039226241E-06
-1.6 -3.2 2.90119296435794E-06
-1.6 -3 1.98993845465383E-05
-1.6 -2.8 3.85332480297272E-05
-1.6 -2.6 5.71671115129161E-05
-1.6 -2.4 7.58009749961051E-05
-1.6 -2.2 0.000171541435534162
-1.6 -2 0.00040221844091823
-1.6 -1.8 0.000632895446302298
-1.6 -1.6 0.000863572451686365
-1.6 -1.4 0.00109424945707043
-1.6 -1.2 0.00209167635270776
-1.6 -0.999999999999998 0.0032594921128458
-1.6 -0.799999999999998 0.00442730787298384
-1.6 -0.599999999999998 0.00559512363312188
-1.6 -0.399999999999998 0.00701750932901741
-1.6 -0.199999999999998 0.00911874818693287
-1.6 2.16493489801906E-15 0.0112199870448483
-1.6 0.200000000000002 0.0133212259027638
-1.6 0.400000000000002 0.0154224647606793
-1.6 0.600000000000002 0.0162160270056744
-1.6 0.800000000000002 0.0165192105208245
-1.6 1 0.0168223940359746
-1.6 1.2 0.0171255775511247
-1.6 1.4 0.0170090013601411
-1.6 1.6 0.0150035064915558
-1.6 1.8 0.0129980116229706
-1.6 2 0.0109925167543853
-1.6 2.2 0.0089870218858
-1.6 2.4 0.00734212420039543
-1.6 2.6 0.005903282048237
-1.6 2.8 0.00446443989607858
-1.6 3 0.00302559774392015
-1.6 3.2 0.00168633482357599
-1.6 3.4 0.00134286422137422
-1.6 3.6 0.000999393619172458
-1.6 3.8 0.000655923016970693
-1.6 4 0.000312452414768927
-1.6 4.2 0.00013831707198722
-1.6 4.4 0.000105294445388878
-1.6 4.6 7.22718187905363E-05
-1.6 4.8 3.92491921921948E-05
-1.4 -5 3.58196475777829E-10
-1.4 -4.8 1.24682353758414E-08
-1.4 -4.6 2.45782742759051E-08
-1.4 -4.4 3.66883131759687E-08
-1.4 -4.2 4.87983520760323E-08
-1.4 -4 4.24868545105118E-07
-1.4 -3.8 1.23769092308902E-06
-1.4 -3.6 2.05051330107292E-06
-1.4 -3.4 2.86333567905681E-06
-1.4 -3.2 3.67615805704072E-06
-1.4 -3 2.52148973645046E-05
-1.4 -2.8 4.88262283649166E-05
-1.4 -2.6 7.24375593653286E-05
-1.4 -2.4 9.60488903657406E-05
-1.4 -2.2 0.000217363490847567
-1.4 -2 0.000509658812921855
-1.4 -1.8 0.000801954134996144
-1.4 -1.6 0.00109424945707043
-1.4 -1.4 0.00138654477914472
-1.4 -1.2 0.0026504038067078
-1.4 -0.999999999999998 0.00413016587993504
-1.4 -0.799999999999998 0.00560992795316228
-1.4 -0.599999999999998 0.00708969002638952
-1.4 -0.399999999999998 0.00889202261867988
-1.4 -0.199999999999998 0.0115545432618052
-1.4 2.16493489801906E-15 0.0142170639049305
-1.4 0.200000000000002 0.0168795845480559
-1.4 0.400000000000002 0.0195421051911812
-1.4 0.600000000000002 0.0205476433530828
-1.4 0.800000000000002 0.0209318130845255
-1.4 1 0.0213159828159682
-1.4 1.2 0.021700152547411
-1.4 1.4 0.0215524365874564
-1.4 1.6 0.0190112350162141
-1.4 1.8 0.0164700334449718
-1.4 2 0.0139288318737295
-1.4 2.2 0.0113876303024871
-1.4 2.4 0.00930334843861397
-1.4 2.6 0.00748016355038039
-1.4 2.8 0.0056569786621468
-1.4 3 0.00383379377391321
-1.4 3.2 0.00213678766794099
-1.4 3.4 0.00170156938458213
-1.4 3.6 0.00126635110122328
-1.4 3.8 0.000831132817864427
-1.4 4 0.000395914534505574
-1.4 4.2 0.000175264253311958
-1.4 4.4 0.000133420640589353
-1.4 4.6 9.15770278667471E-05
-1.4 4.8 4.97334151441419E-05
-1.2 -5 6.8469862440095E-10
-1.2 -4.8 2.38332428927702E-08
-1.2 -4.6 4.698178716114E-08
-1.2 -4.4 7.01303314295092E-08
-1.2 -4.2 9.32788756978791E-08
-1.2 -4 8.12143413061366E-07
-1.2 -3.8 2.36586714213897E-06
-1.2 -3.6 3.91959087121657E-06
-1.2 -3.4 5.47331460029417E-06
-1.2 -3.2 7.02703832937177E-06
-1.2 -3 4.81987029671361E-05
-1.2 -2.8 9.3332161695769E-05
-1.2 -2.6 0.000138465620424402
-1.2 -2.4 0.000183599079153035
-1.2 -2.2 0.000415493990707644
-1.2 -2 0.000974221444707681
-1.2 -1.8 0.00153294889870772
-1.2 -1.6 0.00209167635270776
-1.2 -1.4 0.0026504038067078
-1.2 -1.2 0.00506629172333278
-1.2 -0.999999999999998 0.00789488196498552
-1.2 -0.799999999999998 0.0107234722066383
-1.2 -0.599999999999998 0.013552062448291
-1.2 -0.399999999999998 0.0169972516952669
-1.2 -0.199999999999998 0.0220867049564377
-1.2 2.16493489801906E-15 0.0271761582176085
-1.2 0.200000000000002 0.0322656114787793
-1.2 0.400000000000002 0.0373550647399502
-1.2 0.600000000000002 0.0392771679508814
-1.2 0.800000000000002 0.0400115148929728
-1.2 1 0.0407458618350642
-1.2 1.2 0.0414802087771556
-1.2 1.4 0.0411978472202381
-1.2 1.6 0.0363402974177809
-1.2 1.8 0.0314827476153237
-1.2 2 0.0266251978128665
-1.2 2.2 0.0217676480104092
-1.2 2.4 0.0177835079600109
-1.2 2.6 0.0142984591965031
-1.2 2.8 0.0108134104329953
-1.2 3 0.00732836166948758
-1.2 3.2 0.00408450578331158
-1.2 3.4 0.00325257867045289
-1.2 3.6 0.00242065155759422
-1.2 3.8 0.00158872444473555
-1.2 4 0.000756797331876863
-1.2 4.2 0.000335020585807803
-1.2 4.4 0.00025503581206338
-1.2 4.6 0.000175051038318958
-1.2 4.8 9.50662645745363E-05
-0.999999999999998 -5 1.06697662046131E-09
-0.999999999999998 -4.8 3.71397167310122E-08
-0.999999999999998 -4.6 7.32124568415633E-08
-0.999999999999998 -4.4 1.09285196952114E-07
-0.999999999999998 -4.2 1.45357937062666E-07
-0.999999999999998 -4 1.26557583631251E-06
-0.999999999999998 -3.8 3.68676792652942E-06
-0.999999999999998 -3.6 6.10796001674633E-06
-0.999999999999998 -3.4 8.52915210696325E-06
-0.999999999999998 -3.2 1.09503441971802E-05
-0.999999999999998 -3 7.51087958552484E-05
-0.999999999999998 -2.8 0.000145440973470102
-0.999999999999998 -2.6 0.000215773151084955
-0.999999999999998 -2.4 0.000286105328699808
-0.999999999999998 -2.2 0.00064747081157809
-0.999999999999998 -2 0.00151814457866733
-0.999999999999998 -1.8 0.00238881834575656
-0.999999999999998 -1.6 0.0032594921128458
-0.999999999999998 -1.4 0.00413016587993504
-0.999999999999998 -1.2 0.00789488196498551
-0.999999999999998 -0.999999999999998 0.0123027185651385
-0.999999999999998 -0.799999999999998 0.0167105551652914
-0.999999999999998 -0.599999999999998 0.0211183917654444
-0.999999999999998 -0.399999999999998 0.0264870842800592
-0.999999999999998 -0.199999999999998 0.034418059233239
-0.999999999999998 2.16493489801906E-15 0.0423490341864187
-0.999999999999998 0.200000000000002 0.0502800091395985
-0.999999999999998 0.400000000000002 0.0582109840927782
-0.999999999999998 0.600000000000002 0.0612062277154331
-0.999999999999998 0.800000000000002 0.0623505720891412
-0.999999999999998 1 0.0634949164628493
-0.999999999999998 1.2 0.0646392608365574
-0.999999999999998 1.4 0.0641992523875676
-0.999999999999998 1.6 0.0566296562364383
-0.999999999999998 1.8 0.0490600600853089
-0.999999999999998 2 0.0414904639341795
-0.999999999999998 2.2 0.0339208677830501
-0.999999999999998 2.4 0.0277123197665583
-0.999999999999998 2.6 0.0222815135412877
-0.999999999999998 2.8 0.0168507073160171
-0.999999999999998 3 0.0114199010907466
-0.999999999999998 3.2 0.00636494951446116
-0.999999999999998 3.4 0.0050685444280265
-0.999999999999998 3.6 0.00377213934159184
-0.999999999999998 3.8 0.00247573425515719
-0.999999999999998 4 0.00117932916872252
-0.999999999999998 4.2 0.000522067840786114
-0.999999999999998 4.4 0.000397426311598196
-0.999999999999998 4.6 0.00027278478241028
-0.999999999999998 4.8 0.000148143253222363
-0.799999999999998 -5 1.44925461652187E-09
-0.799999999999998 -4.8 5.0446190569254E-08
-0.799999999999998 -4.6 9.94431265219868E-08
-0.799999999999998 -4.4 1.48440062474719E-07
-0.799999999999998 -4.2 1.97436998427452E-07
-0.799999999999998 -4 1.71900825956362E-06
-0.799999999999998 -3.8 5.00766871091986E-06
-0.799999999999998 -3.6 8.29632916227608E-06
-0.799999999999998 -3.4 1.15849896136323E-05
-0.799999999999998 -3.2 1.48736500649886E-05
-0.799999999999998 -3 0.000102018888743361
-0.799999999999998 -2.8 0.000197549785244434
-0.799999999999998 -2.6 0.000293080681745508
-0.799999999999998 -2.4 0.000388611578246582
-0.799999999999998 -2.2 0.000879447632448531
-0.799999999999998 -2 0.00206206771262697
-0.799999999999998 -1.8 0.00324468779280541
-0.799999999999998 -1.6 0.00442730787298384
-0.799999999999998 -1.4 0.00560992795316228
-0.799999999999998 -1.2 0.0107234722066382
-0.799999999999998 -0.999999999999998 0.0167105551652914
-0.799999999999998 -0.799999999999998 0.0226976381239446
-0.799999999999998 -0.599999999999998 0.0286847210825977
-0.799999999999998 -0.399999999999998 0.0359769168648515
-0.799999999999998 -0.199999999999998 0.0467494135100402
-0.799999999999998 2.16493489801906E-15 0.0575219101552289
-0.799999999999998 0.200000000000002 0.0682944068004176
-0.799999999999998 0.400000000000002 0.0790669034456063
-0.799999999999998 0.600000000000002 0.0831352874799847
-0.799999999999998 0.800000000000002 0.0846896292853095
-0.799999999999998 1 0.0862439710906343
-0.799999999999998 1.2 0.0877983128959591
-0.799999999999998 1.4 0.0872006575548971
-0.799999999999998 1.6 0.0769190150550956
-0.799999999999998 1.8 0.0666373725552941
-0.799999999999998 2 0.0563557300554926
-0.799999999999998 2.2 0.0460740875556911
-0.799999999999998 2.4 0.0376411315731058
-0.799999999999998 2.6 0.0302645678860724
-0.799999999999998 2.8 0.022888004199039
-0.799999999999998 3 0.0155114405120056
-0.799999999999998 3.2 0.00864539324561074
-0.799999999999998 3.4 0.0068845101856001
-0.799999999999998 3.6 0.00512362712558945
-0.799999999999998 3.8 0.00336274406557883
-0.799999999999998 4 0.00160186100556818
-0.799999999999998 4.2 0.000709115095764424
-0.799999999999998 4.4 0.000539816811133012
-0.799999999999998 4.6 0.0003705185265016
-0.799999999999998 4.8 0.000201220241870189
-0.599999999999998 -5 1.83153261258223E-09
-0.599999999999998 -4.8 6.37526644074962E-08
-0.599999999999998 -4.6 1.2567379620241E-07
-0.599999999999998 -4.4 1.87594927997324E-07
-0.599999999999998 -4.2 2.49516059792239E-07
-0.599999999999998 -4 2.17244068281473E-06
-0.599999999999998 -3.8 6.32856949531029E-06
-0.599999999999998 -3.6 1.04846983078058E-05
-0.599999999999998 -3.4 1.46408271203014E-05
-0.599999999999998 -3.2 1.87969559327969E-05
-0.599999999999998 -3 0.000128928981631474
-0.599999999999998 -2.8 0.000249658597018767
-0.599999999999998 -2.6 0.000370388212406061
-0.599999999999998 -2.4 0.000491117827793355
-0.599999999999998 -2.2 0.00111142445331898
-0.599999999999998 -2 0.00260599084658661
-0.599999999999998 -1.8 0.00410055723985425
-0.599999999999998 -1.6 0.00559512363312188
-0.599999999999998 -1.4 0.00708969002638952
-0.599999999999998 -1.2 0.013552062448291
-0.599999999999998 -0.999999999999998 0.0211183917654444
-0.599999999999998 -0.799999999999998 0.0286847210825977
-0.599999999999998 -0.599999999999998 0.0362510503997511
-0.599999999999998 -0.399999999999998 0.0454667494496439
-0.599999999999998 -0.199999999999998 0.0590807677868415
-0.599999999999998 2.16493489801906E-15 0.0726947861240391
-0.599999999999998 0.200000000000002 0.0863088044612367
-0.599999999999998 0.400000000000002 0.0999228227984343
-0.599999999999998 0.600000000000002 0.105064347244536
-0.599999999999998 0.800000000000002 0.107028686481478
-0.599999999999998 1 0.108993025718419
-0.599999999999998 1.2 0.110957364955361
-0.599999999999998 1.4 0.110202062722227
-0.599999999999998 1.6 0.097208373873753
-0.599999999999998 1.8 0.0842146850252794
-0.599999999999998 2 0.0712209961768057
-0.599999999999998 2.2 0.058227307328332
-0.599999999999998 2.4 0.0475699433796532
-0.599999999999998 2.6 0.038247622230857
-0.599999999999998 2.8 0.0289253010820608
-0.599999999999998 3 0.0196029799332646
-0.599999999999998 3.2 0.0109258369767603
-0.599999999999998 3.4 0.0087004759431737
-0.599999999999998 3.6 0.00647511490958708
-0.599999999999998 3.8 0.00424975387600047
-0.599999999999998 4 0.00202439284241384
-0.599999999999998 4.2 0.000896162350742735
-0.599999999999998 4.4 0.000682207310667828
-0.599999999999998 4.6 0.000468252270592922
-0.599999999999998 4.8 0.000254297230518016
-0.399999999999998 -5 2.29714266171143E-09
-0.399999999999998 -4.8 7.99597911618792E-08
-0.399999999999998 -4.6 1.57622439662047E-07
-0.399999999999998 -4.4 2.35285088162215E-07
-0.399999999999998 -4.2 3.12947736662382E-07
-0.399999999999998 -4 2.72471597734527E-06
-0.399999999999998 -3.8 7.9374109286474E-06
-0.399999999999998 -3.6 1.31501058799495E-05
-0.399999999999998 -3.4 1.83628008312516E-05
-0.399999999999998 -3.2 2.35754957825537E-05
-0.399999999999998 -3 0.000161705154471225
-0.399999999999998 -2.8 0.000313126509533634
-0.399999999999998 -2.6 0.000464547864596042
-0.399999999999998 -2.4 0.000615969219658449
-0.399999999999998 -2.2 0.00139396946002999
-0.399999999999998 -2 0.00326848274969247
-0.399999999999998 -1.8 0.00514299603935494
-0.399999999999998 -1.6 0.00701750932901741
-0.399999999999998 -1.4 0.00889202261867988
-0.399999999999998 -1.2 0.0169972516952669
-0.399999999999998 -0.999999999999998 0.0264870842800592
-0.399999999999998 -0.799999999999998 0.0359769168648515
-0.399999999999998 -0.599999999999998 0.0454667494496439
-0.399999999999998 -0.399999999999998 0.0570252525849812
-0.399999999999998 -0.199999999999998 0.0741002105217717
-0.399999999999998 2.16493489801906E-15 0.0911751684585621
-0.399999999999998 0.200000000000002 0.108250126395353
-0.399999999999998 0.400000000000002 0.125325084332143
-0.399999999999998 0.600000000000002 0.131773681026647
-0.399999999999998 0.800000000000002 0.134237392255295
-0.399999999999998 1 0.136701103483942
-0.399999999999998 1.2 0.139164814712589
-0.399999999999998 1.4 0.138217500441306
-0.399999999999998 1.6 0.121920571420341
-0.399999999999998 1.8 0.105623642399376
-0.399999999999998 2 0.0893267133784102
-0.399999999999998 2.2 0.0730297843574448
-0.399999999999998 2.4 0.0596631179821285
-0.399999999999998 2.6 0.0479708874043259
-0.399999999999998 2.8 0.0362786568265233
-0.399999999999998 3 0.0245864262487207
-0.399999999999998 3.2 0.0137033902982692
-0.399999999999998 3.4 0.0109123006213262
-0.399999999999998 3.6 0.00812121094438329
-0.399999999999998 3.8 0.00533012126744035
-0.399999999999998 4 0.00253903159049742
-0.399999999999998 4.2 0.00112398368097228
-0.399999999999998 4.4 0.000855637244295201
-0.399999999999998 4.6 0.000587290807618125
-0.399999999999998 4.8 0.000318944370941051
-0.199999999999998 -5 2.98497151902465E-09
-0.199999999999998 -4.8 1.03901992359305E-07
-0.199999999999998 -4.6 2.04819013199585E-07
-0.199999999999998 -4.4 3.05736034039865E-07
-0.199999999999998 -4.2 4.06653054880145E-07
-0.199999999999998 -4 3.54057226195425E-06
-0.199999999999998 -3.8 1.03140940925089E-05
-0.199999999999998 -3.6 1.70876159230636E-05
-0.199999999999998 -3.4 2.38611377536182E-05
-0.199999999999998 -3.2 3.06346595841728E-05
-0.199999999999998 -3 0.000210124207182017
-0.199999999999998 -2.8 0.000406885357356588
-0.199999999999998 -2.6 0.00060364650753116
-0.199999999999998 -2.4 0.000800407657705732
-0.199999999999998 -2.2 0.00181136296231588
-0.199999999999998 -2 0.00424715803718821
-0.199999999999998 -1.8 0.00668295311206055
-0.199999999999998 -1.6 0.00911874818693287
-0.199999999999998 -1.4 0.0115545432618052
-0.199999999999998 -1.2 0.0220867049564377
-0.199999999999998 -0.999999999999998 0.0344180592332389
-0.199999999999998 -0.799999999999998 0.0467494135100402
-0.199999999999998 -0.599999999999998 0.0590807677868415
-0.199999999999998 -0.399999999999998 0.0741002105217717
-0.199999999999998 -0.199999999999998 0.0962878891450454
-0.199999999999998 2.16493489801906E-15 0.118475567768319
-0.199999999999998 0.200000000000002 0.140663246391593
-0.199999999999998 0.400000000000002 0.162850925014866
-0.199999999999998 0.600000000000002 0.171230412188916
-0.199999999999998 0.800000000000002 0.174431827569506
-0.199999999999998 1 0.177633242950096
-0.199999999999998 1.2 0.180834658330687
-0.199999999999998 1.4 0.179603691631719
-0.199999999999998 1.6 0.158427005574743
-0.199999999999998 1.8 0.137250319517767
-0.199999999999998 2 0.116073633460791
-0.199999999999998 2.2 0.0948969474038153
-0.199999999999998 2.4 0.0775279267070778
-0.199999999999998 2.6 0.0623347147876193
-0.199999999999998 2.8 0.0471415028681608
-0.199999999999998 3 0.0319482909487023
-0.199999999999998 3.2 0.0178065691940693
-0.199999999999998 3.4 0.0141797490876892
-0.199999999999998 3.6 0.0105529289813091
-0.199999999999998 3.8 0.00692610887492894
-0.199999999999998 4 0.00329928876854882
-0.199999999999998 4.2 0.00146053587853843
-0.199999999999998 4.4 0.00111183900216939
-0.199999999999998 4.6 0.000763142125800349
-0.199999999999998 4.8 0.000414445249431308
2.16493489801906E-15 -5 3.67280037633815E-09
2.16493489801906E-15 -4.8 1.2784419355673E-07
2.16493489801906E-15 -4.6 2.52015586737123E-07
2.16493489801906E-15 -4.4 3.76186979917515E-07
2.16493489801906E-15 -4.2 5.00358373097907E-07
2.16493489801906E-15 -4 4.35642854656322E-06
2.16493489801906E-15 -3.8 1.26907772563704E-05
2.16493489801906E-15 -3.6 2.10251259661776E-05
2.16493489801906E-15 -3.4 2.93594746759848E-05
2.16493489801906E-15 -3.2 3.76938233857919E-05
2.16493489801906E-15 -3 0.000258543259892808
2.16493489801906E-15 -2.8 0.000500644205179543
2.16493489801906E-15 -2.6 0.000742745150466279
2.16493489801906E-15 -2.4 0.000984846095753014
2.16493489801906E-15 -2.2 0.00222875646460177
2.16493489801906E-15 -2 0.00522583332468396
2.16493489801906E-15 -1.8 0.00822291018476615
2.16493489801906E-15 -1.6 0.0112199870448483
2.16493489801906E-15 -1.4 0.0142170639049305
2.16493489801906E-15 -1.2 0.0271761582176085
2.16493489801906E-15 -0.999999999999998 0.0423490341864187
2.16493489801906E-15 -0.799999999999998 0.0575219101552289
2.16493489801906E-15 -0.599999999999998 0.0726947861240391
2.16493489801906E-15 -0.399999999999998 0.0911751684585622
2.16493489801906E-15 -0.199999999999998 0.118475567768319
2.16493489801906E-15 2.16493489801906E-15 0.145775967078076
2.16493489801906E-15 0.200000000000002 0.173076366387833
2.16493489801906E-15 0.400000000000002 0.20037676569759
2.16493489801906E-15 0.600000000000002 0.210687143351184
2.16493489801906E-15 0.800000000000002 0.214626262883717
2.16493489801906E-15 1 0.218565382416251
2.16493489801906E-15 1.2 0.222504501948784
2.16493489801906E-15 1.4 0.220989882822132
2.16493489801906E-15 1.6 0.194933439729146
2.16493489801906E-15 1.8 0.168876996636159
2.16493489801906E-15 2 0.142820553543172
2.16493489801906E-15 2.2 0.116764110450186
2.16493489801906E-15 2.4 0.0953927354320271
2.16493489801906E-15 2.6 0.0766985421709127
2.16493489801906E-15 2.8 0.0580043489097983
2.16493489801906E-15 3 0.0393101556486839
2.16493489801906E-15 3.2 0.0219097480898695
2.16493489801906E-15 3.4 0.0174471975540522
2.16493489801906E-15 3.6 0.0129846470182349
2.16493489801906E-15 3.8 0.00852209648241754
2.16493489801906E-15 4 0.00405954594660023
2.16493489801906E-15 4.2 0.00179708807610459
2.16493489801906E-15 4.4 0.00136804076004358
2.16493489801906E-15 4.6 0.000938993443982573
2.16493489801906E-15 4.8 0.000509946127921566
0.200000000000002 -5 4.36062923365121E-09
0.200000000000002 -4.8 1.51786394754156E-07
0.200000000000002 -4.6 2.99212160274661E-07
0.200000000000002 -4.4 4.46637925795165E-07
0.200000000000002 -4.2 5.9406369131567E-07
0.200000000000002 -4 5.1722848311722E-06
0.200000000000002 -3.8 1.50674604202319E-05
0.200000000000002 -3.6 2.49626360092916E-05
0.200000000000002 -3.4 3.48578115983513E-05
0.200000000000002 -3.2 4.4752987187411E-05
0.200000000000002 -3 0.000306962312603599
0.200000000000002 -2.8 0.000594403053002498
0.200000000000002 -2.6 0.000881843793401397
0.200000000000002 -2.4 0.0011692845338003
0.200000000000002 -2.2 0.00264614996688766
0.200000000000002 -2 0.00620450861217971
0.200000000000002 -1.8 0.00976286725747176
0.200000000000002 -1.6 0.0133212259027638
0.200000000000002 -1.4 0.0168795845480559
0.200000000000002 -1.2 0.0322656114787793
0.200000000000002 -0.999999999999998 0.0502800091395985
0.200000000000002 -0.799999999999998 0.0682944068004176
0.200000000000002 -0.599999999999998 0.0863088044612367
0.200000000000002 -0.399999999999998 0.108250126395353
0.200000000000002 -0.199999999999998 0.140663246391593
0.200000000000002 2.16493489801906E-15 0.173076366387833
0.200000000000002 0.200000000000002 0.205489486384073
0.200000000000002 0.400000000000002 0.237902606380313
0.200000000000002 0.600000000000002 0.250143874513452
0.200000000000002 0.800000000000002 0.254820698197929
0.200000000000002 1 0.259497521882405
0.200000000000002 1.2 0.264174345566882
0.200000000000002 1.4 0.262376074012545
0.200000000000002 1.6 0.231439873883548
0.200000000000002 1.8 0.200503673754551
0.200000000000002 2 0.169567473625554
0.200000000000002 2.2 0.138631273496556
0.200000000000002 2.4 0.113257544156976
0.200000000000002 2.6 0.091062369554206
0.200000000000002 2.8 0.0688671949514358
0.200000000000002 3 0.0466720203486655
0.200000000000002 3.2 0.0260129269856697
0.200000000000002 3.4 0.0207146460204152
0.200000000000002 3.6 0.0154163650551606
0.200000000000002 3.8 0.0101180840899061
0.200000000000002 4 0.00481980312465162
0.200000000000002 4.2 0.00213364027367074
0.200000000000002 4.4 0.00162424251791777
0.200000000000002 4.6 0.0011148447621648
0.200000000000002 4.8 0.000605447006411823
0.400000000000002 -5 5.04845809096432E-09
0.400000000000002 -4.8 1.75728595951581E-07
0.400000000000002 -4.6 3.46408733812198E-07
0.400000000000002 -4.4 5.17088871672815E-07
0.400000000000002 -4.2 6.87769009533432E-07
0.400000000000002 -4 5.98814111578117E-06
0.400000000000002 -3.8 1.74441435840934E-05
0.400000000000002 -3.6 2.89001460524057E-05
0.400000000000002 -3.4 4.03561485207179E-05
0.400000000000002 -3.2 5.18121509890301E-05
0.400000000000002 -3 0.00035538136531439
0.400000000000002 -2.8 0.000688161900825453
0.400000000000002 -2.6 0.00102094243633652
0.400000000000002 -2.4 0.00135372297184758
0.400000000000002 -2.2 0.00306354346917354
0.400000000000002 -2 0.00718318389967545
0.400000000000002 -1.8 0.0113028243301774
0.400000000000002 -1.6 0.0154224647606793
0.400000000000002 -1.4 0.0195421051911812
0.400000000000002 -1.2 0.0373550647399502
0.400000000000002 -0.999999999999998 0.0582109840927782
0.400000000000002 -0.799999999999998 0.0790669034456063
0.400000000000002 -0.599999999999998 0.0999228227984344
0.400000000000002 -0.399999999999998 0.125325084332143
0.400000000000002 -0.199999999999998 0.162850925014866
0.400000000000002 2.16493489801906E-15 0.20037676569759
0.400000000000002 0.200000000000002 0.237902606380313
0.400000000000002 0.400000000000002 0.275428447063036
0.400000000000002 0.600000000000002 0.28960060567572
0.400000000000002 0.800000000000002 0.29501513351214
0.400000000000002 1 0.30042966134856
0.400000000000002 1.2 0.30584418918498
0.400000000000002 1.4 0.303762265202958
0.400000000000002 1.6 0.26794630803795
0.400000000000002 1.8 0.232130350872943
0.400000000000002 2 0.196314393707935
0.400000000000002 2.2 0.160498436542927
0.400000000000002 2.4 0.131122352881926
0.400000000000002 2.6 0.105426196937499
0.400000000000002 2.8 0.0797300409930733
0.400000000000002 3 0.0540338850486471
0.400000000000002 3.2 0.0301161058814699
0.400000000000002 3.4 0.0239820944867781
0.400000000000002 3.6 0.0178480830920864
0.400000000000002 3.8 0.0117140716973947
0.400000000000002 4 0.00558006030270303
0.400000000000002 4.2 0.0024701924712369
0.400000000000002 4.4 0.00188044427579196
0.400000000000002 4.6 0.00129069608034702
0.400000000000002 4.8 0.00070094788490208
0.600000000000002 -5 5.30822627968341E-09
0.600000000000002 -4.8 1.84770703116499E-07
0.600000000000002 -4.6 3.64233179953314E-07
0.600000000000002 -4.4 5.43695656790129E-07
0.600000000000002 -4.2 7.23158133626944E-07
0.600000000000002 -4 6.29626065315263E-06
0.600000000000002 -3.8 1.83417312239048E-05
0.600000000000002 -3.6 3.03872017946569E-05
0.600000000000002 -3.4 4.24326723654091E-05
0.600000000000002 -3.2 5.44781429361613E-05
0.600000000000002 -3 0.000373667497814259
0.600000000000002 -2.8 0.000723571241123089
0.600000000000002 -2.6 0.00107347498443192
0.600000000000002 -2.4 0.00142337872774075
0.600000000000002 -2.2 0.00322117796344944
0.600000000000002 -2 0.00755279431085777
0.600000000000002 -1.8 0.0118844106582661
0.600000000000002 -1.6 0.0162160270056744
0.600000000000002 -1.4 0.0205476433530828
0.600000000000002 -1.2 0.0392771679508814
0.600000000000002 -0.999999999999998 0.0612062277154331
0.600000000000002 -0.799999999999998 0.0831352874799847
0.600000000000002 -0.599999999999998 0.105064347244536
0.600000000000002 -0.399999999999998 0.131773681026647
0.600000000000002 -0.199999999999998 0.171230412188916
0.600000000000002 2.16493489801906E-15 0.210687143351184
0.600000000000002 0.200000000000002 0.250143874513452
0.600000000000002 0.400000000000002 0.28960060567572
0.600000000000002 0.600000000000002 0.304501992085623
0.600000000000002 0.800000000000002 0.310195124213389
0.600000000000002 1 0.315888256341155
0.600000000000002 1.2 0.321581388468921
0.600000000000002 1.4 0.3193923391801
0.600000000000002 1.6 0.281733473516641
0.600000000000002 1.8 0.244074607853183
0.600000000000002 2 0.206415742189724
0.600000000000002 2.2 0.168756876526265
0.600000000000002 2.4 0.137869247774325
0.600000000000002 2.6 0.110850897257537
0.600000000000002 2.8 0.0838325467407495
0.600000000000002 3 0.0568141962239619
0.600000000000002 3.2 0.03166572878317
0.600000000000002 3.4 0.0252160921023302
0.600000000000002 3.6 0.0187664554214904
0.600000000000002 3.8 0.0123168187406507
0.600000000000002 4 0.00586718205981096
0.600000000000002 4.2 0.00259729611604747
0.600000000000002 4.4 0.00197720245318073
0.600000000000002 4.6 0.00135710879031398
0.600000000000002 4.8 0.000737015127447235
0.800000000000002 -5 5.40747171767702E-09
0.800000000000002 -4.8 1.88225275019223E-07
0.800000000000002 -4.6 3.71043078320769E-07
0.800000000000002 -4.4 5.53860881622315E-07
0.800000000000002 -4.2 7.36678684923861E-07
0.800000000000002 -4 6.41397891030996E-06
0.800000000000002 -3.8 1.86846580421973E-05
0.800000000000002 -3.6 3.09553371740847E-05
0.800000000000002 -3.4 4.32260163059721E-05
0.800000000000002 -3.2 5.54966954378594E-05
0.800000000000002 -3 0.000380653785235032
0.800000000000002 -2.8 0.000737099516098732
0.800000000000002 -2.6 0.00109354524696243
0.800000000000002 -2.4 0.00144999097782613
0.800000000000002 -2.2 0.00328140282972162
0.800000000000002 -2 0.00769400539342259
0.800000000000002 -1.8 0.0121066079571236
0.800000000000002 -1.6 0.0165192105208245
0.800000000000002 -1.4 0.0209318130845255
0.800000000000002 -1.2 0.0400115148929728
0.800000000000002 -0.999999999999998 0.0623505720891412
0.800000000000002 -0.799999999999998 0.0846896292853095
0.800000000000002 -0.599999999999998 0.107028686481478
0.800000000000002 -0.399999999999998 0.134237392255295
0.800000000000002 -0.199999999999998 0.174431827569506
0.800000000000002 2.16493489801906E-15 0.214626262883717
0.800000000000002 0.200000000000002 0.254820698197929
0.800000000000002 0.400000000000002 0.29501513351214
0.800000000000002 0.600000000000002 0.310195124213389
0.800000000000002 0.800000000000002 0.315994698184777
0.800000000000002 1 0.321794272156165
0.800000000000002 1.2 0.327593846127553
0.800000000000002 1.4 0.325363869202265
0.800000000000002 1.6 0.287000913241941
0.800000000000002 1.8 0.248637957281616
0.800000000000002 2 0.210275001321292
0.800000000000002 2.2 0.171912045360967
0.800000000000002 2.4 0.140446924979517
0.800000000000002 2.6 0.112923424928854
0.800000000000002 2.8 0.0853999248781904
0.800000000000002 3 0.0578764248275268
0.800000000000002 3.2 0.0322577681870826
0.800000000000002 3.4 0.0256875456488282
0.800000000000002 3.6 0.0191173231105739
0.800000000000002 3.8 0.0125471005723195
0.800000000000002 4 0.00597687803406511
0.800000000000002 4.2 0.0026458565535747
0.800000000000002 4.4 0.00201416928788746
0.800000000000002 4.6 0.00138248202220022
0.800000000000002 4.8 0.000750794756512976
1 -5 5.50671715566984E-09
1 -4.8 1.91679846921947E-07
1 -4.6 3.77852976688224E-07
1 -4.4 5.640261064545E-07
1 -4.2 7.50199236220777E-07
1 -4 6.53169716746729E-06
1 -3.8 1.90275848604899E-05
1 -3.6 3.15234725535125E-05
1 -3.4 4.4019360246535E-05
1 -3.2 5.65152479395576E-05
1 -3 0.000387640072655806
1 -2.8 0.000750627791074375
1 -2.6 0.00111361550949294
1 -2.4 0.00147660322791151
1 -2.2 0.00334162769599379
1 -2 0.0078352164759874
1 -1.8 0.012328805255981
1 -1.6 0.0168223940359746
1 -1.4 0.0213159828159683
1 -1.2 0.0407458618350642
1 -0.999999999999998 0.0634949164628493
1 -0.799999999999998 0.0862439710906343
1 -0.599999999999998 0.108993025718419
1 -0.399999999999998 0.136701103483942
1 -0.199999999999998 0.177633242950096
1 2.16493489801906E-15 0.218565382416251
1 0.200000000000002 0.259497521882405
1 0.400000000000002 0.30042966134856
1 0.600000000000002 0.315888256341155
1 0.800000000000002 0.321794272156165
1 1 0.327700287971175
1 1.2 0.333606303786185
1 1.4 0.331335399224431
1 1.6 0.29226835296724
1 1.8 0.25320130671005
1 2 0.214134260452859
1 2.2 0.175067214195668
1 2.4 0.14302460218471
1 2.6 0.114995952600171
1 2.8 0.0869673030156312
1 3 0.0589386534310917
1 3.2 0.0328498075909953
1 3.4 0.0261589991953263
1 3.6 0.0194681907996572
1 3.8 0.0127773824039882
1 4 0.00608657400831925
1 4.2 0.00269441699110193
1 4.4 0.0020511361225942
1 4.6 0.00140785525408646
1 4.8 0.000764574385578718
1.2 -5 5.60596259366361E-09
1.2 -4.8 1.95134418824671E-07
1.2 -4.6 3.84662875055679E-07
1.2 -4.4 5.74191331286686E-07
1.2 -4.2 7.63719787517694E-07
1.2 -4 6.64941542462462E-06
1.2 -3.8 1.93705116787824E-05
1.2 -3.6 3.20916079329402E-05
1.2 -3.4 4.4812704187098E-05
1.2 -3.2 5.75338004412558E-05
1.2 -3 0.000394626360076579
1.2 -2.8 0.000764156066050018
1.2 -2.6 0.00113368577202346
1.2 -2.4 0.00150321547799689
1.2 -2.2 0.00340185256226596
1.2 -2 0.00797642755855221
1.2 -1.8 0.0125510025548385
1.2 -1.6 0.0171255775511247
1.2 -1.4 0.021700152547411
1.2 -1.2 0.0414802087771556
1.2 -0.999999999999998 0.0646392608365574
1.2 -0.799999999999998 0.0877983128959591
1.2 -0.599999999999998 0.110957364955361
1.2 -0.399999999999998 0.139164814712589
1.2 -0.199999999999998 0.180834658330687
1.2 2.16493489801906E-15 0.222504501948784
1.2 0.200000000000002 0.264174345566882
1.2 0.400000000000002 0.30584418918498
1.2 0.600000000000002 0.321581388468921
1.2 0.800000000000002 0.327593846127553
1.2 1 0.333606303786185
1.2 1.2 0.339618761444817
1.2 1.4 0.337306929246597
1.2 1.6 0.29753579269254
1.2 1.8 0.257764656138483
1.2 2 0.217993519584427
1.2 2.2 0.17822238303037
1.2 2.4 0.145602279389903
1.2 2.6 0.117068480271488
1.2 2.8 0.0885346811530721
1.2 3 0.0600008820346566
1.2 3.2 0.0334418469949079
1.2 3.4 0.0266304527418243
1.2 3.6 0.0198190584887407
1.2 3.8 0.013007664235657
1.2 4 0.0061962699825734
1.2 4.2 0.00274297742862917
1.2 4.4 0.00208810295730093
1.2 4.6 0.0014332284859727
1.2 4.8 0.000778354014644463
1.4 -5 5.56780202570182E-09
1.4 -4.8 1.93806111664896E-07
1.4 -4.6 3.8204442130409E-07
1.4 -4.4 5.70282730943285E-07
1.4 -4.2 7.58521040582479E-07
1.4 -4 6.60415192795335E-06
1.4 -3.8 1.92386539086031E-05
1.4 -3.6 3.18731558892528E-05
1.4 -3.4 4.45076578699025E-05
1.4 -3.2 5.71421598505523E-05
1.4 -3 0.00039194008349513
1.4 -2.8 0.000758954349306091
1.4 -2.6 0.00112596861511705
1.4 -2.4 0.00149298288092802
1.4 -2.2 0.0033786956781952
1.4 -2 0.0079221309055105
1.4 -1.8 0.0124655661328258
1.4 -1.6 0.0170090013601411
1.4 -1.4 0.0215524365874564
1.4 -1.2 0.0411978472202381
1.4 -0.999999999999998 0.0641992523875676
1.4 -0.799999999999998 0.0872006575548971
1.4 -0.599999999999998 0.110202062722227
1.4 -0.399999999999998 0.138217500441306
1.4 -0.199999999999998 0.179603691631719
1.4 2.16493489801906E-15 0.220989882822132
1.4 0.200000000000002 0.262376074012545
1.4 0.400000000000002 0.303762265202958
1.4 0.600000000000002 0.3193923391801
1.4 0.800000000000002 0.325363869202265
1.4 1 0.331335399224431
1.4 1.2 0.337306929246597
1.4 1.4 0.335010834012052
1.4 1.6 0.295510425122317
1.4 1.8 0.256010016232581
1.4 2 0.216509607342845
1.4 2.2 0.177009198453109
1.4 2.4 0.144611144400199
1.4 2.6 0.116271578825475
1.4 2.8 0.0879320132507511
1.4 3 0.059592447676027
1.4 3.2 0.0332142036859168
1.4 3.4 0.0264491755419434
1.4 3.6 0.0196841473979701
1.4 3.8 0.0129191192539967
1.4 4 0.00615409111002342
1.4 4.2 0.00272430559933588
1.4 4.4 0.00207388894971976
1.4 4.6 0.00142347230010364
1.4 4.8 0.000773055650487516
1.6 -5 4.9113144309618E-09
1.6 -4.8 1.70954848723895E-07
1.6 -4.6 3.36998383016829E-07
1.6 -4.4 5.03041917309763E-07
1.6 -4.2 6.69085451602697E-07
1.6 -4 5.8254705390562E-06
1.6 -3.8 1.69702654903032E-05
1.6 -3.6 2.81150604415501E-05
1.6 -3.4 3.92598553927971E-05
1.6 -3.2 5.0404650344044E-05
1.6 -3 0.000345727268903653
1.6 -2.8 0.000669467669824092
1.6 -2.6 0.000993208070744531
1.6 -2.4 0.00131694847166497
1.6 -2.2 0.00298032091758105
1.6 -2 0.00698804944223931
1.6 -1.8 0.0109957779668976
1.6 -1.6 0.0150035064915558
1.6 -1.4 0.0190112350162141
1.6 -1.2 0.0363402974177809
1.6 -0.999999999999998 0.0566296562364383
1.6 -0.799999999999998 0.0769190150550956
1.6 -0.599999999999998 0.097208373873753
1.6 -0.399999999999998 0.121920571420341
1.6 -0.199999999999998 0.158427005574743
1.6 2.16493489801906E-15 0.194933439729146
1.6 0.200000000000002 0.231439873883548
1.6 0.400000000000002 0.26794630803795
1.6 0.600000000000002 0.281733473516641
1.6 0.800000000000002 0.287000913241941
1.6 1 0.29226835296724
1.6 1.2 0.29753579269254
1.6 1.4 0.295510425122317
1.6 1.6 0.260667424722242
1.6 1.8 0.225824424322168
1.6 2 0.190981423922094
1.6 2.2 0.156138423522019
1.6 2.4 0.12756035453346
1.6 2.6 0.102562246351481
1.6 2.8 0.0775641381695011
1.6 3 0.0525660299875215
1.6 3.2 0.0292979881688583
1.6 3.4 0.0233306099833574
1.6 3.6 0.0173632317978565
1.6 3.8 0.0113958536123555
1.6 4 0.0054284754268546
1.6 4.2 0.00240308856935024
1.6 4.4 0.00182936115184297
1.6 4.6 0.00125563373433569
1.6 4.8 0.000681906316828415
1.8 -5 4.25482683622177E-09
1.8 -4.8 1.48103585782895E-07
1.8 -4.6 2.91952344729568E-07
1.8 -4.4 4.35801103676242E-07
1.8 -4.2 5.79649862622915E-07
1.8 -4 5.04678915015894E-06
1.8 -3.8 1.47018770720031E-05
1.8 -3.6 2.43569649938473E-05
1.8 -3.4 3.40120529156915E-05
1.8 -3.2 4.36671408375356E-05
1.8 -3 0.000299514454312177
1.8 -2.8 0.000579980990342092
1.8 -2.6 0.000860447526372007
1.8 -2.4 0.00114091406240192
1.8 -2.2 0.00258194615696693
1.8 -2 0.00605396797896814
1.8 -1.8 0.00952598980096936
1.8 -1.6 0.0129980116229706
1.8 -1.4 0.0164700334449718
1.8 -1.2 0.0314827476153237
1.8 -0.999999999999998 0.0490600600853089
1.8 -0.799999999999998 0.0666373725552941
1.8 -0.599999999999998 0.0842146850252794
1.8 -0.399999999999998 0.105623642399376
1.8 -0.199999999999998 0.137250319517767
1.8 2.16493489801906E-15 0.168876996636159
1.8 0.200000000000002 0.200503673754551
1.8 0.400000000000002 0.232130350872943
1.8 0.600000000000002 0.244074607853183
1.8 0.800000000000002 0.248637957281616
1.8 1 0.25320130671005
1.8 1.2 0.257764656138483
1.8 1.4 0.256010016232581
1.8 1.6 0.225824424322168
1.8 1.8 0.195638832411755
1.8 2 0.165453240501343
1.8 2.2 0.13526764859093
1.8 2.4 0.110509564666721
1.8 2.6 0.0888529138774862
1.8 2.8 0.0671962630882512
1.8 3 0.0455396122990161
1.8 3.2 0.0253817726517999
1.8 3.4 0.0202120444247714
1.8 3.6 0.0150423161977428
1.8 3.8 0.0098725879707143
1.8 4 0.00470285974368578
1.8 4.2 0.0020818715393646
1.8 4.4 0.00158483335396617
1.8 4.6 0.00108779516856775
1.8 4.8 0.000590756983169318
2 -5 3.59833924148175E-09
2 -4.8 1.25252322841895E-07
2 -4.6 2.46906306442307E-07
2 -4.4 3.68560290042721E-07
2 -4.2 4.90214273643133E-07
2 -4 4.26810776126175E-06
2 -3.8 1.24334886537031E-05
2 -3.6 2.05988695461445E-05
2 -3.4 2.8764250438586E-05
2 -3.2 3.69296313310273E-05
2 -3 0.000253301639720703
2 -2.8 0.000490494310860094
2 -2.6 0.000727686981999484
2 -2.4 0.000964879653138876
2 -2.2 0.0021835713963528
2 -2 0.00511988651569696
2 -1.8 0.00805620163504113
2 -1.6 0.0109925167543853
2 -1.4 0.0139288318737295
2 -1.2 0.0266251978128664
2 -0.999999999999998 0.0414904639341795
2 -0.799999999999998 0.0563557300554926
2 -0.599999999999998 0.0712209961768057
2 -0.399999999999998 0.0893267133784102
2 -0.199999999999998 0.116073633460791
2 2.16493489801906E-15 0.142820553543172
2 0.200000000000002 0.169567473625554
2 0.400000000000002 0.196314393707935
2 0.600000000000002 0.206415742189724
2 0.800000000000002 0.210275001321292
2 1 0.214134260452859
2 1.2 0.217993519584427
2 1.4 0.216509607342845
2 1.6 0.190981423922094
2 1.8 0.165453240501343
2 2 0.139925057080591
2 2.2 0.11439687365984
2 2.4 0.0934587747999822
2 2.6 0.0751435814034916
2 2.8 0.0568283880070011
2 3 0.0385131946105106
2 3.2 0.0214655571347415
2 3.4 0.0170934788661854
2 3.6 0.0127214005976292
2 3.8 0.00834932232907307
2 4 0.00397724406051694
2 4.2 0.00176065450937896
2 4.4 0.00134030555608938
2 4.6 0.000919956602799799
2 4.8 0.000499607649510223
2.2 -5 2.94185164674173E-09
2.2 -4.8 1.02401059900894E-07
2.2 -4.6 2.01860268155046E-07
2.2 -4.4 3.01319476409199E-07
2.2 -4.2 4.00778684663351E-07
2.2 -4 3.48942637236452E-06
2.2 -3.8 1.01651002354031E-05
2.2 -3.6 1.68407740984418E-05
2.2 -3.4 2.35164479614804E-05
2.2 -3.2 3.0192121824519E-05
2.2 -3 0.000207088825129226
2.2 -2.8 0.000401007631378094
2.2 -2.6 0.000594926437626962
2.2 -2.4 0.000788845243875829
2.2 -2.2 0.00178519663573866
2.2 -2 0.00418580505242577
2.2 -1.8 0.00658641346911289
2.2 -1.6 0.0089870218858
2.2 -1.4 0.0113876303024871
2.2 -1.2 0.0217676480104093
2.2 -0.999999999999998 0.0339208677830502
2.2 -0.799999999999998 0.0460740875556911
2.2 -0.599999999999998 0.058227307328332
2.2 -0.399999999999998 0.0730297843574447
2.2 -0.199999999999998 0.0948969474038153
2.2 2.16493489801906E-15 0.116764110450186
2.2 0.200000000000002 0.138631273496556
2.2 0.400000000000002 0.160498436542927
2.2 0.600000000000002 0.168756876526265
2.2 0.800000000000002 0.171912045360967
2.2 1 0.175067214195668
2.2 1.2 0.17822238303037
2.2 1.4 0.177009198453109
2.2 1.6 0.156138423522019
2.2 1.8 0.13526764859093
2.2 2 0.11439687365984
2.2 2.2 0.0935260987287503
2.2 2.4 0.0764079849332431
2.2 2.6 0.0614342489294972
2.2 2.8 0.0464605129257512
2.2 3 0.0314867769220052
2.2 3.2 0.0175493416176831
2.2 3.4 0.0139749133075994
2.2 3.6 0.0104004849975156
2.2 3.8 0.00682605668743189
2.2 4 0.00325162837734816
2.2 4.2 0.00143943747939332
2.2 4.4 0.00109577775821259
2.2 4.6 0.000752118037031853
2.2 4.8 0.000408458315851123
2.4 -5 2.40340353500965E-09
2.4 -4.8 8.36585589306804E-08
2.4 -4.6 1.64913714326352E-07
2.4 -4.4 2.46168869722023E-07
2.4 -4.2 3.27424025117696E-07
2.4 -4 2.85075547156724E-06
2.4 -3.8 8.3045784672815E-06
2.4 -3.6 1.37584014629957E-05
2.4 -3.4 1.921222445871E-05
2.4 -3.2 2.46660474544242E-05
2.4 -3 0.000169185286731655
2.4 -2.8 0.000327611067637034
2.4 -2.6 0.000486036848542415
2.4 -2.4 0.000644462629447794
2.4 -2.2 0.0014584514857398
2.4 -2 0.00341967572395834
2.4 -1.8 0.00538089996217688
2.4 -1.6 0.00734212420039542
2.4 -1.4 0.00930334843861397
2.4 -1.2 0.0177835079600109
2.4 -0.999999999999998 0.0277123197665583
2.4 -0.799999999999998 0.0376411315731058
2.4 -0.599999999999998 0.0475699433796532
2.4 -0.399999999999998 0.0596631179821285
2.4 -0.199999999999998 0.0775279267070778
2.4 2.16493489801906E-15 0.0953927354320271
2.4 0.200000000000002 0.113257544156976
2.4 0.400000000000002 0.131122352881926
2.4 0.600000000000002 0.137869247774324
2.4 0.800000000000002 0.140446924979517
2.4 1 0.14302460218471
2.4 1.2 0.145602279389903
2.4 1.4 0.144611144400199
2.4 1.6 0.12756035453346
2.4 1.8 0.110509564666721
2.4 2 0.093458774799982
2.4 2.2 0.0764079849332431
2.4 2.4 0.0624230053526654
2.4 2.6 0.0501899173641799
2.4 2.8 0.0379568293756944
2.4 3 0.0257237413872089
2.4 3.2 0.0143372796271684
2.4 3.4 0.0114170801515767
2.4 3.6 0.00849688067598499
2.4 3.8 0.00557668120039329
2.4 4 0.00265648172480157
2.4 4.2 0.00117597674587939
2.4 4.4 0.000895217180848284
2.4 4.6 0.000614457615817184
2.4 4.8 0.000333698050786081
2.6 -5 1.93240655641844E-09
2.6 -4.8 6.72639219437693E-08
2.6 -4.6 1.3259543733112E-07
2.6 -4.4 1.97926952718472E-07
2.6 -4.2 2.63258468105823E-07
2.6 -4 2.29209056396918E-06
2.6 -3.8 6.67712335640389E-06
2.6 -3.6 1.10621561488385E-05
2.6 -3.4 1.54471889412732E-05
2.6 -3.2 1.98322217337078E-05
2.6 -3 0.000136029906159177
2.6 -2.8 0.000263408855747946
2.6 -2.6 0.000390787805336717
2.6 -2.4 0.000518166754925487
2.6 -2.2 0.00117263754180685
2.6 -2 0.00274951904395024
2.6 -1.8 0.00432640054609362
2.6 -1.6 0.005903282048237
2.6 -1.4 0.00748016355038039
2.6 -1.2 0.0142984591965031
2.6 -0.999999999999998 0.0222815135412878
2.6 -0.799999999999998 0.0302645678860724
2.6 -0.599999999999998 0.0382476222308571
2.6 -0.399999999999998 0.0479708874043259
2.6 -0.199999999999998 0.0623347147876193
2.6 2.16493489801906E-15 0.0766985421709127
2.6 0.200000000000002 0.0910623695542061
2.6 0.400000000000002 0.105426196937499
2.6 0.600000000000002 0.110850897257537
2.6 0.800000000000002 0.112923424928854
2.6 1 0.114995952600171
2.6 1.2 0.117068480271488
2.6 1.4 0.116271578825475
2.6 1.6 0.102562246351481
2.6 1.8 0.0888529138774861
2.6 2 0.0751435814034916
2.6 2.2 0.0614342489294971
2.6 2.4 0.0501899173641799
2.6 2.6 0.0403541577466784
2.6 2.8 0.0305183981291768
2.6 3 0.0206826385116753
2.6 3.2 0.0115275910803932
2.6 3.4 0.00917966551130475
2.6 3.6 0.00683173994221625
2.6 3.8 0.00448381437312781
2.6 4 0.00213588880403934
2.6 4.2 0.000945519610349291
2.6 4.4 0.00071978072949112
2.6 4.6 0.000494041848632956
2.6 4.8 0.000268302967774785
2.8 -5 1.46140957782977E-09
2.8 -4.8 5.08692849568598E-08
2.8 -4.6 1.00277160335891E-07
2.8 -4.4 1.49685035714921E-07
2.8 -4.2 1.99092911093952E-07
2.8 -4 1.73342565637117E-06
2.8 -3.8 5.04966824552627E-06
2.8 -3.6 8.36591083468131E-06
2.8 -3.4 1.16821534238364E-05
2.8 -3.2 1.49983960129915E-05
2.8 -3 0.000102874525586698
2.8 -2.8 0.000199206643858857
2.8 -2.6 0.000295538762131018
2.8 -2.4 0.000391870880403178
2.8 -2.2 0.000886823597873912
2.8 -2 0.00207936236394214
2.8 -1.8 0.00327190113001036
2.8 -1.6 0.00446443989607857
2.8 -1.4 0.0056569786621468
2.8 -1.2 0.0108134104329954
2.8 -0.999999999999998 0.0168507073160172
2.8 -0.799999999999998 0.0228880041990391
2.8 -0.599999999999998 0.0289253010820609
2.8 -0.399999999999998 0.0362786568265233
2.8 -0.199999999999998 0.0471415028681608
2.8 2.16493489801906E-15 0.0580043489097983
2.8 0.200000000000002 0.0688671949514358
2.8 0.400000000000002 0.0797300409930733
2.8 0.600000000000002 0.0838325467407494
2.8 0.800000000000002 0.0853999248781902
2.8 1 0.0869673030156311
2.8 1.2 0.088534681153072
2.8 1.4 0.087932013250751
2.8 1.6 0.077564138169501
2.8 1.8 0.0671962630882511
2.8 2 0.056828388007001
2.8 2.2 0.0464605129257512
2.8 2.4 0.0379568293756944
2.8 2.6 0.0305183981291769
2.8 2.8 0.0230799668826593
2.8 3 0.0156415356361417
2.8 3.2 0.00871790253361795
2.8 3.4 0.00694225087103276
2.8 3.6 0.0051665992084475
2.8 3.8 0.00339094754586228
2.8 4 0.00161529588327705
2.8 4.2 0.00071506247481919
2.8 4.4 0.000544344278133956
2.8 4.6 0.000373626081448721
2.8 4.8 0.000202907884763487
3 -5 9.90412599240258E-10
3 -4.8 3.44746479699496E-08
3 -4.6 6.79588833406598E-08
3 -4.4 1.0144311871137E-07
3 -4.2 1.3492735408208E-07
3 -4 1.17476074877311E-06
3 -3.8 3.4222131346486E-06
3 -3.6 5.66966552052408E-06
3 -3.4 7.91711790639962E-06
3 -3.2 1.01645702922751E-05
3 -3 6.97191450142196E-05
3 -2.8 0.000135004431969769
3 -2.6 0.00020028971892532
3 -2.4 0.000265575005880871
3 -2.2 0.00060100965394097
3 -2 0.00140920568393403
3 -1.8 0.00221740171392708
3 -1.6 0.00302559774392015
3 -1.4 0.00383379377391321
3 -1.2 0.00732836166948764
3 -0.999999999999998 0.0114199010907466
3 -0.799999999999998 0.0155114405120057
3 -0.599999999999998 0.0196029799332647
3 -0.399999999999998 0.0245864262487207
3 -0.199999999999998 0.0319482909487023
3 2.16493489801906E-15 0.0393101556486839
3 0.200000000000002 0.0466720203486655
3 0.400000000000002 0.0540338850486471
3 0.600000000000002 0.0568141962239618
3 0.800000000000002 0.0578764248275267
3 1 0.0589386534310916
3 1.2 0.0600008820346564
3 1.4 0.0595924476760269
3 1.6 0.0525660299875214
3 1.8 0.045539612299016
3 2 0.0385131946105105
3 2.2 0.0314867769220051
3 2.4 0.025723741387209
3 2.6 0.0206826385116753
3 2.8 0.0156415356361417
3 3 0.0106004327606081
3 3.2 0.00590821398684274
3 3.4 0.00470483623076079
3 3.6 0.00350145847467878
3 3.8 0.0022980807185968
3 4 0.00109470296251479
3 4.2 0.000484605339289089
3 4.4 0.000368907826776788
3 4.6 0.00025321031426449
3 4.8 0.000137512801752188
3.2 -5 5.52012328525786E-10
3.2 -4.8 1.92146492437967E-08
3.2 -4.6 3.78772861590669E-08
3.2 -4.4 5.65399230743372E-08
3.2 -4.2 7.52025599896074E-08
3.2 -4 6.54759861586763E-07
3.2 -3.8 1.90739076080215E-06
3.2 -3.6 3.16002166001755E-06
3.2 -3.4 4.41265255923295E-06
3.2 -3.2 5.66528345844834E-06
3.2 -3 3.88583784290805E-05
3.2 -2.8 7.52455198068541E-05
3.2 -2.6 0.000111632661184628
3.2 -2.4 0.000148019802562402
3.2 -2.2 0.000334976290480994
3.2 -2 0.000785429134845994
3.2 -1.8 0.00123588197921099
3.2 -1.6 0.00168633482357599
3.2 -1.4 0.00213678766794099
3.2 -1.2 0.00408450578331159
3.2 -0.999999999999998 0.00636494951446118
3.2 -0.799999999999998 0.00864539324561076
3.2 -0.599999999999998 0.0109258369767603
3.2 -0.399999999999998 0.0137033902982692
3.2 -0.199999999999998 0.0178065691940693
3.2 2.16493489801906E-15 0.0219097480898695
3.2 0.200000000000002 0.0260129269856697
3.2 0.400000000000002 0.0301161058814698
3.2 0.600000000000002 0.0316657287831699
3.2 0.800000000000002 0.0322577681870826
3.2 1 0.0328498075909953
3.2 1.2 0.0334418469949079
3.2 1.4 0.0332142036859167
3.2 1.6 0.0292979881688583
3.2 1.8 0.0253817726517999
3.2 2 0.0214655571347415
3.2 2.2 0.017549341617683
3.2 2.4 0.0143372796271685
3.2 2.6 0.0115275910803932
3.2 2.8 0.00871790253361804
3.2 3 0.0059082139868428
3.2 3.2 0.00329297806067335
3.2 3.4 0.00262226834056082
3.2 3.6 0.00195155862044829
3.2 3.8 0.00128084890033577
3.2 4 0.000610139180223235
3.2 4.2 0.000270097656232127
3.2 4.4 0.000205612962342245
3.2 4.6 0.000141128268452363
3.2 4.8 7.66435745624796E-05
3.4 -5 4.39579136581235E-10
3.4 -4.8 1.53010331252208E-08
3.4 -4.6 3.01624871138598E-08
3.4 -4.4 4.50239411024989E-08
3.4 -4.2 5.98853950911379E-08
3.4 -4 5.21399178516824E-07
3.4 -3.8 1.51889575726691E-06
3.4 -3.6 2.51639233601699E-06
3.4 -3.4 3.51388891476708E-06
3.4 -3.2 4.51138549351716E-06
3.4 -3 3.09437517173354E-05
3.4 -2.8 5.99196049056604E-05
3.4 -2.6 8.88954580939858E-05
3.4 -2.4 0.000117871311282311
3.4 -2.2 0.000266748731750491
3.4 -2 0.000625453894958402
3.4 -1.8 0.000984159058166314
3.4 -1.6 0.00134286422137423
3.4 -1.4 0.00170156938458214
3.4 -1.2 0.00325257867045291
3.4 -0.999999999999998 0.00506854442802651
3.4 -0.799999999999998 0.00688451018560012
3.4 -0.599999999999998 0.00870047594317372
3.4 -0.399999999999998 0.0109123006213262
3.4 -0.199999999999998 0.0141797490876892
3.4 2.16493489801906E-15 0.0174471975540522
3.4 0.200000000000002 0.0207146460204151
3.4 0.400000000000002 0.0239820944867781
3.4 0.600000000000002 0.0252160921023302
3.4 0.800000000000002 0.0256875456488282
3.4 1 0.0261589991953263
3.4 1.2 0.0266304527418243
3.4 1.4 0.0264491755419434
3.4 1.6 0.0233306099833574
3.4 1.8 0.0202120444247713
3.4 2 0.0170934788661853
3.4 2.2 0.0139749133075993
3.4 2.4 0.0114170801515767
3.4 2.6 0.00917966551130475
3.4 2.8 0.00694225087103278
3.4 3 0.00470483623076079
3.4 3.2 0.00262226834056081
3.4 3.4 0.00208816795107997
3.4 3.6 0.00155406756159913
3.4 3.8 0.0010199671721183
3.4 4 0.000485866782637463
3.4 4.2 0.000215084497906542
3.4 4.4 0.000163733967133915
3.4 4.6 0.000112383436361287
3.4 4.8 6.10329055886595E-05
3.6 -5 3.27145944636895E-10
3.6 -4.8 1.1387417006645E-08
3.6 -4.6 2.24476880686528E-08
3.6 -4.4 3.35079591306605E-08
3.6 -4.2 4.45682301926684E-08
3.6 -4 3.88038495446845E-07
3.6 -3.8 1.13040075373163E-06
3.6 -3.6 1.87276301201639E-06
3.6 -3.4 2.61512527030117E-06
3.6 -3.2 3.35748752858594E-06
3.6 -3 2.30291250055904E-05
3.6 -2.8 4.45936900044669E-05
3.6 -2.6 6.61582550033435E-05
3.6 -2.4 8.77228200022201E-05
3.6 -2.2 0.000198521173019987
3.6 -2 0.000465478655070812
3.6 -1.8 0.000732436137121636
3.6 -1.6 0.000999393619172459
3.6 -1.4 0.00126635110122328
3.6 -1.2 0.00242065155759422
3.6 -0.999999999999998 0.00377213934159185
3.6 -0.799999999999998 0.00512362712558947
3.6 -0.599999999999998 0.00647511490958709
3.6 -0.399999999999998 0.00812121094438328
3.6 -0.199999999999998 0.0105529289813091
3.6 2.16493489801906E-15 0.0129846470182348
3.6 0.200000000000002 0.0154163650551606
3.6 0.400000000000002 0.0178480830920864
3.6 0.600000000000002 0.0187664554214904
3.6 0.800000000000002 0.0191173231105738
3.6 1 0.0194681907996572
3.6 1.2 0.0198190584887406
3.6 1.4 0.01968414739797
3.6 1.6 0.0173632317978564
3.6 1.8 0.0150423161977428
3.6 2 0.0127214005976292
3.6 2.2 0.0104004849975156
3.6 2.4 0.00849688067598506
3.6 2.6 0.00683173994221631
3.6 2.8 0.00516659920844759
3.6 3 0.00350145847467884
3.6 3.2 0.00195155862044829
3.6 3.4 0.00155406756159913
3.6 3.6 0.00115657650274999
3.6 3.8 0.000759085443900846
3.6 4 0.000361594385051699
3.6 4.2 0.000160071339580957
3.6 4.4 0.000121854971925585
3.6 4.6 8.36386042702125E-05
3.6 4.8 4.54222366148395E-05
3.8 -5 2.14712752692343E-10
3.8 -4.8 7.47380088806912E-09
3.8 -4.6 1.47328890234457E-08
3.8 -4.4 2.19919771588222E-08
3.8 -4.2 2.92510652941988E-08
3.8 -4 2.54677812376892E-07
3.8 -3.8 7.4190575019636E-07
3.8 -3.6 1.22913368801581E-06
3.8 -3.4 1.71636162583528E-06
3.8 -3.2 2.20358956365475E-06
3.8 -3 1.51144982938455E-05
3.8 -2.8 2.92677751032732E-05
3.8 -2.6 4.34210519127012E-05
3.8 -2.4 5.75743287221291E-05
3.8 -2.2 0.000130293614289491
3.8 -2 0.000305503415183227
3.8 -1.8 0.000480713216076963
3.8 -1.6 0.000655923016970697
3.8 -1.4 0.000831132817864432
3.8 -1.2 0.00158872444473556
3.8 -0.999999999999998 0.0024757342551572
3.8 -0.799999999999998 0.00336274406557883
3.8 -0.599999999999998 0.00424975387600048
3.8 -0.399999999999998 0.00533012126744034
3.8 -0.199999999999998 0.00692610887492894
3.8 2.16493489801906E-15 0.00852209648241752
3.8 0.200000000000002 0.0101180840899061
3.8 0.400000000000002 0.0117140716973947
3.8 0.600000000000002 0.0123168187406507
3.8 0.800000000000002 0.0125471005723195
3.8 1 0.0127773824039882
3.8 1.2 0.013007664235657
3.8 1.4 0.0129191192539967
3.8 1.6 0.0113958536123555
3.8 1.8 0.00987258797071425
3.8 2 0.00834932232907304
3.8 2.2 0.00682605668743183
3.8 2.4 0.00557668120039331
3.8 2.6 0.00448381437312781
3.8 2.8 0.00339094754586233
3.8 3 0.00229808071859683
3.8 3.2 0.00128084890033575
3.8 3.4 0.0010199671721183
3.8 3.6 0.000759085443900839
3.8 3.8 0.00049820371568339
3.8 4 0.000237321987465934
3.8 4.2 0.000105058181255373
3.8 4.4 7.99759767172543E-05
3.8 4.6 5.48937721791369E-05
3.8 4.8 2.98115676410195E-05
4 -5 1.02279560747791E-10
4 -4.8 3.56018476949348E-09
4 -4.6 7.01808997823874E-09
4 -4.4 1.0475995186984E-08
4 -4.2 1.39339003957291E-08
4 -4 1.2131712930694E-07
4 -3.8 3.53410746661105E-07
4 -3.6 5.85504364015242E-07
4 -3.4 8.17597981369393E-07
4 -3.2 1.04969159872356E-06
4 -3 7.19987158210016E-06
4 -2.8 1.39418602020792E-05
4 -2.6 2.06838488220587E-05
4 -2.4 2.74258374420378E-05
4 -2.2 6.20660555589875E-05
4 -2 0.000145528175295638
4 -1.8 0.000228990295032285
4 -1.6 0.000312452414768931
4 -1.4 0.000395914534505578
4 -1.2 0.000756797331876877
4 -0.999999999999998 0.00117932916872254
4 -0.799999999999998 0.00160186100556819
4 -0.599999999999998 0.00202439284241385
4 -0.399999999999998 0.00253903159049741
4 -0.199999999999998 0.00329928876854881
4 2.16493489801906E-15 0.00405954594660021
4 0.200000000000002 0.0048198031246516
4 0.400000000000002 0.005580060302703
4 0.600000000000002 0.00586718205981094
4 0.800000000000002 0.00597687803406509
4 1 0.00608657400831924
4 1.2 0.00619626998257339
4 1.4 0.00615409111002338
4 1.6 0.00542847542685457
4 1.8 0.00470285974368573
4 2 0.00397724406051689
4 2.2 0.00325162837734808
4 2.4 0.00265648172480162
4 2.6 0.00213588880403937
4 2.8 0.00161529588327713
4 3 0.00109470296251485
4 3.2 0.000610139180223228
4 3.4 0.000485866782637463
4 3.6 0.000361594385051699
4 3.8 0.000237321987465941
4 4 0.000113049589880176
4 4.2 5.00450229297868E-05
4 4.4 3.80969815089241E-05
4 4.6 2.61489400880614E-05
4 4.8 1.42008986671986E-05
4.2 -5 4.52773244762433E-11
4.2 -4.8 1.57602985214261E-09
4.2 -4.6 3.10678237980902E-09
4.2 -4.4 4.63753490747541E-09
4.2 -4.2 6.1682874351418E-09
4.2 -4 5.37049141388107E-08
4.2 -3.8 1.56448589853685E-07
4.2 -3.6 2.5919226556856E-07
4.2 -3.4 3.61935941283435E-07
4.2 -3.2 4.64679616998309E-07
4.2 -3 3.18725383081651E-06
4.2 -2.8 6.17181109844497E-06
4.2 -2.6 9.15636836607345E-06
4.2 -2.4 1.21409256337019E-05
4.2 -2.2 2.74755280130073E-05
4.2 -2 6.44227093377452E-05
4.2 -1.8 0.000101369890662483
4.2 -1.6 0.000138317071987221
4.2 -1.4 0.000175264253311958
4.2 -1.2 0.000335020585807803
4.2 -0.999999999999998 0.000522067840786114
4.2 -0.799999999999998 0.000709115095764424
4.2 -0.599999999999998 0.000896162350742735
4.2 -0.399999999999998 0.00112398368097227
4.2 -0.199999999999998 0.00146053587853843
4.2 2.16493489801906E-15 0.00179708807610459
4.2 0.200000000000002 0.00213364027367074
4.2 0.400000000000002 0.0024701924712369
4.2 0.600000000000002 0.00259729611604747
4.2 0.800000000000002 0.0026458565535747
4.2 1 0.00269441699110193
4.2 1.2 0.00274297742862917
4.2 1.4 0.00272430559933587
4.2 1.6 0.00240308856935023
4.2 1.8 0.00208187153936459
4.2 2 0.00176065450937895
4.2 2.2 0.00143943747939331
4.2 2.4 0.00117597674587939
4.2 2.6 0.000945519610349289
4.2 2.8 0.00071506247481919
4.2 3 0.000484605339289089
4.2 3.2 0.000270097656232127
4.2 3.4 0.000215084497906542
4.2 3.6 0.000160071339580957
4.2 3.8 0.000105058181255373
4.2 4 5.00450229297877E-05
4.2 4.2 2.21540327806405E-05
4.2 4.4 1.68648494451943E-05
4.2 4.6 1.15756661097482E-05
4.2 4.8 6.28648277430197E-06
4.4 -5 3.44675512641154E-11
4.4 -4.8 1.1997592691451E-09
4.4 -4.6 2.36505098702608E-09
4.4 -4.4 3.53034270490707E-09
4.4 -4.2 4.69563442278808E-09
4.4 -4 4.0883088888881E-08
4.4 -3.8 1.19097138652833E-07
4.4 -3.6 1.97311188416784E-07
4.4 -3.4 2.75525238180736E-07
4.4 -3.2 3.53739287944688E-07
4.4 -3 2.42631021324979E-06
4.4 -2.8 4.698316826109E-06
4.4 -2.6 6.9703234389682E-06
4.4 -2.4 9.24233005182741E-06
4.4 -2.2 2.09158597874568E-05
4.4 -2 4.90420549879307E-05
4.4 -1.8 7.71682501884052E-05
4.4 -1.6 0.000105294445388879
4.4 -1.4 0.000133420640589353
4.4 -1.2 0.000255035812063382
4.4 -0.999999999999998 0.000397426311598196
4.4 -0.799999999999998 0.000539816811133013
4.4 -0.599999999999998 0.000682207310667828
4.4 -0.399999999999998 0.000855637244295201
4.4 -0.199999999999998 0.00111183900216939
4.4 2.16493489801906E-15 0.00136804076004358
4.4 0.200000000000002 0.00162424251791777
4.4 0.400000000000002 0.00188044427579196
4.4 0.600000000000002 0.00197720245318073
4.4 0.800000000000002 0.00201416928788746
4.4 1 0.0020511361225942
4.4 1.2 0.00208810295730093
4.4 1.4 0.00207388894971975
4.4 1.6 0.00182936115184296
4.4 1.8 0.00158483335396617
4.4 2 0.00134030555608938
4.4 2.2 0.00109577775821259
4.4 2.4 0.000895217180848284
4.4 2.6 0.00071978072949112
4.4 2.8 0.000544344278133956
4.4 3 0.000368907826776791
4.4 3.2 0.000205612962342245
4.4 3.4 0.000163733967133915
4.4 3.6 0.000121854971925585
4.4 3.8 7.99759767172552E-05
4.4 4 3.8096981508925E-05
4.4 4.2 1.68648494451944E-05
4.4 4.4 1.2838436668633E-05
4.4 4.6 8.81202389207167E-06
4.4 4.8 4.78561111551029E-06
4.6 -5 2.36577780519611E-11
4.6 -4.8 8.23488686147539E-10
4.6 -4.6 1.62331959424314E-09
4.6 -4.4 2.42315050233872E-09
4.6 -4.2 3.22298141043433E-09
4.6 -4 2.80612636389512E-08
4.6 -3.8 8.17456874519783E-08
4.6 -3.6 1.35430111265007E-07
4.6 -3.4 1.89114535078036E-07
4.6 -3.2 2.42798958891065E-07
4.6 -3 1.6653665956831E-06
4.6 -2.8 3.22482255377305E-06
4.6 -2.6 4.78427851186299E-06
4.6 -2.4 6.34373446995292E-06
4.6 -2.2 1.43561915619053E-05
4.6 -2 3.36614006381155E-05
4.6 -1.8 5.29666097143265E-05
4.6 -1.6 7.22718187905369E-05
4.6 -1.4 9.15770278667476E-05
4.6 -1.2 0.00017505103831896
4.6 -0.999999999999998 0.000272784782410281
4.6 -0.799999999999998 0.000370518526501602
4.6 -0.599999999999998 0.000468252270592922
4.6 -0.399999999999998 0.000587290807618124
4.6 -0.199999999999998 0.000763142125800349
4.6 2.16493489801906E-15 0.000938993443982572
4.6 0.200000000000002 0.0011148447621648
4.6 0.400000000000002 0.00129069608034702
4.6 0.600000000000002 0.00135710879031398
4.6 0.800000000000002 0.00138248202220022
4.6 1 0.00140785525408646
4.6 1.2 0.0014332284859727
4.6 1.4 0.00142347230010363
4.6 1.6 0.00125563373433568
4.6 1.8 0.00108779516856774
4.6 2 0.000919956602799796
4.6 2.2 0.000752118037031849
4.6 2.4 0.000614457615817184
4.6 2.6 0.000494041848632953
4.6 2.8 0.000373626081448725
4.6 3 0.000253210314264493
4.6 3.2 0.000141128268452363
4.6 3.4 0.000112383436361287
4.6 3.6 8.36386042702116E-05
4.6 3.8 5.48937721791369E-05
4.6 4 2.61489400880614E-05
4.6 4.2 1.15756661097483E-05
4.6 4.4 8.81202389207167E-06
4.6 4.6 6.04838167439514E-06
4.6 4.8 3.2847394567185E-06
4.8 -5 1.28480048397537E-11
4.8 -4.8 4.47218103149952E-10
4.8 -4.6 8.81588201460151E-10
4.8 -4.4 1.31595829977032E-09
4.8 -4.2 1.75032839808052E-09
4.8 -4 1.52394383890215E-08
4.8 -3.8 4.43942362511273E-08
4.8 -3.6 7.35490341132331E-08
4.8 -3.4 1.02703831975339E-07
4.8 -3.2 1.31858629837445E-07
4.8 -3 9.04422978116484E-07
4.8 -2.8 1.75132828143714E-06
4.8 -2.6 2.5982335847578E-06
4.8 -2.4 3.44513888807845E-06
4.8 -2.2 7.79652333635474E-06
4.8 -2 1.82807462883014E-05
4.8 -1.8 2.87649692402487E-05
4.8 -1.6 3.92491921921956E-05
4.8 -1.4 4.97334151441425E-05
4.8 -1.2 9.50662645745372E-05
4.8 -0.999999999999998 0.000148143253222363
4.8 -0.799999999999998 0.00020122024187019
4.8 -0.599999999999998 0.000254297230518016
4.8 -0.399999999999998 0.00031894437094105
4.8 -0.199999999999998 0.000414445249431308
4.8 2.16493489801906E-15 0.000509946127921566
4.8 0.200000000000002 0.000605447006411823
4.8 0.400000000000002 0.000700947884902081
4.8 0.600000000000002 0.000737015127447234
4.8 0.800000000000002 0.000750794756512976
4.8 1 0.000764574385578718
4.8 1.2 0.00077835401464446
4.8 1.4 0.000773055650487509
4.8 1.6 0.000681906316828412
4.8 1.8 0.000590756983169315
4.8 2 0.000499607649510219
4.8 2.2 0.00040845831585112
4.8 2.4 0.000333698050786081
4.8 2.6 0.000268302967774785
4.8 2.8 0.000202907884763487
4.8 3 0.000137512801752192
4.8 3.2 7.66435745624804E-05
4.8 3.4 6.10329055886595E-05
4.8 3.6 4.54222366148395E-05
4.8 3.8 2.98115676410195E-05
4.8 4 1.42008986671986E-05
4.8 4.2 6.28648277430208E-06
4.8 4.4 4.78561111551018E-06
4.8 4.6 3.2847394567185E-06
4.8 4.8 1.78386779792661E-06
